%!PS-Adobe-3.0 EPSF-3.0
%%Title: Double_Scroll_Pytorch_100_basic_accuracy.eps
%%Creator: Matplotlib v3.5.1, https://matplotlib.org/
%%CreationDate: Fri Sep 15 16:30:30 2023
%%Orientation: portrait
%%BoundingBox: -54 36 666 756
%%HiResBoundingBox: -54.000000 36.000000 666.000000 756.000000
%%EndComments
%%BeginProlog
/mpldict 11 dict def
mpldict begin
/_d { bind def } bind def
/m { moveto } _d
/l { lineto } _d
/r { rlineto } _d
/c { curveto } _d
/cl { closepath } _d
/ce { closepath eofill } _d
/box {
      m
      1 index 0 r
      0 exch r
      neg 0 r
      cl
    } _d
/clipbox {
      box
      clip
      newpath
    } _d
/sc { setcachedevice } _d
%!PS-Adobe-3.0 Resource-Font
%%Creator: Converted from TrueType to Type 3 by Matplotlib.
10 dict begin
/FontName /DejaVuSans def
/PaintType 0 def
/FontMatrix [0.00048828125 0 0 0.00048828125 0 0] def
/FontBBox [-2090 -948 3673 2524] def
/FontType 3 def
/Encoding [/minus /space /period /zero /one /two /five /A /D /P /a /b /c /d /e /i /l /o /r /s /t /u /x /y /z] def
/CharStrings 26 dict dup begin
/.notdef 0 def
/minus{1716 0 217 557 1499 727 sc
217 727 m
1499 727 l
1499 557 l
217 557 l
217 727 l

ce} _d
/space{651 0 0 0 0 0 sc
ce} _d
/period{651 0 219 0 430 254 sc
219 254 m
430 254 l
430 0 l
219 0 l
219 254 l

ce} _d
/zero{1303 0 135 -29 1167 1520 sc
651 1360 m
547 1360 469 1309 416 1206 c
364 1104 338 950 338 745 c
338 540 364 387 416 284 c
469 182 547 131 651 131 c
756 131 834 182 886 284 c
939 387 965 540 965 745 c
965 950 939 1104 886 1206 c
834 1309 756 1360 651 1360 c

651 1520 m
818 1520 946 1454 1034 1321 c
1123 1189 1167 997 1167 745 c
1167 494 1123 302 1034 169 c
946 37 818 -29 651 -29 c
484 -29 356 37 267 169 c
179 302 135 494 135 745 c
135 997 179 1189 267 1321 c
356 1454 484 1520 651 1520 c

ce} _d
/one{1303 0 225 0 1114 1493 sc
254 170 m
584 170 l
584 1309 l
225 1237 l
225 1421 l
582 1493 l
784 1493 l
784 170 l
1114 170 l
1114 0 l
254 0 l
254 170 l

ce} _d
/two{1303 0 150 0 1098 1520 sc
393 170 m
1098 170 l
1098 0 l
150 0 l
150 170 l
227 249 331 356 463 489 c
596 623 679 709 713 748 c
778 821 823 882 848 932 c
874 983 887 1032 887 1081 c
887 1160 859 1225 803 1275 c
748 1325 675 1350 586 1350 c
523 1350 456 1339 385 1317 c
315 1295 240 1262 160 1217 c
160 1421 l
241 1454 317 1478 388 1495 c
459 1512 523 1520 582 1520 c
737 1520 860 1481 952 1404 c
1044 1327 1090 1223 1090 1094 c
1090 1033 1078 974 1055 919 c
1032 864 991 800 930 725 c
913 706 860 650 771 557 c
682 465 556 336 393 170 c

ce} _d
/five{1303 0 158 -29 1124 1493 sc
221 1493 m
1014 1493 l
1014 1323 l
406 1323 l
406 957 l
435 967 465 974 494 979 c
523 984 553 987 582 987 c
749 987 881 941 978 850 c
1075 759 1124 635 1124 479 c
1124 318 1074 193 974 104 c
874 15 733 -29 551 -29 c
488 -29 424 -24 359 -13 c
294 -2 227 14 158 35 c
158 238 l
218 205 280 181 344 165 c
408 149 476 141 547 141 c
662 141 754 171 821 232 c
888 293 922 375 922 479 c
922 583 888 665 821 726 c
754 787 662 817 547 817 c
493 817 439 811 385 799 c
332 787 277 768 221 743 c
221 1493 l

ce} _d
/A{1401 0 16 0 1384 1493 sc
700 1294 m
426 551 l
975 551 l
700 1294 l

586 1493 m
815 1493 l
1384 0 l
1174 0 l
1038 383 l
365 383 l
229 0 l
16 0 l
586 1493 l

ce} _d
/D{1577 0 201 0 1456 1493 sc
403 1327 m
403 166 l
647 166 l
853 166 1004 213 1099 306 c
1195 399 1243 547 1243 748 c
1243 948 1195 1094 1099 1187 c
1004 1280 853 1327 647 1327 c
403 1327 l

201 1493 m
616 1493 l
905 1493 1118 1433 1253 1312 c
1388 1192 1456 1004 1456 748 c
1456 491 1388 302 1252 181 c
1116 60 904 0 616 0 c
201 0 l
201 1493 l

ce} _d
/P{1235 0 201 0 1165 1493 sc
403 1327 m
403 766 l
657 766 l
751 766 824 790 875 839 c
926 888 952 957 952 1047 c
952 1136 926 1205 875 1254 c
824 1303 751 1327 657 1327 c
403 1327 l

201 1493 m
657 1493 l
824 1493 951 1455 1036 1379 c
1122 1304 1165 1193 1165 1047 c
1165 900 1122 788 1036 713 c
951 638 824 600 657 600 c
403 600 l
403 0 l
201 0 l
201 1493 l

ce} _d
/a{1255 0 123 -29 1069 1147 sc
702 563 m
553 563 450 546 393 512 c
336 478 307 420 307 338 c
307 273 328 221 371 182 c
414 144 473 125 547 125 c
649 125 731 161 792 233 c
854 306 885 402 885 522 c
885 563 l
702 563 l

1069 639 m
1069 0 l
885 0 l
885 170 l
843 102 791 52 728 19 c
665 -13 589 -29 498 -29 c
383 -29 292 3 224 67 c
157 132 123 218 123 326 c
123 452 165 547 249 611 c
334 675 460 707 627 707 c
885 707 l
885 725 l
885 810 857 875 801 921 c
746 968 668 991 567 991 c
503 991 441 983 380 968 c
319 953 261 930 205 899 c
205 1069 l
272 1095 338 1114 401 1127 c
464 1140 526 1147 586 1147 c
748 1147 869 1105 949 1021 c
1029 937 1069 810 1069 639 c

ce} _d
/b{1300 0 186 -29 1188 1556 sc
997 559 m
997 694 969 800 913 877 c
858 954 781 993 684 993 c
587 993 510 954 454 877 c
399 800 371 694 371 559 c
371 424 399 317 454 240 c
510 163 587 125 684 125 c
781 125 858 163 913 240 c
969 317 997 424 997 559 c

371 950 m
410 1017 458 1066 517 1098 c
576 1131 647 1147 729 1147 c
865 1147 975 1093 1060 985 c
1145 877 1188 735 1188 559 c
1188 383 1145 241 1060 133 c
975 25 865 -29 729 -29 c
647 -29 576 -13 517 19 c
458 52 410 101 371 168 c
371 0 l
186 0 l
186 1556 l
371 1556 l
371 950 l

ce} _d
/c{1126 0 113 -29 999 1147 sc
999 1077 m
999 905 l
947 934 895 955 842 969 c
790 984 737 991 684 991 c
565 991 472 953 406 877 c
340 802 307 696 307 559 c
307 422 340 316 406 240 c
472 165 565 127 684 127 c
737 127 790 134 842 148 c
895 163 947 184 999 213 c
999 43 l
948 19 894 1 839 -11 c
784 -23 726 -29 664 -29 c
495 -29 361 24 262 130 c
163 236 113 379 113 559 c
113 742 163 885 263 990 c
364 1095 501 1147 676 1147 c
733 1147 788 1141 842 1129 c
896 1118 948 1100 999 1077 c

ce} _d
/d{1300 0 113 -29 1114 1556 sc
930 950 m
930 1556 l
1114 1556 l
1114 0 l
930 0 l
930 168 l
891 101 842 52 783 19 c
724 -13 654 -29 571 -29 c
436 -29 325 25 240 133 c
155 241 113 383 113 559 c
113 735 155 877 240 985 c
325 1093 436 1147 571 1147 c
654 1147 724 1131 783 1098 c
842 1066 891 1017 930 950 c

303 559 m
303 424 331 317 386 240 c
442 163 519 125 616 125 c
713 125 790 163 846 240 c
902 317 930 424 930 559 c
930 694 902 800 846 877 c
790 954 713 993 616 993 c
519 993 442 954 386 877 c
331 800 303 694 303 559 c

ce} _d
/e{1260 0 113 -29 1151 1147 sc
1151 606 m
1151 516 l
305 516 l
313 389 351 293 419 226 c
488 160 583 127 705 127 c
776 127 844 136 910 153 c
977 170 1043 196 1108 231 c
1108 57 l
1042 29 974 8 905 -7 c
836 -22 765 -29 694 -29 c
515 -29 374 23 269 127 c
165 231 113 372 113 549 c
113 732 162 878 261 985 c
360 1093 494 1147 662 1147 c
813 1147 932 1098 1019 1001 c
1107 904 1151 773 1151 606 c

967 660 m
966 761 937 841 882 901 c
827 961 755 991 664 991 c
561 991 479 962 417 904 c
356 846 320 764 311 659 c
967 660 l

ce} _d
/i{569 0 193 0 377 1556 sc
193 1120 m
377 1120 l
377 0 l
193 0 l
193 1120 l

193 1556 m
377 1556 l
377 1323 l
193 1323 l
193 1556 l

ce} _d
/l{569 0 193 0 377 1556 sc
193 1556 m
377 1556 l
377 0 l
193 0 l
193 1556 l

ce} _d
/o{1253 0 113 -29 1141 1147 sc
627 991 m
528 991 450 952 393 875 c
336 798 307 693 307 559 c
307 425 335 319 392 242 c
449 165 528 127 627 127 c
725 127 803 166 860 243 c
917 320 946 426 946 559 c
946 692 917 797 860 874 c
803 952 725 991 627 991 c

627 1147 m
787 1147 913 1095 1004 991 c
1095 887 1141 743 1141 559 c
1141 376 1095 232 1004 127 c
913 23 787 -29 627 -29 c
466 -29 340 23 249 127 c
158 232 113 376 113 559 c
113 743 158 887 249 991 c
340 1095 466 1147 627 1147 c

ce} _d
/r{842 0 186 0 842 1147 sc
842 948 m
821 960 799 969 774 974 c
750 980 723 983 694 983 c
590 983 510 949 454 881 c
399 814 371 717 371 590 c
371 0 l
186 0 l
186 1120 l
371 1120 l
371 946 l
410 1014 460 1064 522 1097 c
584 1130 659 1147 748 1147 c
761 1147 775 1146 790 1144 c
805 1143 822 1140 841 1137 c
842 948 l

ce} _d
/s{1067 0 111 -29 967 1147 sc
907 1087 m
907 913 l
855 940 801 960 745 973 c
689 986 631 993 571 993 c
480 993 411 979 365 951 c
320 923 297 881 297 825 c
297 782 313 749 346 724 c
379 700 444 677 543 655 c
606 641 l
737 613 829 573 884 522 c
939 471 967 400 967 309 c
967 205 926 123 843 62 c
761 1 648 -29 504 -29 c
444 -29 381 -23 316 -11 c
251 0 183 18 111 41 c
111 231 l
179 196 246 169 312 151 c
378 134 443 125 508 125 c
595 125 661 140 708 169 c
755 199 778 241 778 295 c
778 345 761 383 727 410 c
694 437 620 462 506 487 c
442 502 l
328 526 246 563 195 612 c
144 662 119 730 119 817 c
119 922 156 1004 231 1061 c
306 1118 412 1147 549 1147 c
617 1147 681 1142 741 1132 c
801 1122 856 1107 907 1087 c

ce} _d
/t{803 0 55 0 754 1438 sc
375 1438 m
375 1120 l
754 1120 l
754 977 l
375 977 l
375 369 l
375 278 387 219 412 193 c
437 167 488 154 565 154 c
754 154 l
754 0 l
565 0 l
423 0 325 26 271 79 c
217 132 190 229 190 369 c
190 977 l
55 977 l
55 1120 l
190 1120 l
190 1438 l
375 1438 l

ce} _d
/u{1298 0 174 -29 1112 1147 sc
174 442 m
174 1120 l
358 1120 l
358 449 l
358 343 379 263 420 210 c
461 157 523 131 606 131 c
705 131 784 163 841 226 c
899 289 928 376 928 485 c
928 1120 l
1112 1120 l
1112 0 l
928 0 l
928 172 l
883 104 831 53 772 20 c
713 -13 645 -29 567 -29 c
438 -29 341 11 274 91 c
207 171 174 288 174 442 c

637 1147 m
637 1147 l

ce} _d
/x{1212 0 59 0 1145 1120 sc
1124 1120 m
719 575 l
1145 0 l
928 0 l
602 440 l
276 0 l
59 0 l
494 586 l
96 1120 l
313 1120 l
610 721 l
907 1120 l
1124 1120 l

ce} _d
/y{1212 0 61 -426 1151 1120 sc
659 -104 m
607 -237 556 -324 507 -365 c
458 -406 392 -426 309 -426 c
162 -426 l
162 -272 l
270 -272 l
321 -272 360 -260 388 -236 c
416 -212 447 -155 481 -66 c
514 18 l
61 1120 l
256 1120 l
606 244 l
956 1120 l
1151 1120 l
659 -104 l

ce} _d
/z{1075 0 88 0 987 1120 sc
113 1120 m
987 1120 l
987 952 l
295 147 l
987 147 l
987 0 l
88 0 l
88 168 l
780 973 l
113 973 l
113 1120 l

ce} _d
end readonly def

/BuildGlyph {
 exch begin
 CharStrings exch
 2 copy known not {pop /.notdef} if
 true 3 1 roll get exec
 end
} _d

/BuildChar {
 1 index /Encoding get exch get
 1 index /BuildGlyph get exec
} _d

FontName currentdict end definefont pop
end
%%EndProlog
mpldict begin
-54 36 translate
720 720 0 0 clipbox
gsave
0 0 m
720 0 l
720 720 l
0 720 l
cl
1.000 setgray
fill
grestore
gsave
91.8 79.2 m
646.2 79.2 l
646.2 633.6 l
91.8 633.6 l
cl
1.000 setgray
fill
grestore
1.000 setlinewidth
0 setlinejoin
0 setlinecap
[] 0 setdash
0.950 setgray
gsave
133.661023 215.897273 m
316.742009 369.359386 l
314.197008 590.679186 l
122.354653 450.681373 l
gsave
fill
grestore
stroke
grestore
0.900 setgray
gsave
316.742009 369.359386 m
610.521668 283.969237 l
621.005628 512.912144 l
314.197008 590.679186 l
gsave
fill
grestore
stroke
grestore
0.925 setgray
gsave
133.661023 215.897273 m
445.08181 114.187244 l
610.521668 283.969237 l
316.742009 369.359386 l
gsave
fill
grestore
stroke
grestore
0.800 setlinewidth
1 setlinejoin
2 setlinecap
0.000 setgray
gsave
133.661023 215.897273 m
445.08181 114.187244 l
stroke
grestore
/DejaVuSans 10.000 selectfont
gsave

266.084080 128.504772 translate
0.000000 rotate
0.000000 0 m /x glyphshow
grestore
gsave
146.803545 213.465184 m
142.030335 209.435366 l
stroke
grestore
gsave

125.556133 188.873816 translate
0.000000 rotate
0.000000 0 m /minus glyphshow
8.378906 0 m /two glyphshow
14.741211 0 m /period glyphshow
17.919922 0 m /zero glyphshow
grestore
gsave
180.798905 202.373271 m
176.070758 198.295726 l
stroke
grestore
gsave

159.582901 177.653583 translate
0.000000 rotate
0.000000 0 m /minus glyphshow
8.378906 0 m /one glyphshow
14.741211 0 m /period glyphshow
17.919922 0 m /five glyphshow
grestore
gsave
215.197656 191.149741 m
210.515984 187.023615 l
stroke
grestore
gsave

194.014452 166.299873 translate
0.000000 rotate
0.000000 0 m /minus glyphshow
8.378906 0 m /one glyphshow
14.741211 0 m /period glyphshow
17.919922 0 m /zero glyphshow
grestore
gsave
250.007023 179.792237 m
245.373276 175.616656 l
stroke
grestore
gsave

228.858053 154.810291 translate
0.000000 rotate
0.000000 0 m /minus glyphshow
8.378906 0 m /zero glyphshow
14.741211 0 m /period glyphshow
17.919922 0 m /five glyphshow
grestore
gsave
285.234402 168.298344 m
280.650075 164.072415 l
stroke
grestore
gsave

268.308645 143.182383 translate
0.000000 rotate
0.000000 0 m /zero glyphshow
6.362305 0 m /period glyphshow
9.541016 0 m /zero glyphshow
grestore
gsave
320.887367 156.665593 m
316.353997 152.388399 l
stroke
grestore
gsave

303.998850 131.413635 translate
0.000000 rotate
0.000000 0 m /zero glyphshow
6.362305 0 m /period glyphshow
9.541016 0 m /five glyphshow
grestore
gsave
356.973678 144.891451 m
352.492849 140.562053 l
stroke
grestore
gsave

340.123974 119.501474 translate
0.000000 rotate
0.000000 0 m /one glyphshow
6.362305 0 m /period glyphshow
9.541016 0 m /zero glyphshow
grestore
gsave
393.501284 132.973324 m
389.074626 128.590762 l
stroke
grestore
gsave

376.692016 107.443263 translate
0.000000 rotate
0.000000 0 m /one glyphshow
6.362305 0 m /period glyphshow
9.541016 0 m /five glyphshow
grestore
gsave
430.478329 120.908555 m
426.107521 116.471843 l
stroke
grestore
gsave

413.711171 95.236297 translate
0.000000 rotate
0.000000 0 m /two glyphshow
6.362305 0 m /period glyphshow
9.541016 0 m /zero glyphshow
grestore
gsave
610.521668 283.969237 m
445.08181 114.187244 l
stroke
grestore
gsave

555.498146 172.129283 translate
0.000000 rotate
0.000000 0 m /y glyphshow
grestore
gsave
460.891903 133.929817 m
468.722607 131.404398 l
stroke
grestore
gsave

464.191075 112.126708 translate
0.000000 rotate
0.000000 0 m /minus glyphshow
8.378906 0 m /one glyphshow
14.741211 0 m /period glyphshow
17.919922 0 m /zero glyphshow
grestore
gsave
496.570304 170.479044 m
504.299919 168.046985 l
stroke
grestore
gsave

499.606431 148.966734 translate
0.000000 rotate
0.000000 0 m /minus glyphshow
8.378906 0 m /zero glyphshow
14.741211 0 m /period glyphshow
17.919922 0 m /five glyphshow
grestore
gsave
530.942524 205.690211 m
538.573136 203.346428 l
stroke
grestore
gsave

537.911843 184.457125 translate
0.000000 rotate
0.000000 0 m /zero glyphshow
6.362305 0 m /period glyphshow
9.541016 0 m /zero glyphshow
grestore
gsave
564.079004 239.635475 m
571.612669 237.375248 l
stroke
grestore
gsave

570.802326 218.670711 translate
0.000000 rotate
0.000000 0 m /zero glyphshow
6.362305 0 m /period glyphshow
9.541016 0 m /five glyphshow
grestore
gsave
596.045206 272.381898 m
603.483952 270.200838 l
stroke
grestore
gsave

602.530449 251.675176 translate
0.000000 rotate
0.000000 0 m /one glyphshow
6.362305 0 m /period glyphshow
9.541016 0 m /zero glyphshow
grestore
gsave
610.521668 283.969237 m
621.005628 512.912144 l
stroke
grestore
gsave

653.539425 398.603094 translate
0.000000 rotate
0.000000 0 m /z glyphshow
grestore
gsave
608.786135 300.80116 m
616.213099 298.661912 l
stroke
grestore
gsave

622.226267 295.088869 translate
0.000000 rotate
0.000000 0 m /minus glyphshow
8.378906 0 m /two glyphshow
grestore
gsave
610.895642 347.364433 m
618.392672 345.261787 l
stroke
grestore
gsave

624.522296 341.619913 translate
0.000000 rotate
0.000000 0 m /minus glyphshow
8.378906 0 m /one glyphshow
grestore
gsave
613.043814 394.781156 m
620.612243 392.716819 l
stroke
grestore
gsave

631.047863 389.002906 translate
0.000000 rotate
0.000000 0 m /zero glyphshow
grestore
gsave
615.231723 443.075009 m
622.872923 441.050768 l
stroke
grestore
gsave

633.429134 437.261460 translate
0.000000 rotate
0.000000 0 m /one glyphshow
grestore
gsave
617.460483 492.270559 m
625.175864 490.288278 l
stroke
grestore
gsave

635.854818 486.420070 translate
0.000000 rotate
0.000000 0 m /two glyphshow
grestore
1.000 setlinewidth
1.000 0.000 0.000 setrgbcolor
gsave
554.4 554.4 91.8 79.2 clipbox
486.660781 459.23219 m
467.257046 451.698355 l
446.657496 442.265143 l
425.323941 431.122664 l
403.768932 418.510984 l
382.539092 404.710633 l
362.204021 390.140473 l
343.296659 374.954693 l
326.36649 359.939243 l
311.856923 345.578715 l
300.114792 332.666587 l
285.325005 314.916006 l
281.766293 311.547248 l
279.959325 311.954815 l
279.089095 315.662521 l
278.28704 321.997291 l
276.668983 329.656206 l
273.538054 332.729986 l
269.730311 330.154066 l
266.214425 327.127347 l
263.159681 324.182395 l
260.639331 321.198628 l
258.748285 318.274261 l
257.591836 315.668809 l
257.221869 313.350006 l
257.683679 311.354781 l
259.021189 309.843664 l
261.234018 308.790319 l
264.311151 308.24134 l
268.231984 308.333535 l
272.929902 309.006634 l
278.330772 310.3001 l
284.33901 312.234991 l
290.836262 314.788375 l
297.684073 317.890861 l
304.738811 321.535641 l
311.836862 325.619025 l
318.812564 330.069039 l
325.497779 334.809477 l
331.716063 339.670389 l
337.317628 344.67227 l
342.133674 349.568754 l
346.027025 354.28389 l
348.873442 358.697687 l
350.569039 362.698323 l
351.029473 366.151325 l
350.203016 369.008862 l
348.052936 371.121904 l
344.581994 372.484479 l
339.806037 373.082367 l
333.774829 372.845239 l
326.553946 371.745786 l
318.239525 369.863468 l
308.937432 367.172865 l
298.778947 363.654078 l
287.937378 359.277132 l
276.6105 354.047551 l
265.032551 347.997739 l
253.462696 341.160923 l
242.197824 333.707042 l
231.541614 325.78597 l
221.80315 317.580633 l
213.289154 309.302148 l
206.284789 301.128662 l
201.059794 293.299591 l
197.805513 285.773377 l
196.775049 279.165028 l
198.132874 273.845952 l
201.869119 269.401306 l
208.095167 266.592497 l
216.700429 265.09971 l
227.643752 265.503913 l
240.678503 267.326707 l
255.650803 271.210542 l
272.193751 276.509347 l
290.037383 283.763472 l
308.748016 292.383234 l
327.938569 302.466304 l
347.162193 313.69121 l
365.98123 325.931381 l
383.951356 338.926847 l
400.630595 352.179365 l
415.624596 365.374251 l
428.596239 378.124636 l
439.283141 389.825492 l
447.55965 399.802135 l
453.484802 407.284914 l
457.329089 411.666944 l
459.563296 412.777103 l
460.772495 410.789419 l
462.892342 399.356228 l
465.181121 392.090382 l
468.44395 389.735917 l
471.969452 391.398084 l
478.947127 395.791651 l
482.222802 398.218374 l
485.24113 400.840294 l
487.913892 403.335585 l
490.160255 405.760507 l
491.903489 408.223888 l
493.073792 410.549605 l
493.612063 412.623438 l
493.47081 414.450799 l
492.616809 415.933082 l
491.032379 416.945075 l
488.715945 417.555975 l
485.684586 417.694301 l
481.973714 417.276121 l
477.63763 416.351839 l
472.749319 414.897897 l
467.398956 412.877715 l
461.694546 410.387358 l
455.756985 407.404278 l
449.721096 404.027338 l
443.72962 400.301924 l
437.930929 396.296572 l
432.475164 392.093994 l
427.510587 387.792938 l
423.181178 383.538181 l
419.61348 379.362126 l
416.929173 375.454617 l
415.223343 371.864454 l
414.575938 368.723296 l
415.040195 366.08852 l
416.64919 364.07213 l
419.406975 362.696518 l
423.297302 362.020729 l
428.282311 362.085071 l
434.294111 362.870831 l
441.255384 364.402575 l
449.057787 366.692912 l
457.574988 369.72752 l
466.649889 373.463799 l
476.115594 377.979753 l
485.772586 383.139788 l
495.406118 388.885955 l
504.79025 395.133871 l
513.687679 401.864715 l
521.860952 408.73096 l
529.07456 415.675576 l
535.099064 422.61086 l
539.723463 429.299863 l
542.75709 435.536606 l
544.020856 441.464493 l
543.403426 446.411457 l
540.811919 450.166649 l
536.168803 453.129005 l
529.486256 454.753042 l
520.81064 454.837602 l
510.223557 453.796618 l
497.897333 450.877084 l
484.025496 446.689803 l
468.876238 440.868942 l
452.759048 433.58475 l
436.032066 425.028058 l
419.087091 415.260528 l
402.343968 404.504126 l
386.241611 393.088806 l
371.213087 381.279773 l
357.654937 369.26572 l
345.973289 357.72533 l
336.455573 346.911735 l
329.325786 337.388691 l
324.671577 329.722378 l
322.41116 324.46132 l
322.27391 321.981246 l
323.814987 322.313063 l
326.474314 325.15618 l
329.658058 330.042618 l
332.763666 336.398814 l
335.250132 343.665323 l
336.624681 351.221511 l
336.491633 358.128717 l
334.672775 362.844714 l
331.357577 364.893385 l
326.825067 365.269908 l
321.24882 364.717032 l
314.730534 363.414771 l
307.362175 361.365046 l
299.278636 358.651217 l
290.604965 355.198354 l
281.498277 350.971641 l
272.182879 346.236355 l
262.813818 340.704162 l
253.682052 334.877757 l
244.974939 328.531735 l
236.938628 321.807835 l
229.863843 315.176131 l
223.946562 308.55419 l
219.410622 302.163905 l
216.440628 296.134737 l
215.191482 290.606711 l
215.853222 286.20692 l
218.420772 282.527905 l
222.939484 279.801032 l
229.431604 278.440239 l
237.807379 278.414848 l
247.908805 279.515516 l
259.632016 282.314881 l
272.696556 286.321353 l
286.865651 291.692444 l
301.84985 298.437792 l
317.305033 306.283222 l
332.891225 315.162126 l
348.246353 324.890909 l
362.998842 335.178099 l
376.798156 345.871633 l
389.307054 356.720903 l
400.200316 367.246365 l
409.231199 377.259861 l
416.195447 386.284278 l
420.992355 393.88987 l
423.63748 399.598626 l
424.289881 403.008015 l
423.245085 403.923158 l
420.909163 402.429448 l
417.753892 398.815162 l
414.297514 393.531193 l
411.040181 387.048347 l
408.467949 379.890579 l
407.010547 372.612731 l
407.01639 365.914162 l
408.66977 360.703833 l
411.937145 357.58258 l
416.662926 356.325424 l
422.694515 356.390895 l
429.91068 357.455433 l
438.199225 359.389007 l
447.440337 362.155691 l
457.487994 365.740774 l
468.171423 370.177213 l
479.28754 375.418128 l
490.604941 381.531139 l
501.868069 388.341983 l
512.809765 395.753115 l
523.154934 403.503023 l
532.620558 411.647222 l
540.92795 419.99406 l
547.818933 428.140169 l
553.043739 435.994331 l
556.394169 443.072736 l
557.642211 449.882261 l
556.668447 455.570323 l
553.362611 459.972875 l
547.643848 463.318251 l
539.537237 464.891361 l
529.071582 465.125065 l
516.390267 463.35233 l
501.659003 460.039128 l
485.141091 454.684711 l
467.144024 447.741539 l
448.044918 438.954595 l
428.272033 428.650512 l
408.295855 416.944525 l
388.62094 404.13508 l
369.777625 390.67753 l
352.253484 376.617284 l
336.549828 362.630931 l
323.094183 349.232557 l
312.214054 337.040433 l
304.092247 326.824331 l
295.750245 315.444763 l
294.686805 314.972749 l
294.81291 317.678307 l
295.354329 322.988586 l
295.524302 330.200882 l
294.578356 337.92831 l
292.055825 341.365881 l
288.66746 340.232376 l
281.566925 336.374572 l
278.072624 334.100484 l
274.735752 331.676893 l
271.663686 329.284704 l
268.912509 326.737858 l
266.569832 324.110314 l
264.746185 321.691729 l
263.500576 319.455011 l
262.894148 317.464432 l
262.962483 315.685718 l
263.747031 314.236427 l
265.264028 313.160466 l
267.513108 312.503134 l
270.4798 312.334742 l
274.12279 312.652213 l
278.38951 313.500272 l
283.203197 314.860765 l
288.474677 316.738976 l
294.0969 319.104183 l
299.951687 321.92914 l
305.909565 325.167727 l
311.833827 328.766279 l
317.581473 332.644694 l
323.007617 336.707257 l
327.971123 340.865265 l
332.336423 345.023152 l
335.978387 349.093562 l
338.779732 352.948964 l
340.64451 356.522882 l
341.486393 359.673671 l
341.250411 362.365277 l
339.891914 364.4847 l
337.395334 365.98703 l
333.764106 366.8352 l
329.025006 366.95463 l
323.22969 366.357881 l
316.453135 365.042219 l
308.785731 362.971585 l
300.337839 360.139468 l
291.271263 356.579812 l
281.748729 352.292411 l
271.95673 347.270141 l
262.126714 341.648667 l
252.485449 335.452276 l
243.289769 328.833354 l
234.797107 321.930904 l
227.263927 314.903576 l
220.920697 307.814616 l
216.030777 301.066842 l
212.76039 294.593478 l
211.363999 289.128832 l
211.871 284.175228 l
214.396947 280.089352 l
219.018837 277.300916 l
225.700724 275.813526 l
234.329858 275.422931 l
244.864104 276.827745 l
257.035341 279.375911 l
270.682505 283.600049 l
285.501365 289.203626 l
301.179906 296.088089 l
317.392271 304.294453 l
333.762344 313.558535 l
349.90926 323.660601 l
365.459657 334.488945 l
380.039111 345.80327 l
393.264712 356.996627 l
404.850125 368.180892 l
414.492902 378.652035 l
422.00779 388.11435 l
427.294847 396.024472 l
430.396636 401.858401 l
431.512561 405.180666 l
430.990263 405.828796 l
429.282838 403.930932 l
426.927379 399.849568 l
424.476106 394.041443 l
422.489973 387.033878 l
421.491682 379.445837 l
421.914037 372.316145 l
423.913464 367.507477 l
427.262441 365.591869 l
431.710943 365.358838 l
437.120778 365.990823 l
443.401945 367.360098 l
450.453605 369.408538 l
458.159365 372.150109 l
466.388971 375.578348 l
474.972831 379.656088 l
483.721021 384.352312 l
492.450285 389.573693 l
500.949243 395.253856 l
509.008279 401.270197 l
516.407386 407.576802 l
522.936051 413.970399 l
528.393013 420.168643 l
532.578381 426.331348 l
535.32807 431.983608 l
536.486713 437.166004 l
535.938529 441.617575 l
533.606826 444.95783 l
529.420138 447.683156 l
523.394106 449.148759 l
515.568447 449.257502 l
506.025038 448.166889 l
494.90529 445.774979 l
482.400107 441.826145 l
468.74145 436.603422 l
454.211668 430.125725 l
439.130229 422.401409 l
423.850267 413.619963 l
408.749306 403.978536 l
394.211191 393.611523 l
380.636647 382.968668 l
368.38956 372.196365 l
357.812153 361.668958 l
349.195812 351.766609 l
342.758358 342.906881 l
338.612543 335.502043 l
336.758526 330.020524 l
337.032446 326.796221 l
339.136264 325.998358 l
342.655673 327.527547 l
347.10823 331.044352 l
351.999058 336.094469 l
356.868005 342.175633 l
361.303078 348.8087 l
364.9527 355.539956 l
367.531349 361.961373 l
368.829954 367.724874 l
368.708869 372.547845 l
367.119318 376.270442 l
364.047852 378.812121 l
359.533195 380.196424 l
353.639896 380.514151 l
346.443767 379.889373 l
338.025932 378.466639 l
328.463124 376.387471 l
317.819803 373.75028 l
306.156279 370.546181 l
293.550536 366.577117 l
280.139928 361.495173 l
266.166765 355.064936 l
251.964365 347.369399 l
237.907593 338.65665 l
224.392236 329.231641 l
211.800272 319.29449 l
200.512435 309.056494 l
190.905328 298.796023 l
183.320882 288.74062 l
178.114475 279.425431 l
175.561833 271.198201 l
175.695748 263.280446 l
178.913761 257.524617 l
185.08517 252.970802 l
194.252617 250.179522 l
206.392755 249.833889 l
221.204163 251.219588 l
238.456889 254.551122 l
257.889825 260.379078 l
279.058244 268.264831 l
301.500521 277.94636 l
324.756572 289.558866 l
348.290052 302.733491 l
371.565653 317.245198 l
394.03757 332.698057 l
415.176067 348.648002 l
434.506093 364.878645 l
451.591086 380.587488 l
466.132297 395.101613 l
478.013553 407.371215 l
487.410466 416.329515 l
494.774081 421.299324 l
500.760421 422.208943 l
506.177147 419.376304 l
511.912546 413.605141 l
518.110249 411.825074 l
523.466882 417.476316 l
527.665211 423.309692 l
530.547695 428.743001 l
531.967288 433.716875 l
531.815207 437.817443 l
529.988485 441.357517 l
526.440272 444.067377 l
521.163085 445.690995 l
514.189758 445.998828 l
505.584357 445.269452 l
495.471774 443.339895 l
484.022043 439.886754 l
471.441547 435.25582 l
457.986475 429.4728 l
443.947759 422.482761 l
429.6489 414.460546 l
415.438577 405.601728 l
401.674499 396.023051 l
388.728616 386.096316 l
376.951483 376.012976 l
366.664371 366.015559 l
358.166916 356.542899 l
351.680101 347.885653 l
347.348201 340.396876 l
345.232655 334.511552 l
345.253656 330.530086 l
347.214235 328.681984 l
350.803586 329.00101 l
355.632346 331.307811 l
361.269354 335.225758 l
367.307776 340.335495 l
373.373361 346.184206 l
379.147014 352.334854 l
384.375138 358.39106 l
388.873588 364.012284 l
392.539774 368.933885 l
395.330385 372.957535 l
398.952717 378.766329 l
398.988287 378.650999 l
398.389813 375.963568 l
398.176791 373.727075 l
398.297863 371.140947 l
398.950311 368.392748 l
400.310792 365.657505 l
402.537361 363.094269 l
405.765451 360.844791 l
410.102087 359.027812 l
415.628739 357.760513 l
422.392717 357.163403 l
430.404238 357.41039 l
439.610393 358.706271 l
449.883418 361.200436 l
461.03742 364.98704 l
472.839939 369.953029 l
485.038741 375.937963 l
497.36553 382.765025 l
509.532835 390.489858 l
521.243543 398.595514 l
532.188789 407.432734 l
542.071423 416.326187 l
550.587891 425.357712 l
557.462047 434.139331 l
562.43322 442.486563 l
565.284719 449.930101 l
565.768594 457.137674 l
563.807296 462.660046 l
559.238155 467.303602 l
552.068145 470.011689 l
542.263029 471.534926 l
529.960446 470.689604 l
515.268098 468.392541 l
498.441785 463.850191 l
479.767941 457.402914 l
459.617303 449.030818 l
438.42263 438.829522 l
416.672169 426.970556 l
394.905081 413.805574 l
373.668707 399.374199 l
353.539037 384.216502 l
335.098025 369.01432 l
318.813394 353.935967 l
305.13431 339.872365 l
294.33796 327.628455 l
286.498818 318.222609 l
281.383037 312.485967 l
278.445167 310.686558 l
276.933671 312.550224 l
274.717886 324.713887 l
272.208432 331.033058 l
268.410448 330.039086 l
264.663561 326.83002 l
261.39349 323.621834 l
258.708336 320.508897 l
256.700088 317.524234 l
255.45236 314.737503 l
255.044129 312.283286 l
255.521528 310.182584 l
256.917311 308.497157 l
259.256543 307.391108 l
262.516898 306.831428 l
266.667079 306.888518 l
271.649685 307.602546 l
277.377235 308.944708 l
283.752993 310.976794 l
290.647847 313.644757 l
297.921193 316.932004 l
305.413885 320.7736 l
312.955915 325.093138 l
320.370538 329.806881 l
327.47867 334.82816 l
334.098512 340.025382 l
340.060078 345.3159 l
345.191229 350.49868 l
349.35262 355.539865 l
352.400486 360.200095 l
354.236448 364.449679 l
354.768008 368.103761 l
353.941914 371.096513 l
351.729488 373.379811 l
348.121454 374.781445 l
343.149604 375.353619 l
336.864257 375.088546 l
329.329137 374.001869 l
320.646029 372.058469 l
310.920024 369.277406 l
300.290271 365.679539 l
288.915905 361.197485 l
276.999981 355.809463 l
264.784383 349.533267 l
252.547196 342.442392 l
240.577359 334.560024 l
229.236151 326.292442 l
218.824985 317.665424 l
209.653473 308.793992 l
202.072004 300.151745 l
196.338987 291.798338 l
192.706245 283.974202 l
191.351064 276.724685 l
192.538662 270.978931 l
196.239252 266.148852 l
202.57794 263.050209 l
211.428117 261.248606 l
222.782008 261.566647 l
236.359111 263.337027 l
251.99814 267.199455 l
269.348433 272.761216 l
288.074745 280.120808 l
307.773931 289.137712 l
328.012966 299.669381 l
348.332961 311.506309 l
368.261878 324.380809 l
387.319786 337.843964 l
405.075114 351.866915 l
421.095856 365.861632 l
435.018598 379.317503 l
446.581676 391.675131 l
462.367063 409.888413 l
467.006872 414.27325 l
470.116413 415.182214 l
472.340724 412.837509 l
474.42359 407.699108 l
477.139933 400.606642 l
480.843455 396.042086 l
484.74447 398.012309 l
488.375183 400.997528 l
491.617629 403.980933 l
494.373694 406.946823 l
496.550163 409.972825 l
498.063936 412.675672 l
498.841629 415.184276 l
498.824361 417.390665 l
497.969698 419.13227 l
496.251515 420.45421 l
493.664329 421.317304 l
490.224633 421.546087 l
485.969466 421.202013 l
480.959211 420.252998 l
475.276146 418.619924 l
469.024271 416.37422 l
462.327531 413.519433 l
455.327339 410.075411 l
448.181462 406.142311 l
441.058156 401.775933 l
434.133071 397.058655 l
427.58627 392.121916 l
421.592448 387.03892 l
416.321799 381.958407 l
411.933169 377.038937 l
408.560922 372.346071 l
406.327825 368.078889 l
405.321524 364.306673 l
405.607258 361.151795 l
407.220453 358.707728 l
410.166771 357.008798 l
414.423919 356.132192 l
419.950738 356.105265 l
426.668521 356.887884 l
434.496363 358.488213 l
443.32198 360.899706 l
453.018278 364.133012 l
463.426353 368.174627 l
474.358608 373.082015 l
485.596892 378.786541 l
496.899288 385.368991 l
507.997183 392.455878 l
518.618162 400.070603 l
528.4848 408.079101 l
537.318894 416.274661 l
544.851125 424.446177 l
550.82573 432.415709 l
555.012185 439.913567 l
557.194962 446.92673 l
557.207511 453.170323 l
554.946081 457.995533 l
550.287912 461.974859 l
543.244201 464.196546 l
533.810907 465.182227 l
522.109892 464.129794 l
508.269343 461.672979 l
492.532488 457.036955 l
475.170686 450.93861 l
456.539704 442.895937 l
437.042959 433.283708 l
417.133103 422.191868 l
397.299619 409.840347 l
378.057949 396.578106 l
359.934397 382.832502 l
343.405444 368.762084 l
328.948484 355.088553 l
316.928181 342.290537 l
307.604637 331.11701 l
301.050587 322.386762 l
297.098422 316.85738 l
295.298752 314.845753 l
295.017304 316.199082 l
295.498348 320.419301 l
295.963529 326.881214 l
295.640392 334.68685 l
293.85307 340.83105 l
290.73776 341.202673 l
287.229929 339.544254 l
283.656137 337.629687 l
276.649886 333.198769 l
273.387116 330.718938 l
270.408355 328.158429 l
267.811155 325.645909 l
265.675377 323.212309 l
264.065642 320.828842 l
263.047101 318.537031 l
262.688801 316.494687 l
263.047233 314.866716 l
264.129232 313.553972 l
265.946566 312.617123 l
268.504844 312.201884 l
271.76615 312.252214 l
275.682445 312.76734 l
280.202739 313.861541 l
285.237695 315.469479 l
290.687477 317.557305 l
296.446623 320.15347 l
302.386027 323.175336 l
308.371557 326.564988 l
314.266281 330.287112 l
319.926152 334.261414 l
325.206109 338.388885 l
329.967191 342.585636 l
334.073847 346.729473 l
337.406719 350.747856 l
339.853754 354.512352 l
341.324777 357.949514 l
341.742117 360.931452 l
341.058286 363.419289 l
339.237192 365.30115 l
336.273245 366.544854 l
332.178163 367.11596 l
326.990105 366.949488 l
320.769368 366.059215 l
313.596101 364.435538 l
305.572113 362.059862 l
296.825392 358.929748 l
287.517337 355.065774 l
277.81995 350.452567 l
267.94322 345.164803 l
258.115569 339.272106 l
248.580909 332.87453 l
239.591533 326.074566 l
231.417879 319.094711 l
224.300953 312.010815 l
218.460747 304.852665 l
214.20503 298.37076 l
211.646957 292.227718 l
210.977987 286.835795 l
212.306721 282.330364 l
215.643836 278.483641 l
221.142813 276.392942 l
228.624575 275.194659 l
238.078055 275.567778 l
249.336177 277.438482 l
262.174979 280.630161 l
276.387752 285.466007 l
291.652979 291.623233 l
307.652189 299.062589 l
324.041839 307.756058 l
340.436351 317.402407 l
356.460606 327.889315 l
371.737203 339.047057 l
385.868298 350.270084 l
398.537381 361.631175 l
409.421943 372.581558 l
418.278703 382.767674 l
424.944821 391.701053 l
429.377521 398.855811 l
431.684207 403.715989 l
432.132678 405.943965 l
431.122032 405.502153 l
429.151554 402.640202 l
426.766138 397.751381 l
424.538237 391.348552 l
423.014955 383.97905 l
422.698342 376.404945 l
423.92279 370.159788 l
426.62835 366.965799 l
430.514902 366.1247 l
435.389774 366.381841 l
441.157063 367.38858 l
447.723878 369.092945 l
454.982345 371.501347 l
462.800994 374.524645 l
471.038195 378.258565 l
479.523776 382.589221 l
488.073594 387.445061 l
496.493115 392.817472 l
504.574812 398.622024 l
512.109212 404.567436 l
518.886006 410.700594 l
524.699212 416.895295 l
529.354214 422.991668 l
532.679534 428.636437 l
534.511193 433.923874 l
534.723071 438.581615 l
533.212795 442.5615 l
529.923381 445.577336 l
524.840388 447.24922 l
517.960904 448.152782 l
509.370211 447.638684 l
499.178467 445.716917 l
487.543583 442.599626 l
474.67902 438.163696 l
460.83874 432.273677 l
446.318665 425.239641 l
431.450126 417.118695 l
416.589883 408.035459 l
402.116916 398.262868 l
388.409292 387.975215 l
375.832575 377.384312 l
364.757969 367.033388 l
355.465669 356.990717 l
348.226331 347.819028 l
343.197427 339.848301 l
340.43607 333.493861 l
339.878991 329.164804 l
341.309785 327.111913 l
344.386972 327.375201 l
348.68426 329.754264 l
353.739115 333.878288 l
359.086105 339.262763 l
364.315823 345.440434 l
369.06481 351.949917 l
373.036204 358.375048 l
375.999991 364.352454 l
377.803407 369.59294 l
378.366276 373.896761 l
377.658361 377.133745 l
375.711949 379.271057 l
372.58809 380.332639 l
368.376879 380.399108 l
363.184343 379.596651 l
357.120861 378.086247 l
350.288492 376.058342 l
334.610065 371.221727 l
325.826083 368.777564 l
316.384271 366.504234 l
306.209567 364.436033 l
295.19677 362.348113 l
283.270204 359.426234 l
270.554125 354.602424 l
257.417383 347.81499 l
244.32315 339.866437 l
231.666961 331.232608 l
219.799097 322.086834 l
209.079354 312.670846 l
199.852588 303.206453 l
192.437731 293.890178 l
187.163869 285.180681 l
184.22332 276.959648 l
183.848809 269.669533 l
186.262366 264.060899 l
191.387964 259.4085 l
199.342643 256.645457 l
210.034783 255.832859 l
223.240804 256.554438 l
238.822788 259.477693 l
256.468618 264.478032 l
275.783584 271.143046 l
296.425865 279.940456 l
317.902526 290.303345 l
339.754532 302.241419 l
361.472601 315.390735 l
382.560053 329.577708 l
402.519 344.456738 l
420.873962 359.530598 l
437.205309 374.323819 l
451.183061 388.25971 l
471.527944 410.144035 l
478.208898 416.292941 l
483.179472 418.66389 l
487.104822 417.390924 l
490.7944 412.92219 l
495.055491 406.285353 l
499.959919 404.269111 l
504.435484 408.349365 l
508.176977 412.681721 l
511.056666 416.734344 l
512.955414 420.556759 l
513.771336 424.082074 l
513.426761 427.058153 l
511.863779 429.434359 l
509.049674 431.231948 l
504.985182 432.285829 l
499.700504 432.500127 l
493.258196 431.775529 l
485.752397 430.050025 l
477.309078 427.417866 l
468.087284 423.917435 l
458.275136 419.562022 l
448.086004 414.404132 l
437.754176 408.529142 l
427.528595 402.038089 l
417.670783 395.136669 l
408.436532 387.903249 l
400.078737 380.54466 l
392.843419 373.36754 l
386.926791 366.390488 l
382.522951 359.984995 l
379.76027 354.261561 l
378.725735 349.381935 l
379.47193 345.633027 l
381.968054 343.024096 l
386.153993 341.633545 l
391.916782 341.44415 l
399.127729 342.383116 l
407.644074 344.294945 l
417.334343 346.991854 l
439.828485 353.955737 l
452.503874 358.000186 l
466.046389 362.592173 l
480.302506 368.177525 l
494.983409 375.191847 l
509.720645 383.604908 l
524.136633 393.056784 l
537.862304 403.138685 l
550.530913 413.677577 l
561.777745 424.46287 l
571.255842 435.165285 l
578.634713 445.542385 l
583.615223 455.306102 l
585.907506 464.546718 l
585.368388 472.011857 l
581.752163 478.548538 l
575.003465 483.330939 l
565.103117 485.970884 l
552.074173 486.59107 l
536.04724 485.035357 l
517.238314 481.259228 l
495.966353 474.808272 l
472.61115 466.001628 l
447.653766 454.997407 l
421.649346 441.743453 l
395.220437 426.599876 l
369.041421 409.925439 l
343.813413 392.139018 l
320.233576 373.737614 l
298.952478 355.328131 l
280.549581 337.839075 l
253.757888 310.589082 l
245.211243 303.365969 l
239.095942 301.036294 l
234.445835 303.194586 l
230.128776 308.955118 l
224.800654 312.553808 l
218.726522 306.120734 l
214.052132 299.312005 l
211.067363 292.869065 l
209.980295 287.24728 l
210.905238 282.555504 l
213.878384 278.678111 l
218.950986 275.923281 l
226.144513 274.770863 l
235.278442 274.615087 l
246.318354 276.29691 l
258.990997 279.219707 l
273.101388 283.739483 l
288.354636 289.736903 l
304.413567 296.98622 l
320.943482 305.534276 l
337.560331 315.116096 l
353.879815 325.553036 l
369.520347 336.690533 l
384.093633 348.136503 l
397.240551 359.569661 l
408.655448 370.783804 l
418.064072 381.262037 l
425.289326 390.56841 l
430.266715 398.170337 l
433.080611 403.521436 l
433.978057 406.229903 l
433.351015 406.214448 l
431.69577 403.690948 l
429.559342 399.035793 l
427.5294 392.759856 l
426.166747 385.411602 l
425.992444 377.786784 l
427.343198 371.618192 l
430.113196 368.774159 l
433.968673 368.185715 l
438.730102 368.595323 l
444.307092 369.686818 l
450.608296 371.455819 l
457.52637 373.857875 l
464.935202 376.840349 l
472.696434 380.527263 l
480.640972 384.622622 l
488.60344 389.449613 l
496.388539 394.424982 l
503.808617 399.886935 l
510.663564 405.673907 l
516.761415 411.364111 l
521.911079 417.117346 l
521.911079 417.117346 l
stroke
grestore
0.000 0.000 1.000 setrgbcolor
gsave
554.4 554.4 91.8 79.2 clipbox
422.662198 379.194667 m
452.952268 421.837795 l
443.58628 433.477459 l
424.669998 428.865838 l
403.637051 417.962856 l
382.516542 404.606267 l
362.190279 390.084256 l
343.277202 375.06253 l
326.371374 359.911677 l
311.855743 345.528252 l
300.110793 332.598853 l
285.330488 314.980236 l
281.779721 311.615823 l
279.953857 311.902623 l
279.080993 315.574831 l
278.29558 322.072954 l
276.666209 329.466261 l
273.570796 332.978547 l
269.708353 330.150706 l
266.215331 327.026286 l
263.154451 324.071056 l
260.635621 321.151223 l
258.761441 318.36004 l
257.611131 315.786746 l
257.24069 313.462226 l
257.706021 311.490678 l
259.041525 309.959019 l
261.252599 308.900942 l
264.333402 308.389616 l
268.2533 308.473857 l
272.949925 309.148678 l
278.350084 310.446269 l
284.356009 312.365324 l
290.848163 314.879115 l
297.691735 317.954059 l
304.741392 321.553016 l
311.836292 325.605915 l
318.811083 330.037444 l
325.496242 334.754642 l
331.721144 339.649868 l
337.321353 344.602958 l
342.140872 349.515181 l
346.034894 354.241058 l
348.879246 358.672772 l
350.570134 362.691893 l
351.027219 366.188126 l
350.195368 369.040025 l
348.046127 371.202538 l
344.57535 372.549038 l
339.805958 373.095568 l
333.777104 372.853143 l
326.558189 371.770438 l
318.24103 369.84203 l
308.938701 367.151471 l
298.784467 363.655526 l
287.939974 359.307761 l
276.610036 354.07541 l
265.027343 347.982011 l
253.457547 341.119252 l
242.193462 333.648948 l
231.536346 325.738246 l
221.796321 317.556785 l
213.27595 309.263118 l
206.263884 301.030825 l
201.028656 293.095485 l
197.803729 285.703373 l
196.783767 279.215279 l
198.108508 273.74377 l
201.866696 269.397311 l
208.0758 266.559793 l
216.705513 265.127571 l
227.633415 265.423214 l
240.686855 267.27282 l
255.637444 271.116252 l
272.192736 276.506224 l
290.033465 283.777219 l
308.754209 292.370972 l
327.943333 302.408783 l
347.168634 313.682878 l
365.987733 325.995841 l
383.953481 338.914838 l
400.634106 352.112991 l
415.625887 365.354514 l
428.589746 378.163574 l
439.281014 389.862506 l
447.563493 399.777801 l
453.489062 407.2775 l
457.338035 411.677312 l
459.575017 412.769121 l
460.769709 410.919739 l
462.90348 399.242258 l
465.15837 392.401948 l
468.424126 389.689628 l
471.991071 391.301904 l
475.502302 393.513246 l
478.949129 395.83907 l
482.227111 398.249423 l
485.242585 400.751427 l
487.914936 403.301135 l
490.162683 405.830855 l
491.903357 408.26786 l
493.07142 410.540692 l
493.610699 412.601232 l
493.471289 414.388253 l
492.618918 415.829103 l
491.036272 416.87876 l
488.720717 417.498293 l
485.688493 417.623535 l
481.977301 417.236907 l
477.641192 416.324849 l
472.751596 414.867537 l
467.40077 412.881115 l
461.696541 410.387581 l
455.7578 407.417464 l
449.721952 404.031097 l
443.729017 400.290031 l
437.929877 396.278987 l
432.475193 392.082153 l
427.513092 387.79163 l
423.184842 383.509167 l
419.619108 379.360976 l
416.936236 375.432645 l
415.228317 371.855237 l
414.57905 368.709083 l
415.040517 366.090922 l
416.647379 364.054099 l
419.403637 362.686521 l
423.294946 362.003423 l
428.279049 362.049606 l
434.293825 362.858213 l
441.255207 364.395303 l
449.05886 366.683337 l
457.574598 369.725938 l
466.652681 373.501805 l
476.116985 377.966584 l
485.768148 383.1487 l
495.399858 388.918073 l
504.78333 395.183739 l
513.682571 401.832791 l
521.858806 408.722671 l
529.072006 415.731095 l
535.091034 422.706635 l
539.70975 429.440367 l
542.737819 435.760279 l
544.007363 441.495973 l
543.410944 446.251933 l
540.819097 450.173438 l
536.166377 453.151907 l
529.486122 454.695772 l
520.806142 454.915041 l
510.218049 453.751031 l
497.885177 450.950247 l
484.019581 446.712569 l
468.867838 440.873698 l
452.760278 433.600243 l
436.042755 424.971586 l
419.095324 415.20761 l
402.349663 404.536586 l
386.240395 393.131622 l
371.198715 381.251685 l
357.653834 369.297251 l
345.986944 357.628698 l
336.459028 346.935723 l
329.324683 337.490563 l
324.666515 329.774352 l
322.412273 324.449306 l
322.278043 321.987275 l
323.81015 322.394794 l
326.467135 325.270333 l
329.663555 330.111511 l
332.788478 336.463054 l
335.261386 343.776772 l
336.606369 351.233712 l
336.476099 357.811723 l
334.686322 362.525984 l
331.354444 364.83828 l
326.818734 365.342075 l
321.24995 364.774721 l
314.736951 363.459647 l
307.378132 361.432397 l
299.288186 358.671583 l
290.611816 355.217962 l
281.512613 351.046394 l
272.178307 346.192195 l
262.816095 340.741294 l
253.669077 334.817505 l
244.955408 328.458816 l
236.943033 321.895623 l
229.867683 315.26963 l
223.94474 308.605054 l
219.407225 302.179267 l
216.441489 296.15782 l
215.211236 290.754872 l
215.843002 286.176005 l
218.401891 282.41451 l
222.933495 279.789216 l
229.42694 278.446469 l
237.798285 278.332825 l
247.913962 279.519434 l
259.626204 282.258202 l
272.69188 286.253986 l
286.863934 291.675044 l
301.85411 298.404591 l
317.311893 306.245125 l
332.894286 315.140396 l
348.242873 324.902313 l
362.993447 335.271007 l
376.791466 345.9448 l
389.29813 356.668243 l
400.203773 367.252976 l
409.227185 377.261516 l
416.194656 386.306526 l
420.992496 393.853624 l
423.639169 399.524451 l
424.286672 402.963099 l
423.236071 403.945785 l
420.897427 402.496564 l
417.744604 398.889579 l
414.294029 393.49735 l
411.046226 386.837502 l
408.48906 379.574948 l
407.038549 372.435182 l
407.027189 366.040467 l
408.660453 360.931556 l
411.931579 357.582011 l
416.663171 356.133806 l
422.693564 356.228333 l
429.911191 357.38356 l
438.203223 359.377219 l
447.44476 362.166814 l
457.492523 365.770319 l
468.174815 370.194251 l
479.286074 375.469227 l
490.600172 381.534008 l
501.85887 388.355318 l
512.803281 395.746158 l
523.153779 403.559384 l
532.623938 411.668247 l
540.935352 419.88587 l
547.831641 427.979261 l
553.058843 435.822517 l
556.400068 443.149431 l
557.636716 449.945192 l
556.679224 455.468872 l
553.371288 459.969619 l
547.646805 463.270018 l
539.539661 464.914888 l
529.073212 465.080479 l
516.388433 463.389509 l
501.65798 460.011877 l
485.134788 454.744942 l
467.147695 447.720567 l
448.044098 438.941008 l
428.282647 428.602678 l
408.307761 416.921014 l
388.634484 404.181705 l
369.77562 390.617351 l
352.229917 376.666199 l
336.553867 362.61489 l
323.099255 349.175657 l
312.211838 337.012711 l
304.08379 326.801816 l
295.756833 315.459456 l
294.684117 314.924065 l
294.79694 317.506507 l
295.347394 322.867787 l
295.527966 330.328558 l
294.575678 337.831257 l
292.080644 341.565016 l
288.645233 340.299741 l
281.558863 336.244172 l
278.067217 334.037492 l
274.737836 331.679269 l
271.655249 329.214668 l
268.903262 326.678251 l
266.579379 324.18113 l
264.762457 321.7938 l
263.512401 319.522619 l
262.894501 317.446846 l
262.956563 315.630811 l
263.738206 314.163731 l
265.254066 313.087209 l
267.504526 312.448238 l
270.471389 312.285948 l
274.115244 312.618317 l
278.381856 313.469284 l
283.195993 314.837465 l
288.468145 316.719168 l
294.092019 319.091098 l
299.94894 321.919628 l
305.908841 325.155484 l
311.833835 328.737096 l
317.581361 332.592024 l
323.008278 336.64006 l
327.973568 340.79211 l
332.341043 344.951831 l
335.983084 349.018472 l
338.784817 352.895077 l
340.646672 356.473479 l
341.487619 359.670885 l
341.246808 362.372665 l
339.886745 364.528498 l
337.389627 366.045844 l
333.760963 366.88766 l
329.025607 367.028582 l
323.235372 366.419835 l
316.460151 365.080502 l
308.79558 363.014823 l
300.358347 360.195859 l
291.285145 356.619051 l
281.754309 352.308352 l
271.960264 347.286439 l
262.121104 341.617867 l
252.474352 335.404918 l
243.276793 328.788593 l
234.783656 321.897892 l
227.250986 314.879357 l
220.924369 307.889959 l
216.037611 301.15227 l
212.783761 294.771562 l
211.348873 289.060509 l
211.84767 284.020413 l
214.387134 280.056044 l
219.007512 277.294243 l
225.683899 275.720821 l
234.335099 275.433713 l
244.852848 276.733328 l
257.035354 279.316644 l
270.675234 283.541758 l
285.496573 289.128271 l
301.182112 296.054925 l
317.400523 304.259839 l
333.769637 313.528201 l
349.912744 323.721864 l
365.457178 334.578491 l
380.027289 345.760649 l
393.268723 357.057255 l
404.836551 368.110031 l
414.494516 378.700493 l
422.004065 388.12687 l
427.29629 395.982306 l
430.398388 401.776704 l
431.509303 405.146314 l
430.981823 405.866143 l
429.274432 404.040654 l
426.915029 399.942148 l
424.472792 393.961064 l
422.505518 386.710803 l
421.522468 379.19995 l
421.917701 372.513483 l
423.895736 367.69821 l
427.270432 365.437954 l
431.710946 365.159625 l
437.114915 365.942241 l
443.401205 367.34702 l
450.456977 369.416448 l
458.164193 372.154073 l
466.382986 375.575177 l
474.95928 379.661628 l
483.712163 384.358134 l
492.439001 389.596475 l
500.939179 395.282384 l
508.998063 401.310687 l
516.399223 407.561503 l
522.932285 413.89056 l
528.391272 420.151904 l
532.576744 426.249287 l
535.330648 431.890018 l
536.492563 437.042143 l
535.948842 441.451613 l
533.610636 445.014646 l
529.415109 447.721414 l
523.392093 449.09147 l
515.564588 449.293191 l
506.017016 448.235349 l
494.895591 445.759585 l
482.388309 441.885466 l
468.738261 436.667149 l
454.213313 430.09925 l
439.133095 422.345156 l
423.855123 413.573756 l
408.747803 403.964124 l
394.204025 393.71691 l
380.633392 382.983782 l
368.382641 372.148165 l
357.818466 361.631126 l
349.205653 351.819548 l
342.761824 343.044019 l
338.612842 335.643779 l
336.75634 330.053608 l
337.036917 326.808432 l
339.142028 326.119038 l
342.654139 327.816586 l
347.107484 331.420686 l
352.021063 336.389548 l
356.908434 342.258951 l
361.346972 348.682189 l
364.979524 355.260239 l
367.544239 361.596172 l
368.848226 367.313996 l
368.758532 372.1325 l
367.195491 375.857996 l
364.149321 378.438852 l
359.646342 379.848225 l
353.752373 380.167374 l
346.546722 379.524832 l
338.114176 378.077416 l
328.53525 375.987355 l
317.880765 373.378802 l
306.20911 370.263828 l
293.594218 366.467991 l
280.170429 361.597192 l
266.182923 355.272196 l
251.97815 347.499453 l
237.931219 338.652058 l
224.4207 329.147508 l
211.827933 319.251774 l
200.541852 309.158082 l
190.939321 299.031406 l
183.372933 289.070116 l
178.158193 279.602966 l
175.562264 270.944325 l
175.802825 263.437812 l
178.949153 257.692946 l
185.169029 253.327981 l
194.350119 250.815095 l
206.44313 250.326663 l
221.264912 251.37014 l
238.509292 254.846641 l
257.915669 260.977634 l
279.072329 268.845324 l
301.501497 278.475523 l
324.735738 289.883551 l
348.249111 302.748849 l
371.527197 317.171989 l
394.029373 332.707941 l
415.19556 348.708814 l
434.51114 364.847942 l
451.593374 380.58718 l
466.118881 394.939597 l
477.957351 407.481628 l
487.301419 416.678278 l
494.713137 421.087008 l
500.764133 421.51283 l
506.195828 418.622268 l
511.986993 412.967172 l
518.18695 410.949052 l
523.514363 417.521381 l
527.675097 423.410882 l
530.553737 428.694255 l
531.97762 433.55246 l
531.822245 437.814207 l
529.984339 441.452537 l
526.435171 444.073651 l
521.1628 445.614458 l
514.186527 446.054447 l
505.576986 445.35169 l
495.462737 443.301142 l
484.010372 439.946269 l
471.438351 435.346057 l
457.987164 429.456486 l
443.947857 422.430226 l
429.651822 414.421937 l
415.437958 405.580454 l
401.667721 396.099717 l
388.723764 386.135271 l
376.943209 375.977325 l
366.668925 366.010873 l
358.178614 356.553953 l
351.684686 348.001861 l
347.352085 340.58744 l
345.232398 334.60169 l
345.256955 330.552637 l
347.223722 328.746578 l
350.808708 329.228678 l
355.628398 331.713874 l
361.269459 335.694243 l
367.329228 340.664757 l
373.417701 346.221994 l
379.204066 352.06053 l
384.434173 357.894675 l
388.93362 363.423091 l
392.598148 368.348447 l
395.395102 372.45064 l
398.508038 377.584423 l
399.021357 378.555017 l
399.044475 378.52579 l
398.771066 377.605918 l
398.411625 375.947463 l
398.183472 373.725797 l
398.295232 371.139923 l
398.942612 368.380902 l
400.304201 365.645214 l
402.531532 363.092064 l
405.757534 360.871678 l
410.090402 359.106851 l
415.611192 357.892989 l
422.371107 357.344211 l
430.381772 357.592405 l
439.594297 358.835685 l
449.882186 361.268719 l
461.047821 364.96158 l
472.851002 369.919216 l
485.041724 375.934796 l
497.3588 382.834992 l
509.524827 390.462059 l
521.238682 398.696421 l
532.196424 407.334925 l
542.089168 416.179469 l
550.608557 425.133304 l
557.485186 433.890216 l
562.457112 442.2744 l
565.293541 450.032747 l
565.767314 457.137832 l
563.82008 462.637657 l
559.241969 467.250297 l
552.070086 470.073166 l
542.266825 471.449716 l
529.96527 470.744043 l
515.273074 468.355173 l
498.442695 463.836554 l
479.772368 457.424496 l
459.622323 449.036403 l
438.426767 438.805495 l
416.67693 426.927284 l
394.906054 413.685969 l
373.649197 399.487303 l
353.547114 384.421498 l
335.10617 368.86502 l
318.799357 353.894711 l
305.135341 339.828682 l
294.332919 327.568416 l
286.495076 318.237467 l
281.395158 312.584992 l
278.454518 310.722331 l
276.925732 312.482791 l
274.719483 324.734624 l
272.23302 330.870754 l
268.413985 330.324803 l
261.398707 323.5586 l
258.710505 320.477748 l
256.698253 317.497173 l
255.450835 314.716151 l
255.039014 312.234152 l
255.513965 310.12071 l
256.913175 308.468389 l
259.250888 307.35131 l
262.50927 306.790511 l
266.658148 306.85156 l
271.63865 307.561986 l
277.36765 308.930256 l
283.744285 310.968835 l
290.640291 313.642519 l
297.913741 316.920621 l
305.406413 320.749559 l
312.949456 325.06288 l
320.3667 329.777834 l
327.477657 334.793065 l
334.101854 339.994137 l
340.064427 345.258421 l
345.200769 350.469206 l
349.358507 355.479335 l
352.408105 360.197536 l
354.236736 364.441894 l
354.765128 368.148041 l
353.934948 371.154152 l
351.719857 373.401902 l
348.116785 374.866551 l
343.148398 375.38998 l
336.865611 375.071935 l
329.338431 373.932545 l
320.650778 372.0003 l
310.921756 369.240221 l
300.286876 365.654576 l
288.911877 361.221293 l
276.995905 355.85322 l
264.779098 349.543171 l
252.539329 342.380779 l
240.582958 334.535081 l
229.23725 326.24299 l
218.815205 317.593762 l
209.654881 308.82561 l
202.065682 300.156445 l
196.323027 291.695469 l
192.690182 283.8018 l
191.371922 276.759987 l
192.521378 270.90703 l
196.248231 266.203531 l
202.564135 263.066546 l
211.449716 261.373152 l
222.776297 261.560319 l
236.373325 263.282607 l
251.989195 267.14655 l
269.339775 272.741475 l
288.068191 280.184983 l
307.777944 289.214961 l
328.017852 299.65442 l
348.329778 311.407485 l
368.254357 324.307276 l
387.324663 337.937305 l
405.07631 351.824774 l
421.100148 365.786316 l
435.020321 379.359506 l
446.581163 391.686353 l
462.364383 409.950265 l
467.014026 414.283214 l
470.132468 415.103462 l
472.336106 412.902269 l
477.153416 400.654195 l
480.805084 396.148936 l
484.768175 397.885822 l
488.382156 401.003332 l
491.61707 404.036009 l
494.372659 407.010388 l
496.548044 409.899559 l
498.062945 412.615742 l
498.843067 415.12296 l
498.826401 417.301611 l
497.972636 419.090175 l
496.254551 420.44103 l
493.666598 421.266291 l
490.22673 421.516908 l
485.972076 421.18191 l
480.960749 420.208649 l
475.276826 418.595163 l
469.025199 416.355276 l
462.327242 413.49864 l
455.326566 410.075104 l
448.180627 406.14104 l
441.055764 401.771124 l
434.130428 397.062212 l
427.583953 392.112408 l
421.591452 387.041187 l
416.325032 381.966889 l
411.937107 377.019728 l
408.565518 372.357374 l
406.330965 368.075821 l
405.320229 364.323368 l
405.603308 361.17298 l
407.214006 358.71327 l
410.158943 357.021349 l
414.419316 356.10983 l
419.944321 356.050812 l
426.666888 356.863752 l
434.496713 358.477539 l
443.326257 360.905921 l
453.023503 364.144383 l
463.431015 368.210831 l
474.362155 373.092498 l
485.594162 378.824195 l
496.889271 385.305866 l
507.983844 392.471284 l
518.613982 400.093372 l
528.488267 408.06845 l
537.32592 416.236436 l
544.855998 424.423628 l
550.824912 432.435419 l
555.004922 440.032547 l
557.186501 447.029106 l
557.215324 453.063574 l
554.957793 457.98435 l
550.290373 461.937788 l
543.246518 464.224485 l
533.812757 465.129172 l
522.108626 464.189263 l
508.269048 461.627371 l
492.524612 457.143549 l
475.175371 450.932705 l
456.536748 442.894926 l
437.052056 433.244649 l
417.143539 422.13427 l
397.311163 409.861007 l
378.069535 396.653989 l
359.931706 382.767815 l
343.392882 368.742545 l
328.953495 355.000272 l
316.927735 342.263764 l
307.598841 331.104814 l
301.046048 322.375379 l
297.10272 316.867473 l
295.304958 314.843754 l
295.004699 316.078333 l
295.485855 320.238057 l
295.965551 326.901754 l
295.631392 334.753025 l
293.87458 340.774995 l
290.732746 341.432762 l
283.648634 337.502086 l
280.092146 335.395809 l
276.642627 333.119659 l
273.381704 330.681491 l
270.411298 328.178239 l
267.813778 325.658834 l
265.669793 323.167564 l
264.058049 320.771657 l
263.05109 318.562023 l
262.707684 316.615771 l
263.065807 314.969078 l
264.14527 313.643677 l
265.96529 312.731743 l
268.519723 312.284663 l
271.775231 312.304368 l
275.691008 312.833176 l
280.20753 313.898986 l
285.237049 315.472932 l
290.684187 317.550777 l
296.440316 320.117995 l
302.378354 323.122922 l
308.365774 326.516958 l
314.263277 330.237304 l
319.925413 334.201796 l
325.207736 338.3228 l
329.970088 342.507837 l
334.079152 346.661423 l
337.411615 350.67822 l
339.858265 354.465137 l
341.326134 357.913382 l
341.742005 360.93934 l
341.053515 363.435804 l
339.231742 365.355481 l
336.267913 366.607985 l
332.176572 367.169217 l
326.99109 367.017669 l
320.77365 366.113589 l
313.603579 364.475958 l
305.58343 362.100622 l
296.839872 358.972713 l
287.525886 355.090708 l
277.825192 350.473764 l
267.943348 345.159581 l
258.108147 339.235858 l
248.567947 332.819267 l
239.579842 326.044775 l
231.404259 319.064422 l
224.290001 311.996906 l
218.483468 305.046892 l
214.211508 298.457656 l
211.641917 292.210152 l
210.958892 286.721506 l
212.270493 282.106122 l
215.646544 278.527503 l
221.117949 276.315986 l
228.624196 275.165275 l
238.075298 275.544985 l
249.330376 277.350358 l
262.173675 280.586908 l
276.382047 285.410233 l
291.650774 291.554211 l
307.656256 299.026581 l
324.049698 307.715156 l
340.44361 317.41765 l
356.462024 327.962646 l
371.726141 339.028742 l
385.867545 350.34214 l
398.526936 361.596448 l
409.420089 372.584291 l
418.275673 382.791305 l
424.943667 391.693105 l
429.379967 398.786996 l
431.684995 403.648141 l
432.127654 405.939143 l
431.114577 405.574342 l
429.140244 402.756118 l
426.754032 397.798653 l
424.543218 391.153714 l
423.041307 383.633145 l
422.721102 376.357638 l
423.906893 370.459909 l
426.623034 366.935829 l
430.518646 365.890149 l
435.384568 366.28994 l
441.153575 367.385341 l
447.725248 369.098445 l
454.985821 371.481043 l
462.806221 374.554118 l
471.042754 378.241084 l
479.523364 382.582658 l
488.070883 387.475207 l
496.487889 392.836861 l
504.568369 398.58917 l
512.103139 404.607039 l
518.8792 410.778314 l
524.689714 416.962226 l
529.345257 422.994531 l
532.671195 428.703579 l
534.499917 434.021946 l
534.712395 438.668911 l
533.208145 442.53819 l
529.928119 445.434852 l
524.841308 447.313547 l
517.955755 448.178471 l
509.363288 447.611163 l
499.169301 445.800652 l
487.53528 442.659463 l
474.670283 438.119564 l
460.83123 432.284004 l
446.323922 425.230845 l
431.456358 417.071329 l
416.592657 408.027402 l
402.113139 398.271545 l
388.394742 388.003931 l
375.828838 377.462311 l
364.764268 366.932633 l
355.47237 357.019338 l
348.236509 347.915803 l
343.196307 339.99717 l
340.435979 333.600297 l
339.881825 329.181143 l
341.313895 327.156322 l
344.38862 327.582621 l
348.682455 330.135517 l
353.744486 334.287273 l
359.114705 339.51926 l
364.362704 345.435646 l
369.11299 351.702326 l
373.073054 357.974459 l
376.031729 363.899175 l
377.843489 369.151902 l
378.424548 373.498738 l
377.744287 376.800146 l
375.81781 378.979024 l
372.707477 380.069514 l
368.501652 380.142367 l
363.308142 379.32978 l
357.239295 377.801077 l
342.872474 373.376944 l
334.710518 370.883988 l
325.929704 368.454063 l
316.496088 366.217352 l
306.331608 364.189331 l
295.325651 362.12478 l
283.391553 359.32785 l
270.628578 354.754906 l
257.461674 348.06742 l
244.36038 339.992745 l
231.691088 331.213757 l
219.814072 322.048241 l
209.089191 312.687191 l
199.856979 303.257454 l
192.445981 293.957299 l
187.154828 285.073923 l
184.236966 276.858374 l
183.88975 269.764385 l
186.254458 264.016332 l
191.428939 259.565299 l
199.368658 256.92087 l
210.046626 255.933204 l
223.276931 256.591917 l
238.838397 259.600098 l
256.46671 264.548722 l
275.78357 271.328053 l
296.422645 280.214121 l
317.902842 290.459064 l
339.742027 302.224479 l
361.462571 315.385289 l
382.56496 329.648562 l
402.535552 344.414646 l
420.891396 359.426784 l
437.212086 374.345485 l
451.181734 388.262189 l
462.610065 400.496272 l
471.500577 410.300219 l
478.180313 416.383287 l
483.18243 418.421619 l
487.110369 417.175499 l
490.800667 412.668111 l
495.081973 406.235866 l
499.970565 403.86099 l
504.470274 408.377322 l
508.182815 412.749198 l
511.055039 416.818351 l
512.950106 420.660051 l
513.763522 424.147347 l
513.419093 427.140848 l
511.855577 429.579787 l
509.04119 431.34599 l
504.979069 432.310195 l
499.698016 432.439903 l
493.256989 431.695031 l
485.750624 430.050315 l
477.307895 427.483316 l
468.086627 423.976974 l
458.274517 419.584727 l
448.084813 414.394928 l
437.751012 408.509633 l
427.523327 402.046647 l
417.663254 395.131823 l
408.427298 387.928035 l
400.078733 380.599421 l
392.845745 373.333114 l
386.930856 366.437214 l
382.527938 360.028458 l
379.757649 354.36427 l
378.72581 349.544143 l
379.469781 345.655536 l
381.970608 343.025769 l
386.163575 341.606578 l
391.926716 341.411526 l
399.136442 342.394035 l
407.643982 344.354549 l
417.327805 347.07891 l
439.821911 353.984213 l
452.501261 357.996978 l
466.04533 362.554876 l
480.302058 368.113109 l
494.98431 375.120149 l
509.713238 383.589811 l
524.1259 393.063644 l
537.865096 403.130425 l
550.545986 413.612937 l
561.784188 424.377494 l
571.239081 435.163974 l
578.601074 445.673497 l
583.580752 455.553486 l
585.899256 464.53619 l
585.372604 472.042621 l
581.719792 478.698908 l
574.982116 483.309656 l
565.089451 486.026788 l
552.058289 486.736585 l
536.036571 485.10787 l
517.238898 481.098747 l
495.964288 474.718409 l
472.611985 466.056652 l
447.649485 455.056382 l
421.618175 441.877529 l
395.1976 426.687707 l
369.042248 409.841305 l
343.822784 391.975005 l
320.230005 373.720759 l
298.94063 355.581143 l
280.563505 337.971313 l
265.45434 322.392428 l
253.74359 310.602161 l
245.193223 303.178088 l
239.079825 300.727071 l
234.45923 303.328821 l
230.105417 308.78759 l
224.744231 312.329327 l
218.7096 306.107224 l
214.088753 299.260496 l
211.099555 292.938696 l
209.991034 287.297775 l
210.885596 282.445945 l
213.860084 278.57401 l
218.947063 275.947384 l
226.123378 274.668752 l
235.284524 274.604625 l
246.307808 276.208174 l
258.988361 279.142439 l
273.095616 283.692717 l
288.351074 289.667224 l
304.416669 296.940242 l
320.950544 305.489047 l
337.567465 315.105046 l
353.882833 325.619949 l
369.514564 336.734155 l
384.086065 348.133521 l
397.238747 359.577849 l
408.647318 370.757123 l
418.062017 381.298735 l
425.288022 390.578139 l
430.268912 398.10708 l
433.08266 403.44763 l
433.975796 406.217505 l
433.346022 406.275749 l
431.684787 403.810472 l
429.547378 399.115647 l
427.531124 392.59355 l
426.192239 385.072179 l
426.013775 377.749768 l
427.322985 371.921164 l
430.109154 368.688445 l
433.972833 367.975385 l
438.725853 368.524855 l
444.305264 369.696544 l
450.612024 371.44485 l
457.531575 373.844366 l
464.941681 376.869745 l
472.70034 380.4726 l
480.641827 384.692547 l
488.601337 389.356089 l
496.382296 394.502463 l
503.80292 399.933602 l
510.657152 405.593297 l
516.757185 411.336965 l
521.907515 417.081106 l
521.907515 417.081106 l
stroke
grestore
0.000 setgray
/DejaVuSans 12.000 selectfont
gsave

271.765625 639.600000 translate
0.000000 rotate
0.000000 0 m /P glyphshow
6.986328 0 m /r glyphshow
11.669922 0 m /e glyphshow
19.052734 0 m /d glyphshow
26.669922 0 m /i glyphshow
30.003906 0 m /c glyphshow
36.601562 0 m /t glyphshow
41.306641 0 m /e glyphshow
48.689453 0 m /d glyphshow
56.306641 0 m /space glyphshow
60.121094 0 m /D glyphshow
69.361328 0 m /o glyphshow
76.703125 0 m /u glyphshow
84.308594 0 m /b glyphshow
91.925781 0 m /l glyphshow
95.259766 0 m /e glyphshow
102.642578 0 m /space glyphshow
106.457031 0 m /s glyphshow
112.708984 0 m /c glyphshow
119.306641 0 m /r glyphshow
123.990234 0 m /o glyphshow
131.332031 0 m /l glyphshow
134.666016 0 m /l glyphshow
138.000000 0 m /space glyphshow
141.814453 0 m /a glyphshow
149.167969 0 m /t glyphshow
153.873047 0 m /t glyphshow
158.578125 0 m /r glyphshow
163.511719 0 m /a glyphshow
170.865234 0 m /c glyphshow
177.462891 0 m /t glyphshow
182.167969 0 m /o glyphshow
189.509766 0 m /r glyphshow
grestore
0 setlinejoin
0 setlinecap
0.800 setgray
gsave
560.23125 596.25625 m
639.2 596.25625 l
640.533333 596.25625 641.2 596.922917 641.2 598.25625 c
641.2 626.6 l
641.2 627.933333 640.533333 628.6 639.2 628.6 c
560.23125 628.6 l
558.897917 628.6 558.23125 627.933333 558.23125 626.6 c
558.23125 598.25625 l
558.23125 596.922917 558.897917 596.25625 560.23125 596.25625 c
cl
gsave
1.000 setgray
fill
grestore
stroke
grestore
1 setlinejoin
2 setlinecap
1.000 0.000 0.000 setrgbcolor
gsave
562.23125 620.50625 m
572.23125 620.50625 l
582.23125 620.50625 l
stroke
grestore
0.000 setgray
/DejaVuSans 10.000 selectfont
gsave

590.231250 617.006250 translate
0.000000 rotate
0.000000 0 m /A glyphshow
6.715820 0 m /c glyphshow
12.213867 0 m /t glyphshow
16.134766 0 m /u glyphshow
22.472656 0 m /a glyphshow
28.600586 0 m /l glyphshow
grestore
0.000 0.000 1.000 setrgbcolor
gsave
562.23125 605.834375 m
572.23125 605.834375 l
582.23125 605.834375 l
stroke
grestore
0.000 setgray
gsave

590.231250 602.334375 translate
0.000000 rotate
0.000000 0 m /P glyphshow
5.905273 0 m /r glyphshow
9.766602 0 m /e glyphshow
15.918945 0 m /d glyphshow
22.266602 0 m /i glyphshow
25.044922 0 m /c glyphshow
30.542969 0 m /t glyphshow
34.463867 0 m /e glyphshow
40.616211 0 m /d glyphshow
grestore

end
showpage
