%!PS-Adobe-3.0 EPSF-3.0
%%Title: Double_Scroll_RcTorch_100_basic_accuracy.eps
%%Creator: Matplotlib v3.5.1, https://matplotlib.org/
%%CreationDate: Fri Sep 15 21:45:27 2023
%%Orientation: portrait
%%BoundingBox: -54 36 666 756
%%HiResBoundingBox: -54.000000 36.000000 666.000000 756.000000
%%EndComments
%%BeginProlog
/mpldict 11 dict def
mpldict begin
/_d { bind def } bind def
/m { moveto } _d
/l { lineto } _d
/r { rlineto } _d
/c { curveto } _d
/cl { closepath } _d
/ce { closepath eofill } _d
/box {
      m
      1 index 0 r
      0 exch r
      neg 0 r
      cl
    } _d
/clipbox {
      box
      clip
      newpath
    } _d
/sc { setcachedevice } _d
%!PS-Adobe-3.0 Resource-Font
%%Creator: Converted from TrueType to Type 3 by Matplotlib.
10 dict begin
/FontName /DejaVuSans def
/PaintType 0 def
/FontMatrix [0.00048828125 0 0 0.00048828125 0 0] def
/FontBBox [-2090 -948 3673 2524] def
/FontType 3 def
/Encoding [/minus /space /period /zero /one /two /five /A /D /P /a /b /c /d /e /i /l /o /r /s /t /u /x /y /z] def
/CharStrings 26 dict dup begin
/.notdef 0 def
/minus{1716 0 217 557 1499 727 sc
217 727 m
1499 727 l
1499 557 l
217 557 l
217 727 l

ce} _d
/space{651 0 0 0 0 0 sc
ce} _d
/period{651 0 219 0 430 254 sc
219 254 m
430 254 l
430 0 l
219 0 l
219 254 l

ce} _d
/zero{1303 0 135 -29 1167 1520 sc
651 1360 m
547 1360 469 1309 416 1206 c
364 1104 338 950 338 745 c
338 540 364 387 416 284 c
469 182 547 131 651 131 c
756 131 834 182 886 284 c
939 387 965 540 965 745 c
965 950 939 1104 886 1206 c
834 1309 756 1360 651 1360 c

651 1520 m
818 1520 946 1454 1034 1321 c
1123 1189 1167 997 1167 745 c
1167 494 1123 302 1034 169 c
946 37 818 -29 651 -29 c
484 -29 356 37 267 169 c
179 302 135 494 135 745 c
135 997 179 1189 267 1321 c
356 1454 484 1520 651 1520 c

ce} _d
/one{1303 0 225 0 1114 1493 sc
254 170 m
584 170 l
584 1309 l
225 1237 l
225 1421 l
582 1493 l
784 1493 l
784 170 l
1114 170 l
1114 0 l
254 0 l
254 170 l

ce} _d
/two{1303 0 150 0 1098 1520 sc
393 170 m
1098 170 l
1098 0 l
150 0 l
150 170 l
227 249 331 356 463 489 c
596 623 679 709 713 748 c
778 821 823 882 848 932 c
874 983 887 1032 887 1081 c
887 1160 859 1225 803 1275 c
748 1325 675 1350 586 1350 c
523 1350 456 1339 385 1317 c
315 1295 240 1262 160 1217 c
160 1421 l
241 1454 317 1478 388 1495 c
459 1512 523 1520 582 1520 c
737 1520 860 1481 952 1404 c
1044 1327 1090 1223 1090 1094 c
1090 1033 1078 974 1055 919 c
1032 864 991 800 930 725 c
913 706 860 650 771 557 c
682 465 556 336 393 170 c

ce} _d
/five{1303 0 158 -29 1124 1493 sc
221 1493 m
1014 1493 l
1014 1323 l
406 1323 l
406 957 l
435 967 465 974 494 979 c
523 984 553 987 582 987 c
749 987 881 941 978 850 c
1075 759 1124 635 1124 479 c
1124 318 1074 193 974 104 c
874 15 733 -29 551 -29 c
488 -29 424 -24 359 -13 c
294 -2 227 14 158 35 c
158 238 l
218 205 280 181 344 165 c
408 149 476 141 547 141 c
662 141 754 171 821 232 c
888 293 922 375 922 479 c
922 583 888 665 821 726 c
754 787 662 817 547 817 c
493 817 439 811 385 799 c
332 787 277 768 221 743 c
221 1493 l

ce} _d
/A{1401 0 16 0 1384 1493 sc
700 1294 m
426 551 l
975 551 l
700 1294 l

586 1493 m
815 1493 l
1384 0 l
1174 0 l
1038 383 l
365 383 l
229 0 l
16 0 l
586 1493 l

ce} _d
/D{1577 0 201 0 1456 1493 sc
403 1327 m
403 166 l
647 166 l
853 166 1004 213 1099 306 c
1195 399 1243 547 1243 748 c
1243 948 1195 1094 1099 1187 c
1004 1280 853 1327 647 1327 c
403 1327 l

201 1493 m
616 1493 l
905 1493 1118 1433 1253 1312 c
1388 1192 1456 1004 1456 748 c
1456 491 1388 302 1252 181 c
1116 60 904 0 616 0 c
201 0 l
201 1493 l

ce} _d
/P{1235 0 201 0 1165 1493 sc
403 1327 m
403 766 l
657 766 l
751 766 824 790 875 839 c
926 888 952 957 952 1047 c
952 1136 926 1205 875 1254 c
824 1303 751 1327 657 1327 c
403 1327 l

201 1493 m
657 1493 l
824 1493 951 1455 1036 1379 c
1122 1304 1165 1193 1165 1047 c
1165 900 1122 788 1036 713 c
951 638 824 600 657 600 c
403 600 l
403 0 l
201 0 l
201 1493 l

ce} _d
/a{1255 0 123 -29 1069 1147 sc
702 563 m
553 563 450 546 393 512 c
336 478 307 420 307 338 c
307 273 328 221 371 182 c
414 144 473 125 547 125 c
649 125 731 161 792 233 c
854 306 885 402 885 522 c
885 563 l
702 563 l

1069 639 m
1069 0 l
885 0 l
885 170 l
843 102 791 52 728 19 c
665 -13 589 -29 498 -29 c
383 -29 292 3 224 67 c
157 132 123 218 123 326 c
123 452 165 547 249 611 c
334 675 460 707 627 707 c
885 707 l
885 725 l
885 810 857 875 801 921 c
746 968 668 991 567 991 c
503 991 441 983 380 968 c
319 953 261 930 205 899 c
205 1069 l
272 1095 338 1114 401 1127 c
464 1140 526 1147 586 1147 c
748 1147 869 1105 949 1021 c
1029 937 1069 810 1069 639 c

ce} _d
/b{1300 0 186 -29 1188 1556 sc
997 559 m
997 694 969 800 913 877 c
858 954 781 993 684 993 c
587 993 510 954 454 877 c
399 800 371 694 371 559 c
371 424 399 317 454 240 c
510 163 587 125 684 125 c
781 125 858 163 913 240 c
969 317 997 424 997 559 c

371 950 m
410 1017 458 1066 517 1098 c
576 1131 647 1147 729 1147 c
865 1147 975 1093 1060 985 c
1145 877 1188 735 1188 559 c
1188 383 1145 241 1060 133 c
975 25 865 -29 729 -29 c
647 -29 576 -13 517 19 c
458 52 410 101 371 168 c
371 0 l
186 0 l
186 1556 l
371 1556 l
371 950 l

ce} _d
/c{1126 0 113 -29 999 1147 sc
999 1077 m
999 905 l
947 934 895 955 842 969 c
790 984 737 991 684 991 c
565 991 472 953 406 877 c
340 802 307 696 307 559 c
307 422 340 316 406 240 c
472 165 565 127 684 127 c
737 127 790 134 842 148 c
895 163 947 184 999 213 c
999 43 l
948 19 894 1 839 -11 c
784 -23 726 -29 664 -29 c
495 -29 361 24 262 130 c
163 236 113 379 113 559 c
113 742 163 885 263 990 c
364 1095 501 1147 676 1147 c
733 1147 788 1141 842 1129 c
896 1118 948 1100 999 1077 c

ce} _d
/d{1300 0 113 -29 1114 1556 sc
930 950 m
930 1556 l
1114 1556 l
1114 0 l
930 0 l
930 168 l
891 101 842 52 783 19 c
724 -13 654 -29 571 -29 c
436 -29 325 25 240 133 c
155 241 113 383 113 559 c
113 735 155 877 240 985 c
325 1093 436 1147 571 1147 c
654 1147 724 1131 783 1098 c
842 1066 891 1017 930 950 c

303 559 m
303 424 331 317 386 240 c
442 163 519 125 616 125 c
713 125 790 163 846 240 c
902 317 930 424 930 559 c
930 694 902 800 846 877 c
790 954 713 993 616 993 c
519 993 442 954 386 877 c
331 800 303 694 303 559 c

ce} _d
/e{1260 0 113 -29 1151 1147 sc
1151 606 m
1151 516 l
305 516 l
313 389 351 293 419 226 c
488 160 583 127 705 127 c
776 127 844 136 910 153 c
977 170 1043 196 1108 231 c
1108 57 l
1042 29 974 8 905 -7 c
836 -22 765 -29 694 -29 c
515 -29 374 23 269 127 c
165 231 113 372 113 549 c
113 732 162 878 261 985 c
360 1093 494 1147 662 1147 c
813 1147 932 1098 1019 1001 c
1107 904 1151 773 1151 606 c

967 660 m
966 761 937 841 882 901 c
827 961 755 991 664 991 c
561 991 479 962 417 904 c
356 846 320 764 311 659 c
967 660 l

ce} _d
/i{569 0 193 0 377 1556 sc
193 1120 m
377 1120 l
377 0 l
193 0 l
193 1120 l

193 1556 m
377 1556 l
377 1323 l
193 1323 l
193 1556 l

ce} _d
/l{569 0 193 0 377 1556 sc
193 1556 m
377 1556 l
377 0 l
193 0 l
193 1556 l

ce} _d
/o{1253 0 113 -29 1141 1147 sc
627 991 m
528 991 450 952 393 875 c
336 798 307 693 307 559 c
307 425 335 319 392 242 c
449 165 528 127 627 127 c
725 127 803 166 860 243 c
917 320 946 426 946 559 c
946 692 917 797 860 874 c
803 952 725 991 627 991 c

627 1147 m
787 1147 913 1095 1004 991 c
1095 887 1141 743 1141 559 c
1141 376 1095 232 1004 127 c
913 23 787 -29 627 -29 c
466 -29 340 23 249 127 c
158 232 113 376 113 559 c
113 743 158 887 249 991 c
340 1095 466 1147 627 1147 c

ce} _d
/r{842 0 186 0 842 1147 sc
842 948 m
821 960 799 969 774 974 c
750 980 723 983 694 983 c
590 983 510 949 454 881 c
399 814 371 717 371 590 c
371 0 l
186 0 l
186 1120 l
371 1120 l
371 946 l
410 1014 460 1064 522 1097 c
584 1130 659 1147 748 1147 c
761 1147 775 1146 790 1144 c
805 1143 822 1140 841 1137 c
842 948 l

ce} _d
/s{1067 0 111 -29 967 1147 sc
907 1087 m
907 913 l
855 940 801 960 745 973 c
689 986 631 993 571 993 c
480 993 411 979 365 951 c
320 923 297 881 297 825 c
297 782 313 749 346 724 c
379 700 444 677 543 655 c
606 641 l
737 613 829 573 884 522 c
939 471 967 400 967 309 c
967 205 926 123 843 62 c
761 1 648 -29 504 -29 c
444 -29 381 -23 316 -11 c
251 0 183 18 111 41 c
111 231 l
179 196 246 169 312 151 c
378 134 443 125 508 125 c
595 125 661 140 708 169 c
755 199 778 241 778 295 c
778 345 761 383 727 410 c
694 437 620 462 506 487 c
442 502 l
328 526 246 563 195 612 c
144 662 119 730 119 817 c
119 922 156 1004 231 1061 c
306 1118 412 1147 549 1147 c
617 1147 681 1142 741 1132 c
801 1122 856 1107 907 1087 c

ce} _d
/t{803 0 55 0 754 1438 sc
375 1438 m
375 1120 l
754 1120 l
754 977 l
375 977 l
375 369 l
375 278 387 219 412 193 c
437 167 488 154 565 154 c
754 154 l
754 0 l
565 0 l
423 0 325 26 271 79 c
217 132 190 229 190 369 c
190 977 l
55 977 l
55 1120 l
190 1120 l
190 1438 l
375 1438 l

ce} _d
/u{1298 0 174 -29 1112 1147 sc
174 442 m
174 1120 l
358 1120 l
358 449 l
358 343 379 263 420 210 c
461 157 523 131 606 131 c
705 131 784 163 841 226 c
899 289 928 376 928 485 c
928 1120 l
1112 1120 l
1112 0 l
928 0 l
928 172 l
883 104 831 53 772 20 c
713 -13 645 -29 567 -29 c
438 -29 341 11 274 91 c
207 171 174 288 174 442 c

637 1147 m
637 1147 l

ce} _d
/x{1212 0 59 0 1145 1120 sc
1124 1120 m
719 575 l
1145 0 l
928 0 l
602 440 l
276 0 l
59 0 l
494 586 l
96 1120 l
313 1120 l
610 721 l
907 1120 l
1124 1120 l

ce} _d
/y{1212 0 61 -426 1151 1120 sc
659 -104 m
607 -237 556 -324 507 -365 c
458 -406 392 -426 309 -426 c
162 -426 l
162 -272 l
270 -272 l
321 -272 360 -260 388 -236 c
416 -212 447 -155 481 -66 c
514 18 l
61 1120 l
256 1120 l
606 244 l
956 1120 l
1151 1120 l
659 -104 l

ce} _d
/z{1075 0 88 0 987 1120 sc
113 1120 m
987 1120 l
987 952 l
295 147 l
987 147 l
987 0 l
88 0 l
88 168 l
780 973 l
113 973 l
113 1120 l

ce} _d
end readonly def

/BuildGlyph {
 exch begin
 CharStrings exch
 2 copy known not {pop /.notdef} if
 true 3 1 roll get exec
 end
} _d

/BuildChar {
 1 index /Encoding get exch get
 1 index /BuildGlyph get exec
} _d

FontName currentdict end definefont pop
end
%%EndProlog
mpldict begin
-54 36 translate
720 720 0 0 clipbox
gsave
0 0 m
720 0 l
720 720 l
0 720 l
cl
1.000 setgray
fill
grestore
gsave
91.8 79.2 m
646.2 79.2 l
646.2 633.6 l
91.8 633.6 l
cl
1.000 setgray
fill
grestore
1.000 setlinewidth
0 setlinejoin
0 setlinecap
[] 0 setdash
0.950 setgray
gsave
133.661023 215.897273 m
316.742009 369.359386 l
314.197008 590.679186 l
122.354653 450.681373 l
gsave
fill
grestore
stroke
grestore
0.900 setgray
gsave
316.742009 369.359386 m
610.521668 283.969237 l
621.005628 512.912144 l
314.197008 590.679186 l
gsave
fill
grestore
stroke
grestore
0.925 setgray
gsave
133.661023 215.897273 m
445.08181 114.187244 l
610.521668 283.969237 l
316.742009 369.359386 l
gsave
fill
grestore
stroke
grestore
0.800 setlinewidth
1 setlinejoin
2 setlinecap
0.000 setgray
gsave
133.661023 215.897273 m
445.08181 114.187244 l
stroke
grestore
/DejaVuSans 18.000 selectfont
gsave

263.716893 126.301647 translate
0.000000 rotate
0.000000 0 m /x glyphshow
grestore
gsave
146.803523 213.465191 m
142.030313 209.435374 l
stroke
grestore
gsave

115.845173 182.795699 translate
0.000000 rotate
0.000000 0 m /minus glyphshow
15.082031 0 m /two glyphshow
26.534180 0 m /period glyphshow
32.255859 0 m /zero glyphshow
grestore
gsave
180.798986 202.373245 m
176.070839 198.2957 l
stroke
grestore
gsave

149.872044 171.575431 translate
0.000000 rotate
0.000000 0 m /minus glyphshow
15.082031 0 m /one glyphshow
26.534180 0 m /period glyphshow
32.255859 0 m /five glyphshow
grestore
gsave
215.197843 191.14968 m
210.51617 187.023554 l
stroke
grestore
gsave

184.303701 160.221686 translate
0.000000 rotate
0.000000 0 m /minus glyphshow
15.082031 0 m /one glyphshow
26.534180 0 m /period glyphshow
32.255859 0 m /zero glyphshow
grestore
gsave
250.007318 179.792141 m
245.373571 175.61656 l
stroke
grestore
gsave

219.147410 148.732069 translate
0.000000 rotate
0.000000 0 m /minus glyphshow
15.082031 0 m /zero glyphshow
26.534180 0 m /period glyphshow
32.255859 0 m /five glyphshow
grestore
gsave
285.234807 168.298212 m
280.65048 164.072283 l
stroke
grestore
gsave

261.949675 137.104124 translate
0.000000 rotate
0.000000 0 m /zero glyphshow
11.452148 0 m /period glyphshow
17.173828 0 m /zero glyphshow
grestore
gsave
320.887885 156.665424 m
316.354516 152.388229 l
stroke
grestore
gsave

297.639993 125.335339 translate
0.000000 rotate
0.000000 0 m /zero glyphshow
11.452148 0 m /period glyphshow
17.173828 0 m /five glyphshow
grestore
gsave
356.974312 144.891244 m
352.493484 140.561846 l
stroke
grestore
gsave

333.765233 113.423140 translate
0.000000 rotate
0.000000 0 m /one glyphshow
11.452148 0 m /period glyphshow
17.173828 0 m /zero glyphshow
grestore
gsave
393.502036 132.973078 m
389.07538 128.590515 l
stroke
grestore
gsave

370.333394 101.364889 translate
0.000000 rotate
0.000000 0 m /one glyphshow
11.452148 0 m /period glyphshow
17.173828 0 m /five glyphshow
grestore
gsave
430.479203 120.90827 m
426.108396 116.471556 l
stroke
grestore
gsave

407.352671 89.157884 translate
0.000000 rotate
0.000000 0 m /two glyphshow
11.452148 0 m /period glyphshow
17.173828 0 m /zero glyphshow
grestore
gsave
610.521668 283.969237 m
445.08181 114.187244 l
stroke
grestore
gsave

553.130958 169.926158 translate
0.000000 rotate
0.000000 0 m /y glyphshow
grestore
gsave
460.895094 133.933086 m
468.725789 131.407675 l
stroke
grestore
gsave

454.483305 106.051877 translate
0.000000 rotate
0.000000 0 m /minus glyphshow
15.082031 0 m /one glyphshow
26.534180 0 m /period glyphshow
32.255859 0 m /zero glyphshow
grestore
gsave
496.589447 170.498655 m
504.319008 168.066645 l
stroke
grestore
gsave

489.914495 142.908376 translate
0.000000 rotate
0.000000 0 m /minus glyphshow
15.082031 0 m /zero glyphshow
26.534180 0 m /period glyphshow
32.255859 0 m /five glyphshow
grestore
gsave
530.976461 205.724975 m
538.606973 203.381279 l
stroke
grestore
gsave

531.586153 178.414040 translate
0.000000 rotate
0.000000 0 m /zero glyphshow
11.452148 0 m /period glyphshow
17.173828 0 m /zero glyphshow
grestore
gsave
564.126666 239.684301 m
571.660191 237.424193 l
stroke
grestore
gsave

564.490260 212.641797 translate
0.000000 rotate
0.000000 0 m /zero glyphshow
11.452148 0 m /period glyphshow
17.173828 0 m /five glyphshow
grestore
gsave
596.105613 272.443779 m
603.544177 270.262867 l
stroke
grestore
gsave

596.231029 245.659419 translate
0.000000 rotate
0.000000 0 m /one glyphshow
11.452148 0 m /period glyphshow
17.173828 0 m /zero glyphshow
grestore
gsave
610.521668 283.969237 m
621.005628 512.912144 l
stroke
grestore
gsave

651.437862 396.399969 translate
0.000000 rotate
0.000000 0 m /z glyphshow
grestore
gsave
608.786135 300.80116 m
616.213099 298.661912 l
stroke
grestore
gsave

616.327829 289.010744 translate
0.000000 rotate
0.000000 0 m /minus glyphshow
15.082031 0 m /two glyphshow
grestore
gsave
610.895642 347.364433 m
618.392672 345.261787 l
stroke
grestore
gsave

618.623858 335.541788 translate
0.000000 rotate
0.000000 0 m /minus glyphshow
15.082031 0 m /one glyphshow
grestore
gsave
613.043814 394.781156 m
620.612243 392.716819 l
stroke
grestore
gsave

628.500988 382.924781 translate
0.000000 rotate
0.000000 0 m /zero glyphshow
grestore
gsave
615.231723 443.075009 m
622.872923 441.050768 l
stroke
grestore
gsave

630.882259 431.183335 translate
0.000000 rotate
0.000000 0 m /one glyphshow
grestore
gsave
617.460483 492.270559 m
625.175864 490.288278 l
stroke
grestore
gsave

633.307943 480.341945 translate
0.000000 rotate
0.000000 0 m /two glyphshow
grestore
1.000 setlinewidth
1.000 0.000 0.000 setrgbcolor
gsave
554.4 554.4 91.8 79.2 clipbox
486.706098 459.270655 m
467.298623 451.733415 l
446.695005 442.296576 l
425.357152 431.150331 l
403.797735 418.534844 l
382.563502 404.730743 l
362.22423 390.15703 l
343.312912 374.967928 l
326.379334 359.949629 l
311.867053 345.586842 l
300.123146 332.673247 l
285.333539 314.922897 l
281.776959 311.555989 l
279.973219 311.966327 l
279.106937 315.677392 l
278.309153 322.015752 l
276.695125 329.678002 l
273.565834 332.753109 l
269.757408 330.176616 l
266.24076 327.149266 l
263.185392 324.2038 l
260.664496 321.219591 l
258.773016 318.294878 l
257.616334 315.689253 l
257.246311 313.370426 l
257.708233 311.375322 l
259.04607 309.864511 l
261.259407 308.811626 l
264.337224 308.263257 l
268.258944 308.356239 l
272.957903 309.030256 l
278.359959 310.324767 l
284.369514 312.260814 l
290.86818 314.81544 l
297.71746 317.919211 l
304.773703 321.565307 l
311.873245 325.64999 l
318.850389 330.101256 l
325.53697 334.842873 l
331.75648 339.704837 l
337.359154 344.707656 l
342.176109 349.604895 l
346.070161 354.320596 l
348.917049 358.734749 l
350.612871 362.735519 l
351.073262 366.188415 l
350.246506 369.045621 l
348.095843 371.158085 l
344.624062 372.519863 l
339.847037 373.116757 l
333.814522 372.878439 l
326.592104 371.777611 l
318.275976 369.893781 l
308.97201 367.201539 l
298.811496 363.680997 l
287.967749 359.302186 l
276.638565 354.070653 l
265.058217 348.018828 l
253.485902 341.179966 l
242.218594 333.724073 l
231.560044 325.80108 l
221.819416 317.593976 l
213.303518 309.313945 l
206.297573 301.139181 l
201.0714 293.309164 l
197.816293 285.782295 l
196.785571 279.173763 l
198.143808 273.855061 l
201.880897 269.411156 l
208.108465 266.603664 l
216.715713 265.1126 l
227.661643 265.51907 l
240.699341 267.344442 l
255.675104 271.23132 l
272.221697 276.533351 l
290.0693 283.791004 l
308.78394 292.414345 l
327.978533 302.501036 l
347.206082 313.729464 l
366.028874 325.972999 l
384.002496 338.971583 l
400.68482 352.226829 l
415.681426 365.423987 l
428.655126 378.17612 l
439.343403 389.878092 l
447.620475 399.855123 l
453.545243 407.337468 l
457.38814 411.718219 l
459.620049 412.826357 l
460.826251 410.836093 l
462.939077 399.396971 l
465.224726 392.12852 l
468.486628 389.773324 l
472.0127 391.436026 l
478.991654 395.830768 l
482.267922 398.258028 l
485.286832 400.880466 l
487.960048 403.376157 l
490.206769 405.801384 l
491.950313 408.265018 l
493.120826 410.590888 l
493.659174 412.66475 l
493.517886 414.492033 l
492.663716 415.97411 l
491.078953 416.98575 l
488.762065 417.596185 l
485.730121 417.733928 l
482.01852 417.31504 l
477.681597 416.389955 l
472.792343 414.935125 l
467.440934 412.913969 l
461.735422 410.422597 l
455.796705 407.438464 l
449.759649 404.060472 l
443.76702 400.334027 l
437.967215 396.327689 l
432.510406 392.124195 l
427.544886 387.82232 l
423.214682 383.566883 l
419.646335 379.390284 l
416.961582 375.482415 l
415.255506 371.892074 l
414.608084 368.750944 l
415.072546 366.116399 l
416.681985 364.100454 l
419.440429 362.725486 l
423.331625 362.050531 l
428.317699 362.11589 l
434.330726 362.902816 l
441.29337 364.435861 l
449.09727 366.727618 l
457.616065 369.763737 l
466.69262 373.501584 l
476.160051 378.01917 l
485.818775 383.180838 l
495.454013 388.928607 l
504.83979 395.178057 l
513.738799 401.910357 l
521.913467 408.777871 l
529.128285 415.723561 l
535.153803 422.659714 l
539.778963 429.349325 l
542.813059 435.586382 l
544.077091 441.514363 l
543.459524 446.461037 l
540.867444 450.215536 l
536.223506 453.176953 l
529.539734 454.799691 l
520.862457 454.882575 l
510.273471 453.839707 l
497.94486 450.917896 l
484.070414 446.728168 l
468.918219 440.904614 l
452.797856 433.617563 l
436.067562 425.057932 l
419.119178 415.287419 l
402.372648 404.528069 l
386.267022 393.109947 l
371.235468 381.298338 l
357.674583 369.281975 l
345.990743 357.739746 l
336.471422 346.924818 l
329.340771 337.401078 l
324.686563 329.73481 l
322.427096 324.474612 l
322.291733 321.996204 l
323.835489 322.330361 l
326.498034 325.176271 l
329.685257 330.065705 l
332.79434 336.424865 l
335.284057 343.694107 l
336.661422 351.252618 l
336.530466 358.161499 l
334.71253 362.878173 l
331.397098 364.926562 l
326.863713 365.302273 l
321.286302 364.748348 l
314.766659 363.444882 l
307.396771 361.393816 l
299.311586 358.678558 l
290.636138 355.224166 l
281.527539 350.995828 l
272.210229 346.258927 l
262.839141 340.725037 l
253.705458 334.897038 l
244.996448 328.549449 l
236.95832 321.824056 l
229.881993 315.191093 l
223.963398 308.568087 l
219.426448 302.17699 l
216.455777 296.147289 l
215.206311 290.619031 l
215.86831 286.21949 l
218.436478 282.541032 l
222.95621 279.815059 l
229.449861 278.455605 l
237.827601 278.431932 l
247.931278 279.534574 l
259.657192 282.336311 l
272.724627 286.345338 l
286.896819 291.719171 l
301.884275 298.467407 l
317.34273 306.315746 l
332.932159 315.197529 l
348.290409 324.929085 l
363.045798 335.218839 l
376.847749 345.914688 l
389.358962 356.765962 l
400.254078 367.292999 l
409.286351 377.307632 l
416.251417 386.332662 l
421.0485 393.938293 l
423.693083 399.646466 l
424.344189 403.054637 l
423.297389 403.967978 l
420.95889 402.472007 l
417.800664 398.855167 l
414.341168 393.56853 l
411.080762 387.083076 l
408.505698 379.922922 l
407.04589 372.643066 l
407.049961 365.943041 l
408.702436 360.732012 l
411.969852 357.610883 l
416.696398 356.354485 l
422.729181 356.421097 l
429.946791 357.487006 l
438.236946 359.422109 l
447.479795 362.190443 l
457.529283 365.777268 l
468.214627 370.215529 l
479.332702 375.458307 l
490.652114 381.573221 l
501.917225 388.385935 l
512.860835 395.798858 l
523.207757 403.550393 l
532.675007 411.696072 l
540.983847 420.044195 l
547.875985 428.191288 l
553.101655 436.046131 l
556.452526 443.124802 l
557.700814 449.934367 l
556.726845 455.622037 l
553.420343 460.023763 l
547.700586 463.367998 l
539.592444 464.939493 l
529.124926 465.171289 l
516.441214 463.396205 l
501.707233 460.0804 l
485.186136 454.723019 l
467.18562 447.776698 l
448.082733 438.986375 l
428.305887 428.678808 l
408.325635 416.969289 l
388.646665 404.156369 l
369.799504 390.695552 l
352.271733 376.632246 l
336.56492 362.643245 l
323.106756 349.24277 l
312.224926 337.04924 l
304.102437 326.832597 l
295.762706 315.455044 l
294.702087 314.985469 l
294.831762 317.694089 l
295.377148 323.007736 l
295.551135 330.223395 l
294.608703 337.953713 l
292.087511 341.39235 l
288.698603 340.258369 l
281.596577 336.399295 l
278.101524 334.124572 l
274.763932 331.700377 l
271.69125 329.307675 l
268.939482 326.760341 l
266.596263 324.132355 l
264.772237 321.713465 l
263.526388 319.476562 l
262.919874 317.485931 l
262.988247 315.707272 l
263.77299 314.25817 l
265.290337 313.182531 l
267.539921 312.525653 l
270.507278 312.357854 l
274.151072 312.676037 l
278.418731 313.524924 l
283.233467 314.886338 l
288.506086 316.765549 l
294.129513 319.13181 l
299.985542 321.957851 l
305.944673 325.19753 l
311.870172 328.797156 l
317.619004 332.676595 l
323.046249 336.740102 l
328.010743 340.898948 l
332.37689 345.057545 l
336.019541 349.128518 l
338.821384 352.98431 l
340.686464 356.55844 l
341.52842 359.709241 l
341.292297 362.400665 l
339.933424 364.519703 l
337.436241 366.021452 l
333.804196 366.868857 l
329.064057 366.987337 l
323.267507 366.389476 l
316.489546 365.072564 l
308.820566 363.000545 l
300.370943 360.166925 l
291.302516 356.605677 l
281.778025 352.316609 l
271.983976 347.29261 l
262.15189 341.669403 l
252.508555 335.471293 l
243.310878 328.850721 l
234.816351 321.94674 l
227.281501 314.918049 l
220.936813 307.827906 l
216.045798 301.079251 l
212.774626 294.605266 l
211.378033 289.140483 l
211.885162 284.187021 l
214.411668 280.101652 l
219.034668 277.314189 l
225.718152 275.828193 l
234.349221 275.43929 l
244.885954 276.846278 l
257.059898 279.396825 l
270.710138 283.623674 l
285.532266 289.230144 l
301.214178 296.117602 l
317.429995 304.327039 l
333.803472 313.594154 l
349.953647 323.699121 l
365.507119 334.530192 l
380.089394 345.846997 l
393.317362 357.042414 l
404.904788 368.228393 l
414.549018 378.70073 l
422.064774 388.163703 l
427.352006 396.073864 l
430.453198 401.907163 l
431.567717 405.228121 l
431.043271 405.874335 l
429.333115 403.97409 l
426.974561 399.890065 l
424.520054 394.079187 l
422.530775 387.068965 l
421.529652 379.478554 l
421.949834 372.347067 l
423.948303 367.537654 l
427.297526 365.622341 l
431.746881 365.390135 l
437.157804 366.023157 l
443.440216 367.393614 l
450.493231 369.443338 l
458.20044 372.186283 l
466.431568 375.615961 l
475.016992 379.695176 l
483.766765 384.392889 l
492.497586 389.615728 l
500.99805 395.297289 l
509.058493 401.314926 l
516.458907 407.622714 l
522.988715 414.017322 l
528.446573 420.216334 l
532.632677 426.379629 l
535.3828 432.032183 l
536.541622 437.214617 l
535.993307 441.665925 l
533.661063 445.005539 l
529.473645 447.730032 l
523.446498 449.19446 l
515.619343 449.301696 l
506.07415 448.209331 l
494.952331 445.815432 l
482.444723 441.86433 l
468.783424 436.639178 l
454.250816 430.158925 l
439.166392 422.43195 l
423.883376 413.647819 l
408.779379 404.003753 l
394.238304 393.634191 l
380.661048 382.989021 l
368.411542 372.214667 l
357.832129 361.685574 l
349.214306 351.781992 l
342.775998 342.921573 l
338.630038 335.516657 l
336.776668 330.035745 l
337.052035 326.812738 l
339.15803 326.016805 l
342.680184 327.548407 l
347.135827 331.067912 l
352.029846 336.120803 l
356.901885 342.204634 l
361.339777 348.840107 l
364.991811 355.573395 l
367.572372 361.996389 l
368.87233 367.760967 l
368.752013 372.584501 l
367.162665 376.30717 l
364.090883 378.848477 l
359.575463 380.232029 l
353.68104 380.548702 l
346.483512 379.922644 l
338.06408 378.49847 l
328.499546 376.41776 l
317.854408 373.77896 l
306.188976 370.573185 l
293.581161 366.602326 l
280.168206 361.518379 l
266.192373 355.085898 l
251.987062 347.387943 l
237.927276 338.672711 l
224.40895 329.245273 l
211.814161 319.305823 l
200.523735 309.065726 l
190.914384 298.80344 l
183.328121 288.746568 l
178.120516 279.430416 l
175.567399 271.202816 l
175.701173 263.284963 l
178.920087 257.529905 l
185.092948 252.97733 l
194.262537 250.187885 l
206.405681 249.844839 l
221.220557 251.233549 l
238.477193 254.568509 l
257.914597 260.400407 l
279.08777 268.290391 l
301.534906 277.976276 l
324.795909 289.593248 l
348.334251 302.772277 l
371.614522 317.288218 l
394.090774 332.745002 l
415.233141 348.698431 l
434.56655 364.932081 l
451.654232 380.64327 l
466.197314 395.158975 l
478.079398 407.429221 l
487.475913 416.387108 l
494.837878 421.355461 l
500.821501 422.262756 l
506.23473 419.427176 l
511.966269 413.652803 l
518.16212 411.871227 l
523.519572 417.523177 l
527.718642 423.357157 l
530.601603 428.790811 l
532.021421 433.764778 l
531.869196 437.865093 l
530.042111 441.404696 l
526.493257 444.113821 l
521.215094 445.736401 l
514.240409 446.042862 l
505.633406 445.311904 l
495.518952 443.38054 l
484.066989 439.925303 l
471.484059 435.292121 l
458.026388 429.506737 l
443.984907 422.514222 l
429.683202 414.489492 l
415.470038 405.628192 l
401.703175 396.047106 l
388.754708 386.118155 l
376.975256 376.032841 l
366.686161 366.033751 l
358.187201 356.559834 l
351.699421 347.901802 l
347.36717 340.412769 l
345.251973 334.527797 l
345.274039 330.547304 l
347.236373 328.700773 l
350.828066 329.02188 l
355.659584 331.33112 l
361.299561 335.25168 l
367.340961 340.364027 l
373.409362 346.215193 l
379.185526 352.368015 l
384.415756 358.42603 l
388.915844 364.048644 l
392.583172 368.971201 l
395.374432 372.995377 l
398.996149 378.803559 l
399.03088 378.687495 l
398.430271 375.998237 l
398.216126 373.760798 l
398.336142 371.173791 l
398.987668 368.42484 l
400.347413 365.689014 l
402.573473 363.125402 l
405.801308 360.875776 l
410.137955 359.058893 l
415.664896 357.791944 l
422.429447 357.195444 l
430.441846 357.443323 l
439.649207 358.740395 l
449.923756 361.236044 l
461.079578 365.024398 l
472.884116 369.992318 l
485.085038 375.979273 l
497.413956 382.808359 l
509.58341 390.535218 l
521.296092 398.642726 l
532.243271 407.481729 l
542.12757 416.376691 l
550.64549 425.409492 l
557.520782 434.192057 l
562.49275 442.539882 l
565.344585 449.98356 l
565.828623 457.19106 l
563.866856 462.712772 l
559.296953 467.355371 l
552.125565 470.061949 l
542.318776 471.583406 l
530.013844 470.735736 l
515.318853 468.436087 l
498.48935 463.890722 l
479.811935 457.44015 l
459.657372 449.064512 l
438.458486 438.859487 l
416.703618 426.996684 l
394.932089 413.827885 l
373.691266 399.392731 l
353.557359 384.231464 l
335.112596 369.026139 l
318.824725 353.945085 l
305.143225 339.879477 l
294.345504 327.634444 l
286.506295 318.228578 l
281.39187 312.493126 l
278.456648 310.696001 l
276.948761 312.562753 l
274.741459 324.733544 l
272.235226 331.055358 l
268.437248 330.061376 l
264.68955 326.851639 l
261.41878 323.642878 l
258.733067 320.529488 l
256.724405 317.544497 l
255.476423 314.757574 l
255.068133 312.303334 l
255.545661 310.202768 l
256.941761 308.517638 l
259.28154 307.412083 l
262.542633 306.853063 l
266.693743 306.910976 l
271.677459 307.625983 l
277.406261 308.969248 l
283.783412 311.002558 l
290.679755 313.671827 l
297.95466 316.960441 l
305.448941 320.803427 l
312.992549 325.124342 l
320.408699 329.839414 l
327.518275 334.861941 l
334.139434 340.060292 l
340.102168 345.351799 l
345.234276 350.535377 l
349.396425 355.577173 l
352.444781 360.237771 l
354.280984 364.487499 l
354.812496 368.141469 l
353.986075 371.133859 l
351.773056 373.416565 l
348.164123 374.817345 l
343.191123 375.388453 l
336.904396 375.122123 l
329.367699 374.034028 l
320.682811 372.089051 l
310.954853 369.306277 l
300.323 365.706591 l
288.946377 361.222604 l
277.028052 355.832548 l
264.809938 349.554242 l
252.570172 342.461224 l
240.597719 334.576698 l
229.254041 326.30709 l
218.840567 317.678189 l
209.666951 308.805047 l
202.083775 300.16142 l
196.349449 291.806959 l
192.715864 283.982154 l
191.360282 276.732332 l
192.548255 270.98692 l
196.249685 266.157575 l
202.589938 263.060283 l
211.442145 261.260436 l
222.798777 261.580854 l
236.378969 263.353934 l
252.021606 267.21953 l
269.375782 272.784726 l
288.10622 280.147988 l
307.809653 289.16869 l
328.052958 299.704192 l
348.377135 311.544881 l
368.310035 324.422961 l
387.371571 337.889368 l
405.130195 351.915244 l
421.153734 365.912411 l
435.078663 379.370152 l
446.643212 391.728986 l
462.428767 409.942225 l
467.067076 414.325699 l
470.174174 415.232531 l
472.395332 412.88513 l
474.474613 407.743703 l
477.187321 400.648198 l
480.888704 396.081885 l
484.790096 398.05247 l
488.421469 401.038283 l
491.66448 404.022186 l
494.421017 406.988482 l
496.597905 410.01483 l
498.111915 412.717851 l
498.889727 415.226515 l
498.872437 417.432828 l
498.01757 419.174188 l
496.299035 420.495746 l
493.711358 421.358329 l
490.270985 421.586435 l
486.014999 421.241559 l
481.003788 420.291625 l
475.319619 418.65751 l
469.066537 416.41068 l
462.368501 413.5547 l
455.366943 410.109434 l
448.219677 406.175083 l
441.094988 401.80747 l
434.168558 397.089004 l
427.6205 392.151164 l
421.62553 387.067173 l
416.353891 381.985812 l
411.964474 377.06568 l
408.591647 372.37234 l
406.358233 368.104921 l
405.351873 364.332701 l
405.637824 361.178065 l
407.251512 358.734492 l
410.198578 357.036286 l
414.456724 356.160633 l
419.984769 356.134869 l
426.703958 356.91882 l
434.533361 358.520628 l
443.360665 360.933723 l
453.058759 364.168735 l
463.468706 368.212132 l
474.402911 373.121375 l
485.643175 378.827779 l
496.947596 385.41214 l
508.047414 392.500835 l
518.670222 400.117265 l
528.538556 408.12732 l
537.374153 416.324232 l
544.907643 424.496845 l
550.883234 432.467186 l
555.070342 439.965514 l
557.25348 446.978841 l
557.266042 453.222249 l
555.004096 458.046778 l
550.345137 462.02515 l
543.300081 464.245389 l
533.865127 465.229336 l
522.161889 464.174698 l
508.318829 461.715443 l
492.578925 457.076556 l
475.213843 450.975188 l
456.579199 442.929214 l
437.07858 433.313554 l
417.164698 422.218202 l
397.327138 409.863171 l
378.081491 396.597539 l
359.954235 382.848802 l
343.421897 368.775539 l
328.962134 355.099665 l
316.939747 342.299916 l
307.615049 331.125448 l
301.060968 322.395214 l
297.110017 316.866906 l
295.312722 314.857342 l
295.034551 316.213492 l
295.519423 320.436976 l
295.988634 326.902288 l
295.669347 334.71112 l
293.884592 340.857405 l
290.769322 341.229028 l
287.260763 339.569983 l
283.686222 337.654777 l
276.6785 333.222616 l
273.415025 330.742194 l
270.435616 328.181149 l
267.837875 325.668184 l
265.70167 323.234236 l
264.091599 320.850504 l
263.072822 318.558514 l
262.714435 316.516118 l
263.072982 314.888267 l
264.155238 313.575766 l
265.972978 312.639287 l
268.531849 312.224579 l
271.793891 312.275562 l
275.711044 312.791446 l
280.232342 313.88653 l
285.268404 315.495438 l
290.71936 317.584294 l
296.479745 320.181543 l
302.42041 323.204509 l
308.407189 326.595247 l
314.303133 330.318428 l
319.964162 334.293728 l
325.245182 338.422106 l
330.007205 342.619653 l
334.114646 346.764143 l
337.448136 350.783025 l
339.895592 354.54784 l
341.36683 357.985139 l
341.784156 360.967008 l
341.100091 363.454584 l
339.278526 365.335976 l
336.313884 366.579019 l
332.217895 367.149285 l
327.028714 366.981792 l
320.806666 366.090345 l
313.631916 364.465356 l
305.606285 362.088243 l
296.857779 358.956584 l
287.54782 355.09098 l
277.848422 350.476068 l
267.969623 345.186564 l
258.139884 339.292125 l
248.60317 332.892847 l
239.611825 326.09126 l
231.436377 319.109936 l
224.317859 312.024743 l
218.476262 304.865467 l
214.21965 298.382848 l
211.661008 292.239364 l
210.991926 286.847381 l
212.321019 282.342286 l
215.658815 278.496173 l
221.159188 276.406692 l
228.642639 275.209885 l
238.098311 275.58492 l
249.359028 277.457896 l
262.20069 280.652093 l
276.416652 285.490755 l
291.685216 291.650939 l
307.687847 299.093337 l
324.080957 307.789889 l
340.478833 317.439235 l
356.506304 327.929004 l
371.785918 339.089412 l
385.919623 350.314729 l
398.590981 361.677784 l
409.477332 372.629674 l
418.335335 382.816788 l
425.002055 391.750585 l
429.434624 398.905115 l
431.740377 403.764382 l
432.187117 405.990783 l
431.17405 405.546836 l
429.200655 402.682357 l
426.812049 397.790807 l
424.580915 391.385235 l
423.05458 384.013165 l
422.73536 376.436889 l
423.95814 370.190374 l
426.663409 366.996215 l
430.550584 366.155738 l
435.426426 366.413808 l
441.194862 367.421637 l
447.762953 369.127214 l
455.022808 371.536931 l
462.842904 374.561599 l
471.08163 378.296957 l
479.568755 382.629068 l
488.120101 387.486341 l
496.541125 392.860152 l
504.624268 398.666038 l
512.159956 404.612627 l
518.93791 410.746823 l
524.752117 416.942396 l
529.407928 423.03944 l
532.733764 428.684592 l
534.565713 433.972182 l
534.777591 438.629792 l
533.267046 442.609282 l
529.977028 445.62441 l
524.892995 447.295199 l
518.012287 448.197491 l
509.419984 447.681793 l
499.226281 445.758137 l
487.589202 442.638767 l
474.722194 438.200566 l
460.879191 432.30807 l
446.356258 425.27147 l
431.484767 417.14791 l
416.621538 408.062065 l
402.145666 398.28696 l
388.435287 387.996943 l
375.856036 377.403883 l
364.779317 367.051174 l
355.48531 357.007075 l
348.244852 347.834466 l
343.215476 339.863378 l
340.454367 333.5092 l
339.898309 329.181075 l
341.330872 327.129763 l
344.410465 327.39518 l
348.710611 329.776758 l
353.768553 333.903483 l
359.118641 339.290654 l
364.351283 345.470851 l
369.102874 351.98256 l
373.076437 358.409522 l
376.041888 364.388305 l
377.846431 369.629691 l
378.409891 373.933942 l
377.702057 377.170916 l
375.755274 379.30783 l
372.630658 380.368688 l
368.418385 380.434177 l
363.224561 379.630554 l
357.159652 378.118872 l
350.325797 376.089645 l
334.644494 371.250477 l
325.859225 368.805167 l
316.416258 366.5308 l
306.240514 364.461656 l
295.226675 362.372793 l
283.298752 359.449718 l
270.580656 354.624191 l
257.441314 347.834585 l
244.344289 339.883724 l
231.685341 331.24763 l
219.814835 322.099699 l
209.092674 312.681744 l
199.863799 303.215642 l
192.447212 293.89797 l
187.172165 285.187521 l
184.230883 276.965909 l
183.856231 269.6757 l
186.270483 264.067672 l
191.397236 259.416269 l
199.35383 256.654872 l
210.048574 255.844519 l
223.257621 256.568728 l
238.843222 259.495147 l
256.493115 264.499063 l
275.812336 271.167857 l
296.459172 279.969335 l
317.940407 290.336333 l
339.796967 302.278512 l
361.519407 315.431778 l
382.610985 329.622471 l
402.573707 344.504885 l
420.931953 359.58166 l
437.265992 374.377229 l
451.245728 388.3148 l
471.591766 410.19996 l
478.271596 416.347829 l
483.239961 418.716848 l
487.162247 417.441266 l
490.848197 412.969479 l
495.105567 406.329541 l
500.008468 404.312059 l
504.484725 408.392925 l
508.226884 412.725849 l
511.107033 416.778842 l
513.006074 420.60146 l
513.822121 424.126811 l
513.477437 427.102704 l
511.914118 429.478509 l
509.099484 431.275518 l
505.034241 432.328614 l
499.74858 432.541924 l
493.305049 431.81613 l
485.797787 430.089231 l
477.352828 427.455531 l
468.12925 423.953449 l
458.315199 419.596299 l
448.12408 414.436618 l
437.790227 408.559823 l
427.562628 402.066991 l
417.702887 395.163885 l
408.466822 387.928896 l
400.107398 380.56891 l
392.870743 373.390656 l
386.953046 366.412711 l
382.548524 360.006667 l
379.785543 354.283022 l
378.751108 349.403538 l
379.497867 345.655183 l
381.994959 343.047163 l
386.182237 341.657856 l
391.946686 341.469998 l
399.159534 342.410722 l
407.677934 344.324456 l
417.370317 347.023339 l
439.868575 353.991119 l
452.545903 358.037443 l
466.090351 362.631319 l
480.34853 368.218686 l
495.031728 375.235229 l
509.771425 383.650646 l
524.189878 393.104862 l
537.917865 403.188942 l
550.588594 413.729795 l
561.837297 424.516778 l
571.31694 435.220531 l
578.696989 445.598578 l
583.678265 455.362808 l
585.970993 464.603577 l
585.431622 472.068206 l
581.814807 478.60402 l
575.064955 483.385027 l
565.162811 486.023007 l
552.131529 486.640758 l
536.101712 485.082162 l
517.289389 481.302748 l
496.013393 474.848026 l
472.653672 466.037278 l
447.691387 455.028705 l
421.681694 441.770165 l
395.24731 426.621903 l
369.062782 409.942811 l
343.829413 392.151905 l
320.244569 373.746339 l
298.959045 355.333191 l
280.552634 337.841231 l
253.758175 310.588994 l
245.212852 303.367036 l
239.100529 301.039908 l
234.454607 303.20174 l
230.142382 308.966314 l
224.817389 312.56759 l
218.742144 306.133617 l
214.066701 299.324042 l
211.081223 292.880544 l
209.993946 287.258618 l
210.919181 282.56712 l
213.893017 278.690344 l
218.966776 275.93653 l
226.162059 274.785641 l
235.298026 274.631647 l
246.340528 276.315736 l
259.016005 279.241025 l
273.129548 283.763584 l
288.386164 289.763987 l
304.448538 297.016366 l
320.981954 305.567541 l
337.602235 315.152421 l
353.925003 325.592285 l
369.568622 336.732516 l
384.144669 348.180913 l
397.293939 359.616111 l
408.71076 370.831885 l
418.120753 381.311233 l
425.346745 390.618146 l
430.324147 398.219971 l
433.13725 403.570277 l
434.033082 406.277266 l
433.403704 406.259744 l
431.745585 403.73375 l
429.60597 399.075866 l
427.572761 392.797158 l
426.206991 385.446281 l
426.030004 377.819227 l
427.379067 371.649259 l
430.148847 368.805115 l
434.004967 368.217308 l
438.767343 368.627821 l
444.345431 369.720362 l
450.64786 371.490524 l
457.56725 373.893826 l
464.97745 376.877593 l
472.740135 380.565874 l
480.686085 384.662561 l
488.650039 389.490938 l
496.436476 394.467551 l
503.857871 399.930716 l
510.714063 405.718814 l
516.812942 411.409933 l
521.963495 417.163932 l
521.963495 417.163932 l
stroke
grestore
0.000 0.000 1.000 setrgbcolor
gsave
554.4 554.4 91.8 79.2 clipbox
260.018809 324.391377 m
257.7653 322.358715 l
255.985739 320.019422 l
254.720893 317.523976 l
254.025726 315.004605 l
253.961912 312.581693 l
254.588804 310.365162 l
255.955222 308.454328 l
258.094421 306.936997 l
261.021766 305.889258 l
264.73517 305.375797 l
269.216854 305.450606 l
274.435707 306.15831 l
280.349393 307.535382 l
286.90523 309.611 l
294.039591 312.407016 l
301.675005 315.936165 l
309.715029 320.197963 l
318.036499 325.171505 l
326.480286 330.805116 l
334.841926 337.004395 l
342.86562 343.621673 l
350.246648 350.451503 l
356.647528 357.236018 l
361.730929 363.680892 l
365.205219 369.479977 l
366.869264 374.345337 l
366.639475 378.038809 l
364.549705 380.399517 l
360.728418 381.360854 l
355.365691 380.952462 l
348.680796 379.287061 l
340.895838 376.534575 l
332.217148 372.887738 l
322.82579 368.526279 l
312.877144 363.590717 l
302.508949 358.175997 l
291.856866 352.34614 l
281.075834 346.15904 l
270.36271 339.687258 l
259.97147 333.027253 l
250.213503 326.297755 l
241.437466 319.631615 l
233.991189 313.16624 l
228.174555 307.036382 l
224.198489 301.369726 l
222.164223 296.284132 l
222.068632 291.885071 l
223.829493 288.263818 l
227.316862 285.496324 l
232.379899 283.643177 l
238.864989 282.750749 l
246.627287 282.853261 l
255.537654 283.975982 l
265.487212 286.139639 l
276.38874 289.365065 l
288.17396 293.67735 l
300.784756 299.107543 l
314.156372 305.688126 l
328.189807 313.437575 l
342.713354 322.32912 l
357.438112 332.246976 l
371.926094 342.947921 l
385.602334 354.057402 l
397.835927 365.106151 l
408.074638 375.576733 l
415.979747 384.938098 l
421.496109 392.685271 l
424.818571 398.404294 l
426.291482 401.852491 l
426.32135 403.022026 l
425.335946 402.15265 l
423.763539 399.677584 l
421.998458 396.123789 l
420.349595 392.011446 l
419.007251 387.778697 l
418.063082 383.737233 l
417.56718 380.067299 l
417.57633 376.85198 l
418.171359 374.126409 l
419.451897 371.914186 l
421.523086 370.242769 l
424.48221 369.14515 l
428.406169 368.656357 l
433.339283 368.808774 l
439.28191 369.627562 l
446.182118 371.126694 l
453.933455 373.306162 l
462.379942 376.150996 l
471.326965 379.631433 l
480.554176 383.703242 l
489.826157 388.307494 l
498.898842 393.369762 l
507.523617 398.800584 l
515.454041 404.498512 l
522.456784 410.354227 l
528.323991 416.252371 l
532.881529 422.06835 l
535.990919 427.66244 l
537.546673 432.87744 l
537.472428 437.543791 l
535.71733 441.491499 l
532.253245 444.56371 l
527.072428 446.62613 l
520.185077 447.570085 l
511.618397 447.309023 l
501.417868 445.771756 l
489.653511 442.895029 l
476.432161 438.619789 l
461.916556 432.895736 l
446.348607 425.699364 l
430.066984 417.066436 l
413.501504 407.130838 l
397.136557 396.154247 l
381.467389 384.530108 l
366.979246 372.754391 l
354.130756 361.36871 l
343.300078 350.899765 l
334.696504 341.824005 l
323.734994 329.315951 l
320.577726 326.159502 l
318.33076 324.849229 l
316.661206 325.001185 l
315.412183 326.18219 l
314.56934 327.999941 l
314.187752 330.15482 l
314.308753 332.450143 l
314.905373 334.774842 l
315.872789 337.076198 l
319.270179 343.610223 l
319.952656 345.546267 l
320.15507 347.259514 l
319.779848 348.676771 l
318.769246 349.731823 l
317.100953 350.373387 l
314.781759 350.56902 l
311.841142 350.305362 l
308.325624 349.585783 l
304.294788 348.42633 l
299.818767 346.851272 l
294.97713 344.889149 l
289.859032 342.570079 l
284.564052 339.924839 l
279.20357 336.985758 l
273.901605 333.789205 l
268.794504 330.378895 l
264.028384 326.809065 l
259.754 323.146472 l
256.119247 319.470369 l
253.260421 315.870397 l
251.294134 312.442655 l
250.310947 309.285146 l
250.372301 306.493355 l
251.510279 304.156806 l
253.729982 302.356743 l
257.013543 301.164975 l
261.325006 300.643798 l
266.614954 300.846542 l
272.824617 301.81875 l
279.888572 303.59915 l
287.735236 306.22055 l
296.284827 309.708994 l
305.443862 314.080636 l
315.095619 319.334658 l
325.087014 325.440818 l
335.212914 332.322455 l
345.201845 339.837889 l
354.710274 347.768054 l
363.33481 355.818058 l
370.650187 363.636018 l
376.271155 370.84435 l
379.920624 377.076528 l
381.475274 382.015591 l
380.968938 385.430969 l
378.560483 387.206335 l
374.48883 387.350588 l
369.032514 385.989821 l
362.477354 383.342311 l
355.090295 379.679878 l
347.100289 375.281715 l
338.690071 370.39155 l
321.139088 359.7975 l
303.271893 348.697137 l
285.868469 337.525291 l
277.659579 332.056447 l
269.998579 326.742536 l
263.073496 321.631566 l
257.078425 316.764677 l
252.198604 312.183901 l
248.593707 307.940403 l
246.382221 304.098901 l
245.631751 300.736412 l
246.358206 297.936831 l
248.532768 295.78391 l
252.093583 294.355004 l
256.957903 293.717174 l
263.032896 293.925976 l
270.224512 295.026808 l
278.442941 297.057939 l
287.604701 300.053649 l
297.629938 304.046095 l
308.434032 309.063508 l
319.912333 315.122048 l
331.917854 322.208336 l
344.23335 330.252742 l
356.54454 339.099453 l
368.428534 348.488013 l
379.376537 358.060028 l
388.862317 367.38966 l
396.443766 376.022133 l
401.85772 383.512203 l
405.060079 389.468488 l
406.195352 393.605239 l
405.530327 395.787753 l
403.396491 396.055298 l
400.154352 394.61322 l
396.166868 391.793728 l
391.768636 387.993272 l
387.232711 383.602807 l
382.753238 378.951461 l
374.434806 369.740507 l
370.770164 365.432333 l
367.552607 361.42112 l
364.877765 357.764065 l
362.841889 354.518851 l
361.534686 351.746169 l
361.031128 349.506918 l
361.382899 347.855652 l
362.611418 346.832679 l
364.70458 346.457742 l
367.61781 346.72734 l
371.278045 347.615564 l
375.588922 349.077082 l
380.43581 351.050022 l
385.690775 353.457736 l
391.21863 356.209404 l
402.570159 362.319889 l
413.65058 368.481269 l
418.977032 371.326064 l
424.189956 373.924729 l
429.360096 376.25701 l
434.58264 378.345435 l
439.960091 380.253543 l
464.26161 388.23975 l
470.922884 390.883686 l
477.568309 393.935332 l
483.98876 397.398903 l
489.956292 401.229258 l
495.247385 405.334108 l
499.663455 409.581619 l
503.045114 413.811755 l
505.278047 417.849629 l
506.290691 421.51949 l
506.04696 424.658031 l
504.538044 427.125467 l
501.776419 428.812745 l
497.792924 429.643871 l
492.636013 429.573942 l
486.372181 428.584287 l
479.086704 426.676856 l
470.884698 423.869182 l
461.892648 420.191102 l
452.259976 415.683367 l
442.160799 410.398406 l
431.794287 404.402537 l
421.383412 397.779831 l
411.172276 390.637619 l
401.424259 383.114888 l
392.420949 375.393027 l
384.455862 367.706185 l
377.814726 360.343796 l
372.743369 353.637142 l
369.414159 347.924593 l
367.903266 343.498405 l
368.188055 340.551047 l
370.169232 339.148741 l
373.704646 339.243639 l
378.630128 340.708573 l
384.757289 343.371867 l
391.857571 347.04161 l
399.647789 351.517985 l
407.791975 356.594341 l
415.928366 362.049727 l
423.718118 367.640509 l
430.90013 373.103764 l
442.994242 382.664698 l
447.970339 386.433198 l
452.38911 389.480074 l
456.380067 391.899779 l
463.403459 395.531363 l
466.462807 397.107721 l
469.162885 398.724034 l
471.435497 400.472958 l
473.21508 402.396943 l
474.443667 404.490621 l
475.067255 406.704248 l
475.03142 408.947792 l
474.280944 411.097349 l
472.764611 413.005922 l
470.442988 414.518315 l
467.295994 415.487999 l
463.328645 415.79248 l
458.573042 415.343771 l
453.087244 414.092748 l
446.951669 412.02738 l
440.264326 409.166641 l
433.1369 405.55215 l
425.69362 401.240089 l
418.07491 396.29609 l
410.445214 390.795862 l
403.001977 384.833175 l
395.979818 378.534226 l
389.644513 372.07369 l
384.274729 365.684222 l
380.135189 359.65007 l
377.448367 354.279331 l
376.370829 349.859088 l
376.979006 346.608896 l
379.269264 344.651921 l
383.17048 344.012705 l
388.558024 344.635306 l
395.258901 346.408229 l
403.049414 349.185941 l
411.655536 352.803471 l
420.766791 357.084467 l
430.06818 361.845404 l
439.284486 366.899444 l
448.222235 372.063339 l
480.542505 391.255605 l
487.958722 395.611636 l
495.06843 399.98495 l
501.70508 404.500114 l
507.639453 409.233204 l
512.637427 414.190255 l
516.506113 419.302937 l
519.108967 424.434202 l
520.358599 429.391632 l
520.202619 433.950089 l
518.611969 437.881904 l
515.576309 440.986178 l
511.1046 443.10791 l
505.2266 444.143022 l
497.992801 444.031787 l
489.473081 442.746259 l
479.755886 440.277005 l
468.949842 436.623443 l
457.188889 431.790453 l
444.640999 425.793734 l
431.518022 418.67412 l
418.079757 410.517481 l
404.627038 401.473565 l
391.488787 391.765324 l
379.015554 381.687394 l
367.574004 371.595063 l
357.516624 361.885762 l
349.117554 352.975519 l
342.500558 345.269243 l
331.865387 331.992157 l
330.403231 330.848163 l
329.56096 330.960576 l
329.223652 332.004773 l
329.349752 333.680487 l
329.924578 335.748745 l
330.912071 338.044333 l
332.22645 340.466934 l
335.255271 345.478183 l
336.613434 347.973951 l
337.626943 350.374031 l
338.140064 352.585949 l
338.031793 354.508859 l
337.221251 356.049102 l
335.667037 357.133133 l
333.362176 357.714868 l
330.326984 357.776965 l
326.601354 357.327277 l
322.238373 356.392333 l
317.299597 355.009578 l
311.852053 353.21991 l
305.966865 351.061591 l
299.719211 348.566296 l
293.189903 345.757754 l
286.468612 342.653017 l
279.658199 339.266034 l
272.879443 335.612927 l
266.274031 331.717964 l
260.004403 327.619126 l
254.248437 323.372149 l
249.189526 319.051783 l
245.003385 314.749926 l
241.844295 310.571132 l
239.834408 306.626482 l
239.057369 303.027454 l
239.557523 299.880602 l
241.3429 297.283875 l
244.391193 295.324378 l
248.656906 294.07745 l
254.078916 293.60707 l
260.587107 293.967069 l
268.10806 295.203278 l
276.568492 297.355816 l
285.896118 300.461146 l
296.016601 304.552383 l
306.84544 309.656263 l
318.27383 315.78421 l
330.14805 322.914778 l
342.244001 330.967886 l
354.243618 339.776665 l
365.725996 349.070673 l
376.190622 358.483962 l
385.123042 367.587261 l
392.091684 375.929295 l
396.838553 383.077662 l
399.317592 388.662478 l
399.666032 392.423509 l
398.141378 394.248261 l
395.065846 394.188201 l
390.790276 392.447893 l
385.666736 389.347975 l
380.01818 385.267593 l
374.108811 380.579663 l
362.213512 370.549868 l
345.731607 356.236603 l
336.597477 348.055712 l
329.589301 341.469557 l
325.000445 336.789058 l
323.620297 335.17901 l
322.827629 334.026235 l
322.602672 333.298888 l
322.929081 332.969305 l
323.794322 333.020204 l
325.18628 333.446209 l
327.087771 334.250943 l
329.470681 335.441593 l
332.291117 337.022615 l
335.486219 338.989724 l
338.972783 341.324992 l
342.647332 343.993272 l
346.388146 346.940037 l
350.059008 350.091004 l
353.515372 353.353709 l
356.612802 356.621213 l
359.217381 359.777871 l
361.216316 362.706705 l
362.526815 365.29776 l
363.101316 367.456399 l
362.927924 369.110505 l
362.026493 370.215339 l
360.441516 370.755193 l
358.233465 370.741454 l
355.470215 370.207566 l
352.219634 369.201833 l
348.544196 367.779455 l
344.497808 365.995226 l
340.125014 363.89803 l
330.539015 358.914787 l
320.02592 353.046262 l
308.852517 346.439014 l
297.441029 339.268817 l
291.844917 335.54779 l
286.463275 331.784802 l
281.423484 328.021204 l
276.866952 324.303421 l
272.943228 320.685313 l
269.801744 317.230447 l
267.581197 314.013181 l
266.398428 311.117774 l
266.33962 308.635405 l
267.455632 306.659358 l
269.76215 305.279982 l
273.243732 304.580343 l
277.860371 304.633321 l
283.554056 305.50073 l
290.254323 307.233569 l
297.8806 309.872676 l
306.340687 313.447857 l
315.524363 317.973721 l
325.291774 323.440482 l
335.457332 329.798751 l
345.772426 336.94032 l
355.913002 344.681504 l
365.48287 352.757731 l
374.043187 360.835751 l
381.170986 368.540496 l
386.532753 375.489061 l
389.944077 381.327415 l
391.387774 385.768958 l
390.988853 388.629706 l
388.969118 389.850807 l
385.604237 389.502204 l
381.190372 387.766869 l
376.016676 384.907911 l
370.340634 381.223845 l
364.370326 377.002048 l
352.122356 367.843826 l
328.806603 349.938293 l
310.38943 335.482061 l
303.968812 330.18657 l
301.572589 328.022104 l
299.766951 326.163061 l
298.594513 324.607631 l
298.099761 323.368864 l
298.323088 322.474704 l
299.294111 321.964674 l
301.026373 321.884737 l
303.514251 322.281994 l
306.731697 323.19973 l
310.632109 324.67339 l
315.148358 326.726933 l
320.191769 329.369104 l
325.650174 332.58883 l
331.384886 336.350121 l
337.228042 340.586554 l
342.981833 345.196996 l
348.422164 350.044211 l
353.309165 354.957922 l
357.404975 359.74337 l
360.497282 364.194424 l
362.422803 368.110532 l
363.084265 371.314783 l
362.455859 373.670771 l
360.576811 375.094826 l
357.536512 375.561137 l
353.456217 375.098857 l
348.471136 373.781769 l
342.715607 371.712389 l
336.312738 369.003579 l
329.36897 365.761357 l
321.973766 362.072792 l
314.20385 358.001829 l
306.131197 353.59333 l
297.834448 348.882566 l
289.411816 343.90623 l
280.993237 338.710963 l
272.748243 333.357246 l
264.886645 327.919069 l
257.650294 322.481058 l
251.295896 317.135849 l
246.070908 311.98275 l
242.187628 307.127138 l
239.801426 302.678805 l
238.999867 298.748606 l
239.803919 295.443351 l
242.179494 292.86051 l
246.053083 291.084259 l
251.327771 290.183511 l
257.896891 290.212642 l
265.654332 291.214262 l
274.501714 293.223367 l
284.351149 296.27164 l
295.123283 300.39055 l
306.738423 305.610709 l
319.100022 311.954373 l
332.068829 319.417012 l
345.429294 327.936709 l
358.855441 337.357673 l
371.89395 347.405809 l
383.989513 357.696251 l
394.566333 367.769919 l
403.148079 377.136064 l
409.466941 385.3097 l
413.505332 391.85657 l
415.452137 396.452274 l
415.619496 398.940227 l
414.377729 399.365818 l
412.121519 397.970832 l
409.246217 395.144308 l
406.114102 391.343689 l
403.013356 387.012219 l
400.136207 382.515402 l
397.597018 378.110661 l
395.476359 373.954228 l
393.858646 370.134317 l
392.846786 366.708109 l
392.559003 363.726212 l
393.118795 361.242788 l
394.643869 359.316826 l
397.234518 358.008661 l
400.960834 357.373561 l
405.849929 357.453477 l
411.876175 358.26923 l
418.957711 359.814998 l
426.961558 362.05701 l
435.717827 364.936829 l
445.041084 368.37877 l
454.753934 372.300081 l
464.705655 376.62232 l
474.777191 381.282596 l
484.866452 386.241898 l
494.854993 391.485964 l
504.568553 397.015499 l
513.75517 402.827235 l
522.101426 408.893966 l
529.28274 415.149435 l
535.018106 421.479994 l
539.101755 427.722588 l
541.407622 433.671157 l
541.874134 439.094174 l
540.481687 443.760852 l
537.233725 447.46726 l
532.146864 450.052316 l
525.248472 451.400394 l
516.577732 451.433503 l
506.188774 450.09793 l
494.156371 447.350725 l
480.586793 443.149608 l
465.63531 437.451485 l
449.531067 430.225988 l
432.602405 421.488628 l
415.282834 411.347637 l
398.07854 400.046999 l
381.513901 387.982503 l
366.098597 375.675439 l
352.312905 363.705926 l
340.560602 352.633984 l
331.079037 342.95293 l
318.546194 329.287931 l
314.644241 325.630506 l
311.60049 323.880301 l
309.031677 323.624368 l
306.760618 324.384008 l
304.783667 325.721232 l
303.192433 327.301976 l
302.081377 328.909797 l
301.48379 330.427558 l
301.356262 331.809501 l
301.597738 333.053781 l
302.078202 334.177626 l
303.942544 337.638114 l
303.973441 338.202762 l
303.751765 338.619276 l
303.274268 338.880006 l
302.550099 338.983434 l
301.596126 338.933402 l
299.085173 338.4054 l
295.925229 337.371806 l
292.302876 335.8995 l
288.412566 334.032177 l
284.479945 331.804789 l
280.784333 329.274965 l
279.129353 327.929126 l
277.664535 326.555785 l
276.438098 325.180976 l
275.49788 323.835479 l
274.889438 322.554294 l
274.654185 321.375573 l
274.827373 320.339559 l
275.4366 319.487312 l
276.500422 318.859286 l
278.027398 318.494162 l
280.015523 318.427517 l
282.451786 318.690764 l
285.312061 319.310025 l
288.560875 320.305114 l
292.151116 321.688328 l
296.023524 323.463209 l
300.105939 325.622846 l
304.312475 328.14809 l
308.542561 331.005385 l
312.68052 334.144719 l
316.595882 337.49789 l
320.145246 340.977764 l
323.17615 344.479121 l
325.533287 347.881507 l
327.067193 351.054265 l
327.644478 353.863605 l
327.158057 356.18082 l
325.535798 357.890572 l
322.745575 358.897906 l
318.796232 359.132618 l
313.734934 358.550337 l
307.6429 357.130427 l
300.631794 354.872087 l
292.843007 351.790961 l
284.451128 347.918656 l
275.670806 343.306784 l
266.764613 338.034705 l
258.046156 332.218291 l
249.872717 326.014779 l
242.621705 319.619955 l
236.65298 313.255644 l
232.265246 307.150294 l
229.661837 301.518795 l
228.937072 296.54718 l
230.085728 292.385015 l
233.027702 289.144865 l
237.637017 286.906142 l
243.767222 285.721522 l
251.270262 285.624126 l
260.008928 286.634672 l
269.864064 288.768197 l
280.736536 292.039905 l
292.544146 296.469063 l
305.210897 302.079143 l
318.647496 308.890485 l
332.720711 316.900394 l
347.212556 326.047819 l
361.778147 336.169054 l
375.924587 346.967771 l
389.043706 358.025489 l
400.513342 368.846673 l
409.838963 378.903638 l
416.774055 387.670734 l
421.355253 394.67059 l
423.836322 399.544634 l
424.584283 402.128238 l
424.009888 402.49797 l
422.539688 400.962557 l
420.59448 397.992318 l
418.548161 394.116802 l
416.677379 389.831098 l
415.142705 385.529816 l
414.023036 381.475786 l
413.373268 377.810854 l
413.26349 374.598801 l
413.788264 371.871626 l
415.057961 369.657899 l
417.185096 367.992106 l
420.27113 366.913776 l
424.393614 366.463231 l
429.593245 366.676317 l
435.862219 367.579184 l
443.136808 369.183991 l
451.297271 371.486658 l
460.175991 374.467044 l
469.571301 378.090847 l
479.261839 382.3116 l
489.015906 387.071229 l
498.59345 392.299219 l
507.74425 397.911638 l
516.210167 403.812317 l
523.736556 409.895935 l
530.09 416.048964 l
535.073387 422.145624 l
538.532275 428.040735 l
540.353735 433.566491 l
540.461019 438.538881 l
538.807389 442.772492 l
535.37067 446.09736 l
530.148943 448.370525 l
523.157327 449.479218 l
514.426133 449.336526 l
504.001951 447.87249 l
491.953686 445.024931 l
478.385535 440.733697 l
463.457387 434.943712 l
447.411113 427.623248 l
430.592527 418.798946 l
413.449268 408.600499 l
396.492021 397.296595 l
380.243329 385.302596 l
365.210822 373.147839 l
351.869849 361.408143 l
340.608829 350.633043 l
331.637708 341.307231 l
320.057706 328.468063 l
316.576595 325.216854 l
313.947515 323.831141 l
311.821733 323.895399 l
310.04623 324.946426 l
308.625203 326.570694 l
307.639937 328.458345 l
307.159463 330.411094 l
307.183711 332.322081 l
307.634553 334.147725 l
308.377817 335.879732 l
310.763202 340.483617 l
311.135657 341.748595 l
311.129819 342.814386 l
310.694397 343.640269 l
309.806527 344.19337 l
308.466174 344.451777 l
306.690572 344.40522 l
304.509556 344.053836 l
301.962111 343.405894 l
299.094067 342.475266 l
295.956832 341.279013 l
292.606947 339.835665 l
289.106223 338.164301 l
285.522174 336.284684 l
281.92852 334.218194 l
278.405547 331.98937 l
275.039608 329.627776 l
271.922019 327.16957 l
269.146737 324.658666 l
266.807046 322.146873 l
264.991738 319.693144 l
263.780885 317.36203 l
263.242274 315.22142 l
263.428447 313.340139 l
264.37518 311.785644 l
266.100664 310.621966 l
268.606236 309.90815 l
271.877469 309.697247 l
275.885738 310.035537 l
280.589491 310.962197 l
285.93512 312.50873 l
291.856692 314.698124 l
298.274404 317.543111 l
305.09149 321.042983 l
312.189501 325.178801 l
319.422673 329.906521 l
326.612094 335.149033 l
333.542007 340.78867 l
339.960739 346.662988 l
345.589526 352.566546 l
350.141725 358.260514 l
353.351668 363.489657 l
355.007528 368.004626 l
354.978832 371.586273 l
353.229082 374.06799 l
349.810191 375.351519 l
344.84277 375.412455 l
338.490486 374.293922 l
330.935978 372.089658 l
322.363247 368.919871 l
312.948825 364.905817 l
302.862238 360.151513 l
292.275104 354.740169 l
281.378012 348.746225 l
270.40169 342.255128 l
259.635534 335.379903 l
249.432873 328.267878 l
240.194259 321.096238 l
232.325922 314.058872 l
226.182492 307.349585 l
222.013553 301.147182 l
219.935469 295.605673 l
219.938019 290.850235 l
221.917082 286.977877 l
225.715092 284.060462 l
231.15451 282.149081 l
238.059699 281.278443 l
246.269316 281.471299 l
255.643398 282.742873 l
266.067045 285.10588 l
277.450818 288.575275 l
289.726601 293.172627 l
302.837131 298.926962 l
316.716041 305.869012 l
331.256427 314.012772 l
346.267398 323.319732 l
361.426665 333.650976 l
376.25193 344.730666 l
390.128053 356.15131 l
402.409324 367.418486 l
412.567649 377.996544 l
420.323914 387.340069 l
425.697766 394.937627 l
428.948277 400.385802 l
430.461234 403.477708 l
430.666562 404.266711 l
430.004991 403.065164 l
428.906266 400.366934 l
427.746168 396.732769 l
426.792071 392.691271 l
426.183968 388.670274 l
425.974965 384.957578 l
426.194426 381.703983 l
426.887248 378.966258 l
428.121087 376.759647 l
429.97659 375.09208 l
432.534013 373.97613 l
435.861097 373.428505 l
440.002439 373.465986 l
444.969684 374.101516 l
450.733486 375.341012 l
457.218953 377.180846 l
464.306265 379.60598 l
471.836623 382.588724 l
479.621801 386.087914 l
487.455201 390.048569 l
495.122334 394.402229 l
502.410246 399.068462 l
509.115849 403.957712 l
515.053566 408.974446 l
520.060168 414.018634 l
523.996537 418.984698 l
526.746264 423.758829 l
528.213206 428.217176 l
528.319721 432.227884 l
527.005978 435.656333 l
524.230321 438.372772 l
519.96937 440.258938 l
514.218257 441.212029 l
506.990951 441.145303 l
498.322058 439.985999 l
488.271047 437.672522 l
476.930288 434.153119 l
464.436794 429.388915 l
450.986175 423.36434 l
436.843846 416.10537 l
422.343843 407.70242 l
407.86952 398.32979 l
393.826175 388.253459 l
380.624858 377.823721 l
368.674719 367.454213 l
358.355088 357.591884 l
349.954094 348.686348 l
343.596987 341.159393 l
339.201299 335.351619 l
334.765226 329.014038 l
335.190225 329.985824 l
336.277334 331.985762 l
337.968687 334.720822 l
340.213011 337.962295 l
348.864933 349.32592 l
351.584698 353.320777 l
353.740455 357.214086 l
355.069319 360.831374 l
355.369356 363.979861 l
354.515203 366.478912 l
352.457723 368.189212 l
349.210785 369.030795 l
344.831701 368.986657 l
339.40195 368.093659 l
333.013323 366.425386 l
325.76111 364.072461 l
317.744221 361.124829 l
309.069603 357.659332 l
299.858303 353.734413 l
290.251979 349.392135 l
280.420044 344.66643 l
270.567159 339.594719 l
260.938041 334.22916 l
251.813247 328.644153 l
243.491995 322.937647 l
236.26433 317.226934 l
230.3797 311.640304 l
226.022281 306.307879 l
223.299318 301.353737 l
222.244931 296.89085 l
222.834 293.019029 l
225.000055 289.824778 l
228.651252 287.382043 l
233.68284 285.753096 l
239.986132 284.989798 l
247.455518 285.134958 l
255.993329 286.224628 l
265.513631 288.290954 l
275.943391 291.36536 l
287.220531 295.481375 l
299.286737 300.674956 l
312.073178 306.979733 l
325.477015 314.412508 l
325.477015 314.412508 l
stroke
grestore
0.000 setgray
/DejaVuSans 21.600 selectfont
gsave

193.750000 639.600000 translate
0.000000 rotate
0.000000 0 m /P glyphshow
12.665466 0 m /r glyphshow
21.056213 0 m /e glyphshow
34.360657 0 m /d glyphshow
48.087463 0 m /i glyphshow
54.095581 0 m /c glyphshow
65.985107 0 m /t glyphshow
74.464050 0 m /e glyphshow
87.768494 0 m /d glyphshow
101.495300 0 m /space glyphshow
108.369263 0 m /D glyphshow
125.020935 0 m /o glyphshow
138.251465 0 m /u glyphshow
151.957153 0 m /b glyphshow
165.683960 0 m /l glyphshow
171.692078 0 m /e glyphshow
184.996521 0 m /space glyphshow
191.870483 0 m /s glyphshow
203.137024 0 m /c glyphshow
215.026550 0 m /r glyphshow
223.417297 0 m /o glyphshow
236.647827 0 m /l glyphshow
242.655945 0 m /l glyphshow
248.664062 0 m /space glyphshow
255.538025 0 m /a glyphshow
268.789673 0 m /t glyphshow
277.268616 0 m /t glyphshow
285.747559 0 m /r glyphshow
294.638306 0 m /a glyphshow
307.889954 0 m /c glyphshow
319.779480 0 m /t glyphshow
328.258423 0 m /o glyphshow
341.488953 0 m /r glyphshow
grestore
0 setlinejoin
0 setlinecap
0.800 setgray
gsave
491.53125 566.35625 m
633.6 566.35625 l
636 566.35625 637.2 567.55625 637.2 569.95625 c
637.2 621 l
637.2 623.4 636 624.6 633.6 624.6 c
491.53125 624.6 l
489.13125 624.6 487.93125 623.4 487.93125 621 c
487.93125 569.95625 l
487.93125 567.55625 489.13125 566.35625 491.53125 566.35625 c
cl
gsave
1.000 setgray
fill
grestore
stroke
grestore
1 setlinejoin
2 setlinecap
1.000 0.000 0.000 setrgbcolor
gsave
495.13125 610.028125 m
513.13125 610.028125 l
531.13125 610.028125 l
stroke
grestore
0.000 setgray
/DejaVuSans 18.000 selectfont
gsave

545.531250 603.728125 translate
0.000000 rotate
0.000000 0 m /A glyphshow
11.938477 0 m /c glyphshow
21.834961 0 m /t glyphshow
28.892578 0 m /u glyphshow
40.300781 0 m /a glyphshow
51.331055 0 m /l glyphshow
grestore
0.000 0.000 1.000 setrgbcolor
gsave
495.13125 583.60625 m
513.13125 583.60625 l
531.13125 583.60625 l
stroke
grestore
0.000 setgray
gsave

545.531250 577.306250 translate
0.000000 rotate
0.000000 0 m /P glyphshow
10.479492 0 m /r glyphshow
17.504883 0 m /e glyphshow
28.579102 0 m /d glyphshow
40.004883 0 m /i glyphshow
45.005859 0 m /c glyphshow
54.902344 0 m /t glyphshow
61.959961 0 m /e glyphshow
73.034180 0 m /d glyphshow
grestore

end
showpage
