%!PS-Adobe-3.0 EPSF-3.0
%%Title: Mackey_Glass_Pytorch_100_basic_accuracy.eps
%%Creator: Matplotlib v3.5.1, https://matplotlib.org/
%%CreationDate: Wed Oct  4 14:53:48 2023
%%Orientation: portrait
%%BoundingBox: -54 288 666 504
%%HiResBoundingBox: -54.000000 288.000000 666.000000 504.000000
%%EndComments
%%BeginProlog
/mpldict 12 dict def
mpldict begin
/_d { bind def } bind def
/m { moveto } _d
/l { lineto } _d
/r { rlineto } _d
/c { curveto } _d
/cl { closepath } _d
/ce { closepath eofill } _d
/box {
      m
      1 index 0 r
      0 exch r
      neg 0 r
      cl
    } _d
/clipbox {
      box
      clip
      newpath
    } _d
/sc { setcachedevice } _d
%!PS-Adobe-3.0 Resource-Font
%%Creator: Converted from TrueType to Type 3 by Matplotlib.
10 dict begin
/FontName /DejaVuSans def
/PaintType 0 def
/FontMatrix [0.00048828125 0 0 0.00048828125 0 0] def
/FontBBox [-2090 -948 3673 2524] def
/FontType 3 def
/Encoding [/minus /space /period /zero /one /two /three /four /five /colon /A /G /M /P /R /T /underscore /a /c /d /e /h /i /k /l /m /n /o /p /r /s /t /u /y] def
/CharStrings 35 dict dup begin
/.notdef 0 def
/minus{1716 0 217 557 1499 727 sc
217 727 m
1499 727 l
1499 557 l
217 557 l
217 727 l

ce} _d
/space{651 0 0 0 0 0 sc
ce} _d
/period{651 0 219 0 430 254 sc
219 254 m
430 254 l
430 0 l
219 0 l
219 254 l

ce} _d
/zero{1303 0 135 -29 1167 1520 sc
651 1360 m
547 1360 469 1309 416 1206 c
364 1104 338 950 338 745 c
338 540 364 387 416 284 c
469 182 547 131 651 131 c
756 131 834 182 886 284 c
939 387 965 540 965 745 c
965 950 939 1104 886 1206 c
834 1309 756 1360 651 1360 c

651 1520 m
818 1520 946 1454 1034 1321 c
1123 1189 1167 997 1167 745 c
1167 494 1123 302 1034 169 c
946 37 818 -29 651 -29 c
484 -29 356 37 267 169 c
179 302 135 494 135 745 c
135 997 179 1189 267 1321 c
356 1454 484 1520 651 1520 c

ce} _d
/one{1303 0 225 0 1114 1493 sc
254 170 m
584 170 l
584 1309 l
225 1237 l
225 1421 l
582 1493 l
784 1493 l
784 170 l
1114 170 l
1114 0 l
254 0 l
254 170 l

ce} _d
/two{1303 0 150 0 1098 1520 sc
393 170 m
1098 170 l
1098 0 l
150 0 l
150 170 l
227 249 331 356 463 489 c
596 623 679 709 713 748 c
778 821 823 882 848 932 c
874 983 887 1032 887 1081 c
887 1160 859 1225 803 1275 c
748 1325 675 1350 586 1350 c
523 1350 456 1339 385 1317 c
315 1295 240 1262 160 1217 c
160 1421 l
241 1454 317 1478 388 1495 c
459 1512 523 1520 582 1520 c
737 1520 860 1481 952 1404 c
1044 1327 1090 1223 1090 1094 c
1090 1033 1078 974 1055 919 c
1032 864 991 800 930 725 c
913 706 860 650 771 557 c
682 465 556 336 393 170 c

ce} _d
/three{1303 0 156 -29 1139 1520 sc
831 805 m
928 784 1003 741 1057 676 c
1112 611 1139 530 1139 434 c
1139 287 1088 173 987 92 c
886 11 742 -29 555 -29 c
492 -29 428 -23 361 -10 c
295 2 227 20 156 45 c
156 240 l
212 207 273 183 340 166 c
407 149 476 141 549 141 c
676 141 772 166 838 216 c
905 266 938 339 938 434 c
938 522 907 591 845 640 c
784 690 698 715 588 715 c
414 715 l
414 881 l
596 881 l
695 881 771 901 824 940 c
877 980 903 1037 903 1112 c
903 1189 876 1247 821 1288 c
767 1329 689 1350 588 1350 c
533 1350 473 1344 410 1332 c
347 1320 277 1301 201 1276 c
201 1456 l
278 1477 349 1493 416 1504 c
483 1515 547 1520 606 1520 c
759 1520 881 1485 970 1415 c
1059 1346 1104 1252 1104 1133 c
1104 1050 1080 980 1033 923 c
986 866 918 827 831 805 c

ce} _d
/four{1303 0 100 0 1188 1493 sc
774 1317 m
264 520 l
774 520 l
774 1317 l

721 1493 m
975 1493 l
975 520 l
1188 520 l
1188 352 l
975 352 l
975 0 l
774 0 l
774 352 l
100 352 l
100 547 l
721 1493 l

ce} _d
/five{1303 0 158 -29 1124 1493 sc
221 1493 m
1014 1493 l
1014 1323 l
406 1323 l
406 957 l
435 967 465 974 494 979 c
523 984 553 987 582 987 c
749 987 881 941 978 850 c
1075 759 1124 635 1124 479 c
1124 318 1074 193 974 104 c
874 15 733 -29 551 -29 c
488 -29 424 -24 359 -13 c
294 -2 227 14 158 35 c
158 238 l
218 205 280 181 344 165 c
408 149 476 141 547 141 c
662 141 754 171 821 232 c
888 293 922 375 922 479 c
922 583 888 665 821 726 c
754 787 662 817 547 817 c
493 817 439 811 385 799 c
332 787 277 768 221 743 c
221 1493 l

ce} _d
/colon{690 0 240 0 451 1059 sc
240 254 m
451 254 l
451 0 l
240 0 l
240 254 l

240 1059 m
451 1059 l
451 805 l
240 805 l
240 1059 l

ce} _d
/A{1401 0 16 0 1384 1493 sc
700 1294 m
426 551 l
975 551 l
700 1294 l

586 1493 m
815 1493 l
1384 0 l
1174 0 l
1038 383 l
365 383 l
229 0 l
16 0 l
586 1493 l

ce} _d
/G{1587 0 115 -29 1419 1520 sc
1219 213 m
1219 614 l
889 614 l
889 780 l
1419 780 l
1419 139 l
1341 84 1255 42 1161 13 c
1067 -15 967 -29 860 -29 c
627 -29 444 39 312 175 c
181 312 115 502 115 745 c
115 989 181 1179 312 1315 c
444 1452 627 1520 860 1520 c
957 1520 1050 1508 1137 1484 c
1225 1460 1306 1425 1380 1378 c
1380 1163 l
1305 1226 1226 1274 1142 1306 c
1058 1338 970 1354 877 1354 c
694 1354 557 1303 465 1201 c
374 1099 328 947 328 745 c
328 544 374 392 465 290 c
557 188 694 137 877 137 c
948 137 1012 143 1068 155 c
1124 168 1174 187 1219 213 c

ce} _d
/M{1767 0 201 0 1567 1493 sc
201 1493 m
502 1493 l
883 477 l
1266 1493 l
1567 1493 l
1567 0 l
1370 0 l
1370 1311 l
985 287 l
782 287 l
397 1311 l
397 0 l
201 0 l
201 1493 l

ce} _d
/P{1235 0 201 0 1165 1493 sc
403 1327 m
403 766 l
657 766 l
751 766 824 790 875 839 c
926 888 952 957 952 1047 c
952 1136 926 1205 875 1254 c
824 1303 751 1327 657 1327 c
403 1327 l

201 1493 m
657 1493 l
824 1493 951 1455 1036 1379 c
1122 1304 1165 1193 1165 1047 c
1165 900 1122 788 1036 713 c
951 638 824 600 657 600 c
403 600 l
403 0 l
201 0 l
201 1493 l

ce} _d
/R{1423 0 201 0 1364 1493 sc
909 700 m
952 685 994 654 1035 606 c
1076 558 1118 492 1159 408 c
1364 0 l
1147 0 l
956 383 l
907 483 859 549 812 582 c
766 615 703 631 623 631 c
403 631 l
403 0 l
201 0 l
201 1493 l
657 1493 l
828 1493 955 1457 1039 1386 c
1123 1315 1165 1207 1165 1063 c
1165 969 1143 891 1099 829 c
1056 767 992 724 909 700 c

403 1327 m
403 797 l
657 797 l
754 797 828 819 877 864 c
927 909 952 976 952 1063 c
952 1150 927 1216 877 1260 c
828 1305 754 1327 657 1327 c
403 1327 l

ce} _d
/T{1251 0 -6 0 1257 1493 sc
-6 1493 m
1257 1493 l
1257 1323 l
727 1323 l
727 0 l
524 0 l
524 1323 l
-6 1323 l
-6 1493 l

ce} _d
/underscore{1024 0 -20 -483 1044 -340 sc
1044 -340 m
1044 -483 l
-20 -483 l
-20 -340 l
1044 -340 l

ce} _d
/a{1255 0 123 -29 1069 1147 sc
702 563 m
553 563 450 546 393 512 c
336 478 307 420 307 338 c
307 273 328 221 371 182 c
414 144 473 125 547 125 c
649 125 731 161 792 233 c
854 306 885 402 885 522 c
885 563 l
702 563 l

1069 639 m
1069 0 l
885 0 l
885 170 l
843 102 791 52 728 19 c
665 -13 589 -29 498 -29 c
383 -29 292 3 224 67 c
157 132 123 218 123 326 c
123 452 165 547 249 611 c
334 675 460 707 627 707 c
885 707 l
885 725 l
885 810 857 875 801 921 c
746 968 668 991 567 991 c
503 991 441 983 380 968 c
319 953 261 930 205 899 c
205 1069 l
272 1095 338 1114 401 1127 c
464 1140 526 1147 586 1147 c
748 1147 869 1105 949 1021 c
1029 937 1069 810 1069 639 c

ce} _d
/c{1126 0 113 -29 999 1147 sc
999 1077 m
999 905 l
947 934 895 955 842 969 c
790 984 737 991 684 991 c
565 991 472 953 406 877 c
340 802 307 696 307 559 c
307 422 340 316 406 240 c
472 165 565 127 684 127 c
737 127 790 134 842 148 c
895 163 947 184 999 213 c
999 43 l
948 19 894 1 839 -11 c
784 -23 726 -29 664 -29 c
495 -29 361 24 262 130 c
163 236 113 379 113 559 c
113 742 163 885 263 990 c
364 1095 501 1147 676 1147 c
733 1147 788 1141 842 1129 c
896 1118 948 1100 999 1077 c

ce} _d
/d{1300 0 113 -29 1114 1556 sc
930 950 m
930 1556 l
1114 1556 l
1114 0 l
930 0 l
930 168 l
891 101 842 52 783 19 c
724 -13 654 -29 571 -29 c
436 -29 325 25 240 133 c
155 241 113 383 113 559 c
113 735 155 877 240 985 c
325 1093 436 1147 571 1147 c
654 1147 724 1131 783 1098 c
842 1066 891 1017 930 950 c

303 559 m
303 424 331 317 386 240 c
442 163 519 125 616 125 c
713 125 790 163 846 240 c
902 317 930 424 930 559 c
930 694 902 800 846 877 c
790 954 713 993 616 993 c
519 993 442 954 386 877 c
331 800 303 694 303 559 c

ce} _d
/e{1260 0 113 -29 1151 1147 sc
1151 606 m
1151 516 l
305 516 l
313 389 351 293 419 226 c
488 160 583 127 705 127 c
776 127 844 136 910 153 c
977 170 1043 196 1108 231 c
1108 57 l
1042 29 974 8 905 -7 c
836 -22 765 -29 694 -29 c
515 -29 374 23 269 127 c
165 231 113 372 113 549 c
113 732 162 878 261 985 c
360 1093 494 1147 662 1147 c
813 1147 932 1098 1019 1001 c
1107 904 1151 773 1151 606 c

967 660 m
966 761 937 841 882 901 c
827 961 755 991 664 991 c
561 991 479 962 417 904 c
356 846 320 764 311 659 c
967 660 l

ce} _d
/h{1298 0 186 0 1124 1556 sc
1124 676 m
1124 0 l
940 0 l
940 670 l
940 776 919 855 878 908 c
837 961 775 987 692 987 c
593 987 514 955 457 892 c
400 829 371 742 371 633 c
371 0 l
186 0 l
186 1556 l
371 1556 l
371 946 l
415 1013 467 1064 526 1097 c
586 1130 655 1147 733 1147 c
862 1147 959 1107 1025 1027 c
1091 948 1124 831 1124 676 c

ce} _d
/i{569 0 193 0 377 1556 sc
193 1120 m
377 1120 l
377 0 l
193 0 l
193 1120 l

193 1556 m
377 1556 l
377 1323 l
193 1323 l
193 1556 l

ce} _d
/k{1186 0 186 0 1180 1556 sc
186 1556 m
371 1556 l
371 637 l
920 1120 l
1155 1120 l
561 596 l
1180 0 l
940 0 l
371 547 l
371 0 l
186 0 l
186 1556 l

ce} _d
/l{569 0 193 0 377 1556 sc
193 1556 m
377 1556 l
377 0 l
193 0 l
193 1556 l

ce} _d
/m{1995 0 186 0 1821 1147 sc
1065 905 m
1111 988 1166 1049 1230 1088 c
1294 1127 1369 1147 1456 1147 c
1573 1147 1663 1106 1726 1024 c
1789 943 1821 827 1821 676 c
1821 0 l
1636 0 l
1636 670 l
1636 777 1617 857 1579 909 c
1541 961 1483 987 1405 987 c
1310 987 1234 955 1179 892 c
1124 829 1096 742 1096 633 c
1096 0 l
911 0 l
911 670 l
911 778 892 858 854 909 c
816 961 757 987 678 987 c
584 987 509 955 454 891 c
399 828 371 742 371 633 c
371 0 l
186 0 l
186 1120 l
371 1120 l
371 946 l
413 1015 463 1065 522 1098 c
581 1131 650 1147 731 1147 c
812 1147 881 1126 938 1085 c
995 1044 1038 984 1065 905 c

ce} _d
/n{1298 0 186 0 1124 1147 sc
1124 676 m
1124 0 l
940 0 l
940 670 l
940 776 919 855 878 908 c
837 961 775 987 692 987 c
593 987 514 955 457 892 c
400 829 371 742 371 633 c
371 0 l
186 0 l
186 1120 l
371 1120 l
371 946 l
415 1013 467 1064 526 1097 c
586 1130 655 1147 733 1147 c
862 1147 959 1107 1025 1027 c
1091 948 1124 831 1124 676 c

ce} _d
/o{1253 0 113 -29 1141 1147 sc
627 991 m
528 991 450 952 393 875 c
336 798 307 693 307 559 c
307 425 335 319 392 242 c
449 165 528 127 627 127 c
725 127 803 166 860 243 c
917 320 946 426 946 559 c
946 692 917 797 860 874 c
803 952 725 991 627 991 c

627 1147 m
787 1147 913 1095 1004 991 c
1095 887 1141 743 1141 559 c
1141 376 1095 232 1004 127 c
913 23 787 -29 627 -29 c
466 -29 340 23 249 127 c
158 232 113 376 113 559 c
113 743 158 887 249 991 c
340 1095 466 1147 627 1147 c

ce} _d
/p{1300 0 186 -426 1188 1147 sc
371 168 m
371 -426 l
186 -426 l
186 1120 l
371 1120 l
371 950 l
410 1017 458 1066 517 1098 c
576 1131 647 1147 729 1147 c
865 1147 975 1093 1060 985 c
1145 877 1188 735 1188 559 c
1188 383 1145 241 1060 133 c
975 25 865 -29 729 -29 c
647 -29 576 -13 517 19 c
458 52 410 101 371 168 c

997 559 m
997 694 969 800 913 877 c
858 954 781 993 684 993 c
587 993 510 954 454 877 c
399 800 371 694 371 559 c
371 424 399 317 454 240 c
510 163 587 125 684 125 c
781 125 858 163 913 240 c
969 317 997 424 997 559 c

ce} _d
/r{842 0 186 0 842 1147 sc
842 948 m
821 960 799 969 774 974 c
750 980 723 983 694 983 c
590 983 510 949 454 881 c
399 814 371 717 371 590 c
371 0 l
186 0 l
186 1120 l
371 1120 l
371 946 l
410 1014 460 1064 522 1097 c
584 1130 659 1147 748 1147 c
761 1147 775 1146 790 1144 c
805 1143 822 1140 841 1137 c
842 948 l

ce} _d
/s{1067 0 111 -29 967 1147 sc
907 1087 m
907 913 l
855 940 801 960 745 973 c
689 986 631 993 571 993 c
480 993 411 979 365 951 c
320 923 297 881 297 825 c
297 782 313 749 346 724 c
379 700 444 677 543 655 c
606 641 l
737 613 829 573 884 522 c
939 471 967 400 967 309 c
967 205 926 123 843 62 c
761 1 648 -29 504 -29 c
444 -29 381 -23 316 -11 c
251 0 183 18 111 41 c
111 231 l
179 196 246 169 312 151 c
378 134 443 125 508 125 c
595 125 661 140 708 169 c
755 199 778 241 778 295 c
778 345 761 383 727 410 c
694 437 620 462 506 487 c
442 502 l
328 526 246 563 195 612 c
144 662 119 730 119 817 c
119 922 156 1004 231 1061 c
306 1118 412 1147 549 1147 c
617 1147 681 1142 741 1132 c
801 1122 856 1107 907 1087 c

ce} _d
/t{803 0 55 0 754 1438 sc
375 1438 m
375 1120 l
754 1120 l
754 977 l
375 977 l
375 369 l
375 278 387 219 412 193 c
437 167 488 154 565 154 c
754 154 l
754 0 l
565 0 l
423 0 325 26 271 79 c
217 132 190 229 190 369 c
190 977 l
55 977 l
55 1120 l
190 1120 l
190 1438 l
375 1438 l

ce} _d
/u{1298 0 174 -29 1112 1147 sc
174 442 m
174 1120 l
358 1120 l
358 449 l
358 343 379 263 420 210 c
461 157 523 131 606 131 c
705 131 784 163 841 226 c
899 289 928 376 928 485 c
928 1120 l
1112 1120 l
1112 0 l
928 0 l
928 172 l
883 104 831 53 772 20 c
713 -13 645 -29 567 -29 c
438 -29 341 11 274 91 c
207 171 174 288 174 442 c

637 1147 m
637 1147 l

ce} _d
/y{1212 0 61 -426 1151 1120 sc
659 -104 m
607 -237 556 -324 507 -365 c
458 -406 392 -426 309 -426 c
162 -426 l
162 -272 l
270 -272 l
321 -272 360 -260 388 -236 c
416 -212 447 -155 481 -66 c
514 18 l
61 1120 l
256 1120 l
606 244 l
956 1120 l
1151 1120 l
659 -104 l

ce} _d
end readonly def

/BuildGlyph {
 exch begin
 CharStrings exch
 2 copy known not {pop /.notdef} if
 true 3 1 roll get exec
 end
} _d

/BuildChar {
 1 index /Encoding get exch get
 1 index /BuildGlyph get exec
} _d

FontName currentdict end definefont pop
%!PS-Adobe-3.0 Resource-Font
%%Creator: Converted from TrueType to Type 3 by Matplotlib.
10 dict begin
/FontName /DejaVuSans-Oblique def
/PaintType 0 def
/FontMatrix [0.00048828125 0 0 0.00048828125 0 0] def
/FontBBox [-2080 -717 3398 2187] def
/FontType 3 def
/Encoding [/t] def
/CharStrings 2 dict dup begin
/.notdef 0 def
/t{803 0 131 0 866 1438 sc
866 1120 m
838 977 l
471 977 l
352 369 l
348 346 345 327 343 312 c
341 297 340 285 340 276 c
340 233 353 202 378 183 c
404 164 445 154 502 154 c
688 154 l
657 0 l
481 0 l
372 0 290 21 236 64 c
183 107 156 171 156 258 c
156 273 157 290 159 308 c
161 327 164 347 168 369 c
287 977 l
131 977 l
160 1120 l
313 1120 l
375 1438 l
559 1438 l
498 1120 l
866 1120 l

ce} _d
end readonly def

/BuildGlyph {
 exch begin
 CharStrings exch
 2 copy known not {pop /.notdef} if
 true 3 1 roll get exec
 end
} _d

/BuildChar {
 1 index /Encoding get exch get
 1 index /BuildGlyph get exec
} _d

FontName currentdict end definefont pop
end
%%EndProlog
mpldict begin
-54 288 translate
720 216 0 0 clipbox
gsave
0 0 m
720 0 l
720 216 l
0 216 l
cl
1.000 setgray
fill
grestore
gsave
90 23.76 m
648 23.76 l
648 190.08 l
90 190.08 l
cl
1.000 setgray
fill
grestore
0.800 setlinewidth
1 setlinejoin
0 setlinecap
[] 0 setdash
0.000 setgray
gsave
/o {
gsave
newpath
translate
0.8 setlinewidth
1 setlinejoin

0 setlinecap

0 0 m
0 -3.5 l

gsave
0.000 setgray
fill
grestore
stroke
grestore
} bind def
115.364 23.76 o
grestore
/DejaVuSans 10.000 selectfont
gsave

112.183949 9.166250 translate
0.000000 rotate
0.000000 0 m /zero glyphshow
grestore
gsave
/o {
gsave
newpath
translate
0.8 setlinewidth
1 setlinejoin

0 setlinecap

0 0 m
0 -3.5 l

gsave
0.000 setgray
fill
grestore
stroke
grestore
} bind def
217.021 23.76 o
grestore
gsave

207.482435 9.166250 translate
0.000000 rotate
0.000000 0 m /one glyphshow
6.362305 0 m /zero glyphshow
12.724609 0 m /zero glyphshow
grestore
gsave
/o {
gsave
newpath
translate
0.8 setlinewidth
1 setlinejoin

0 setlinecap

0 0 m
0 -3.5 l

gsave
0.000 setgray
fill
grestore
stroke
grestore
} bind def
318.679 23.76 o
grestore
gsave

309.140296 9.166250 translate
0.000000 rotate
0.000000 0 m /two glyphshow
6.362305 0 m /zero glyphshow
12.724609 0 m /zero glyphshow
grestore
gsave
/o {
gsave
newpath
translate
0.8 setlinewidth
1 setlinejoin

0 setlinecap

0 0 m
0 -3.5 l

gsave
0.000 setgray
fill
grestore
stroke
grestore
} bind def
420.337 23.76 o
grestore
gsave

410.798157 9.166250 translate
0.000000 rotate
0.000000 0 m /three glyphshow
6.362305 0 m /zero glyphshow
12.724609 0 m /zero glyphshow
grestore
gsave
/o {
gsave
newpath
translate
0.8 setlinewidth
1 setlinejoin

0 setlinecap

0 0 m
0 -3.5 l

gsave
0.000 setgray
fill
grestore
stroke
grestore
} bind def
521.995 23.76 o
grestore
gsave

512.456019 9.166250 translate
0.000000 rotate
0.000000 0 m /four glyphshow
6.362305 0 m /zero glyphshow
12.724609 0 m /zero glyphshow
grestore
gsave
/o {
gsave
newpath
translate
0.8 setlinewidth
1 setlinejoin

0 setlinecap

0 0 m
0 -3.5 l

gsave
0.000 setgray
fill
grestore
stroke
grestore
} bind def
623.653 23.76 o
grestore
gsave

614.113880 9.166250 translate
0.000000 rotate
0.000000 0 m /five glyphshow
6.362305 0 m /zero glyphshow
12.724609 0 m /zero glyphshow
grestore
gsave
367.000000 -4.505625 translate
0.000000 rotate
/DejaVuSans-Oblique 10.0 selectfont
0.000000 0.984375 moveto
/t glyphshow
grestore
gsave
/o {
gsave
newpath
translate
0.8 setlinewidth
1 setlinejoin

0 setlinecap

-0 0 m
-3.5 0 l

gsave
0.000 setgray
fill
grestore
stroke
grestore
} bind def
90 40.392 o
grestore
gsave

58.718750 36.595125 translate
0.000000 rotate
0.000000 0 m /minus glyphshow
8.378906 0 m /zero glyphshow
14.741211 0 m /period glyphshow
17.919922 0 m /four glyphshow
grestore
gsave
/o {
gsave
newpath
translate
0.8 setlinewidth
1 setlinejoin

0 setlinecap

-0 0 m
-3.5 0 l

gsave
0.000 setgray
fill
grestore
stroke
grestore
} bind def
90 73.656 o
grestore
gsave

58.718750 69.859125 translate
0.000000 rotate
0.000000 0 m /minus glyphshow
8.378906 0 m /zero glyphshow
14.741211 0 m /period glyphshow
17.919922 0 m /two glyphshow
grestore
gsave
/o {
gsave
newpath
translate
0.8 setlinewidth
1 setlinejoin

0 setlinecap

-0 0 m
-3.5 0 l

gsave
0.000 setgray
fill
grestore
stroke
grestore
} bind def
90 106.92 o
grestore
gsave

67.093750 103.123125 translate
0.000000 rotate
0.000000 0 m /zero glyphshow
6.362305 0 m /period glyphshow
9.541016 0 m /zero glyphshow
grestore
gsave
/o {
gsave
newpath
translate
0.8 setlinewidth
1 setlinejoin

0 setlinecap

-0 0 m
-3.5 0 l

gsave
0.000 setgray
fill
grestore
stroke
grestore
} bind def
90 140.184 o
grestore
gsave

67.093750 136.387125 translate
0.000000 rotate
0.000000 0 m /zero glyphshow
6.362305 0 m /period glyphshow
9.541016 0 m /two glyphshow
grestore
gsave
/o {
gsave
newpath
translate
0.8 setlinewidth
1 setlinejoin

0 setlinecap

-0 0 m
-3.5 0 l

gsave
0.000 setgray
fill
grestore
stroke
grestore
} bind def
90 173.448 o
grestore
gsave

67.093750 169.651125 translate
0.000000 rotate
0.000000 0 m /zero glyphshow
6.362305 0 m /period glyphshow
9.541016 0 m /four glyphshow
grestore
1.500 setlinewidth
2 setlinecap
0.000 0.000 1.000 setrgbcolor
gsave
558 166.32 90 23.76 clipbox
115.363636 138.2914 m
116.380215 118.006068 l
117.396794 107.069525 l
118.413372 97.692786 l
119.429951 93.737581 l
120.446529 94.098751 l
121.463108 90.58377 l
122.479687 80.874362 l
123.496265 74.233129 l
124.512844 68.988533 l
125.529422 64.760581 l
126.546001 65.25002 l
128.579158 54.953102 l
129.595737 51.724338 l
130.612316 46.46118 l
131.628894 43.553433 l
132.645473 39.502171 l
133.662051 36.124716 l
134.67863 35.907524 l
135.695209 42.178598 l
136.711787 55.660859 l
138.744944 93.060684 l
139.761523 105.443687 l
140.778102 111.658185 l
141.79468 113.487963 l
142.811259 114.599249 l
143.827837 116.650729 l
144.844416 119.206953 l
147.894152 127.613176 l
148.910731 128.917363 l
149.927309 129.595496 l
151.960466 130.535652 l
152.977045 131.537193 l
153.993624 133.250134 l
155.010202 135.412382 l
156.026781 138.406335 l
158.059938 146.8894 l
159.076517 147.755249 l
160.093095 145.195581 l
161.109674 140.590615 l
162.126253 134.601692 l
163.142831 126.719872 l
166.192567 98.847229 l
170.258881 68.854348 l
171.27546 62.080756 l
172.292039 57.028408 l
173.308617 53.612403 l
175.341774 47.999768 l
176.358353 44.436458 l
177.374932 40.101306 l
178.39151 34.845608 l
180.424668 22.893024 l
181.441246 21.968166 l
182.457825 29.70188 l
183.474403 47.008282 l
185.507561 89.81605 l
186.524139 103.667829 l
187.540718 110.220036 l
188.557296 111.597868 l
189.573875 111.4854 l
190.590454 111.97868 l
191.607032 113.063067 l
193.640189 116.30961 l
194.656768 117.228827 l
195.673347 116.941367 l
196.689925 116.203504 l
197.706504 115.650167 l
198.723083 115.48971 l
199.739661 116.133307 l
200.75624 117.960499 l
201.772818 120.757025 l
202.789397 124.32973 l
203.805976 129.312464 l
204.822554 135.550357 l
205.839133 140.263503 l
206.855711 140.675971 l
207.87229 137.514127 l
209.905447 129.317177 l
210.922026 124.257588 l
213.971762 104.673722 l
214.98834 100.055893 l
216.004919 96.646043 l
217.021498 93.798688 l
218.038076 90.471185 l
219.054655 86.152229 l
221.087812 75.360751 l
224.137548 58.028014 l
225.154126 53.380799 l
226.170705 49.94863 l
227.187284 47.896641 l
228.203862 47.233008 l
229.220441 47.702769 l
230.237019 49.186567 l
231.253598 52.521944 l
232.270177 59.162245 l
233.286755 69.333363 l
235.319913 92.053043 l
236.336491 100.538922 l
237.35307 106.852361 l
241.419384 127.322774 l
242.435963 130.386313 l
243.452541 132.142088 l
244.46912 132.958301 l
245.485699 133.321191 l
246.502277 133.89797 l
247.518856 135.200564 l
248.535435 137.450183 l
249.552013 140.581489 l
250.568592 144.083102 l
251.58517 147.138862 l
252.601749 149.56478 l
253.618328 151.499922 l
254.634906 152.069069 l
255.651485 150.322519 l
256.668063 146.016511 l
257.684642 139.368752 l
258.701221 130.918504 l
265.817271 64.105722 l
266.83385 55.230684 l
267.850428 48.61277 l
268.867007 45.04644 l
269.883585 43.792969 l
270.900164 42.983655 l
271.916743 40.831008 l
272.933321 36.204889 l
273.9499 28.630841 l
274.966478 19.068852 l
275.983057 11.237292 l
276.999636 10.233884 l
278.016214 19.797285 l
279.032793 39.416321 l
281.06595 84.087079 l
282.082529 98.918031 l
283.099107 106.089773 l
284.115686 107.311749 l
285.132265 106.490769 l
286.148843 105.947654 l
287.165422 106.05261 l
289.198579 107.497954 l
290.215158 107.307034 l
291.231736 105.943842 l
292.248315 104.281586 l
293.264893 102.908237 l
294.281472 101.98817 l
295.298051 102.023695 l
296.314629 103.667724 l
297.331208 107.133209 l
298.347786 112.201575 l
301.397522 131.915779 l
302.414101 135.629065 l
303.43068 135.929931 l
304.447258 133.123445 l
305.463837 129.099574 l
306.480415 125.685402 l
310.54673 116.226552 l
311.563308 114.722461 l
312.579887 114.51483 l
313.596466 114.967117 l
314.613044 114.583522 l
315.629623 112.043039 l
316.646201 107.17451 l
318.679359 93.929401 l
321.729095 73.985822 l
322.745673 68.618621 l
323.762252 65.053584 l
324.77883 63.46804 l
325.795409 63.18702 l
328.845145 63.479112 l
329.861723 64.174398 l
332.911459 67.947256 l
333.928038 69.000752 l
334.944617 71.148718 l
335.961195 75.705945 l
336.977774 83.050755 l
339.010931 101.010528 l
340.02751 108.80638 l
342.060667 121.911068 l
343.077245 127.772178 l
344.093824 132.979725 l
345.110403 137.45057 l
346.126981 141.199859 l
347.14356 144.242091 l
348.160138 146.606539 l
350.193296 150.271951 l
351.209874 152.644867 l
353.243032 158.774226 l
354.25961 159.762968 l
355.276189 158.497128 l
356.292767 155.119245 l
357.309346 149.781052 l
358.325925 142.722474 l
360.359082 125.647442 l
362.392239 106.711955 l
364.425396 85.532507 l
367.475132 46.283896 l
368.491711 37.701669 l
369.508289 34.626748 l
370.524868 36.148352 l
371.541447 38.894667 l
372.558025 38.940406 l
373.574604 34.058771 l
374.591182 24.086416 l
375.607761 11.323851 l
376.62434 1.215732 l
377.640918 -0.572158 l
378.657497 8.939163 l
379.674075 27.758194 l
381.707233 70.479768 l
382.723811 87.334499 l
383.74039 97.448126 l
384.756968 100.577346 l
385.773547 99.97962 l
386.790126 98.660842 l
387.806704 97.903319 l
389.839862 97.692152 l
390.85644 96.491676 l
391.873019 93.993651 l
392.889597 91.184206 l
393.906176 88.816999 l
394.922755 87.115639 l
395.939333 86.444994 l
396.955912 87.322246 l
397.97249 90.143648 l
398.989069 95.081152 l
400.005648 102.136742 l
402.038805 119.550845 l
403.055383 126.695041 l
404.071962 131.655945 l
405.088541 134.658741 l
406.105119 134.963281 l
407.121698 132.075455 l
408.138277 128.215475 l
409.154855 126.419673 l
410.171434 127.65 l
411.188012 130.243204 l
414.237748 136.874257 l
415.254327 138.862331 l
416.270905 139.794823 l
417.287484 138.324369 l
418.304063 133.582697 l
420.33722 119.894626 l
422.370377 108.537844 l
423.386956 101.814517 l
425.420113 85.468083 l
426.436692 78.959784 l
427.45327 74.715431 l
428.469849 71.481116 l
429.486427 67.55731 l
430.503006 62.15268 l
432.536163 49.277914 l
433.552742 44.085763 l
434.56932 40.19818 l
436.602478 33.536859 l
437.619056 30.89323 l
438.635635 31.797241 l
439.652214 39.577417 l
440.668792 55.4124 l
442.701949 93.812708 l
443.718528 105.695541 l
444.735107 110.972826 l
445.751685 112.270232 l
446.768264 112.907523 l
447.784842 114.358038 l
448.801421 116.446334 l
450.834578 121.952212 l
451.851157 124.017559 l
452.867735 124.944171 l
453.884314 125.303416 l
455.917471 125.744451 l
456.93405 126.603688 l
457.950629 128.25466 l
458.967207 130.422011 l
459.983786 133.546351 l
462.016943 143.563092 l
463.033522 145.393831 l
464.0501 143.378708 l
465.066679 139.396676 l
466.083257 134.572787 l
467.099836 128.133457 l
470.149572 102.290636 l
472.182729 89.345941 l
476.249044 65.566029 l
478.282201 57.152194 l
484.381672 33.117307 l
485.398251 30.015269 l
486.41483 31.677851 l
487.431408 41.304389 l
488.447987 58.921551 l
489.464565 79.630342 l
490.481144 96.871514 l
491.497723 107.540501 l
492.514301 112.297337 l
493.53088 113.855707 l
494.547459 115.077264 l
496.580616 118.814911 l
498.613773 122.51972 l
499.630352 123.318514 l
500.64693 123.158256 l
501.663509 122.869242 l
502.680087 122.948577 l
503.696666 123.641384 l
504.713245 125.226531 l
506.746402 130.094597 l
507.762981 133.372515 l
509.796138 143.405138 l
510.812716 144.870464 l
511.829295 142.327298 l
512.845874 137.820363 l
513.862452 132.642714 l
514.879031 126.079658 l
517.928767 100.785199 l
518.945345 94.425675 l
525.044817 62.603253 l
528.094553 49.053486 l
529.111131 44.978158 l
531.144289 38.28802 l
532.160867 34.972726 l
533.177446 32.795883 l
534.194024 35.12785 l
535.210603 44.954309 l
536.227182 62.122677 l
537.24376 81.834542 l
538.260339 97.939343 l
539.276917 107.81202 l
540.293496 112.436382 l
543.343232 118.64424 l
545.376389 122.925516 l
546.392968 124.627263 l
547.409546 125.361121 l
549.442704 125.026356 l
550.459282 125.284552 l
551.475861 126.266899 l
552.492439 128.17119 l
554.525597 133.197015 l
555.542175 136.43812 l
556.558754 141.254522 l
557.575332 145.424687 l
558.591911 145.95675 l
559.60849 142.857795 l
560.625068 137.932943 l
561.641647 132.007512 l
562.658226 124.412132 l
564.691383 105.912331 l
565.707961 97.935028 l
566.72454 91.315295 l
571.807433 62.237192 l
573.84059 53.761073 l
577.906905 37.699148 l
579.940062 28.928836 l
580.956641 27.97898 l
581.973219 34.30286 l
582.989798 49.548495 l
585.022955 90.313885 l
586.039534 103.960437 l
587.056112 110.840736 l
588.072691 113.104009 l
589.089269 113.974639 l
590.105848 115.356021 l
592.139005 118.919393 l
593.155584 120.792195 l
594.172163 122.014178 l
595.188741 122.074065 l
596.20532 121.609473 l
597.221898 121.33653 l
598.238477 121.546541 l
599.255056 122.569261 l
600.271634 124.578071 l
601.288213 127.121037 l
602.304791 130.049771 l
603.32137 134.451296 l
604.337949 140.148373 l
605.354527 143.812793 l
606.371106 143.116959 l
607.387684 139.327167 l
608.404263 134.646379 l
609.420842 129.271251 l
610.43742 122.122815 l
612.470578 105.209881 l
613.487156 98.381868 l
614.503735 92.924039 l
617.553471 78.618295 l
620.603206 62.940504 l
622.636364 53.214521 l
622.636364 53.214521 l
stroke
grestore
1.000 0.000 0.000 setrgbcolor
gsave
558 166.32 90 23.76 clipbox
115.363636 127.994217 m
116.380215 121.483278 l
120.446529 90.404524 l
121.463108 83.975657 l
122.479687 78.36209 l
124.512844 69.00314 l
127.56258 56.933366 l
129.595737 49.376786 l
130.612316 46.03626 l
131.628894 43.332811 l
132.645473 41.674175 l
133.662051 41.584772 l
134.67863 43.610192 l
135.695209 48.101151 l
136.711787 54.968688 l
138.744944 73.221985 l
140.778102 92.160217 l
141.79468 100.545737 l
142.811259 107.903264 l
143.827837 114.152929 l
144.844416 119.274521 l
145.860995 123.287351 l
146.877573 126.247104 l
147.894152 128.25155 l
148.910731 129.45226 l
149.927309 130.072571 l
150.943888 130.426939 l
151.960466 130.922399 l
152.977045 132.00801 l
153.993624 134.045395 l
155.010202 137.11677 l
157.043359 144.342169 l
158.059938 146.48753 l
159.076517 146.397466 l
160.093095 143.780848 l
161.109674 138.895317 l
162.126253 132.29415 l
164.15941 116.390736 l
166.192567 100.161946 l
168.225724 85.905447 l
170.258881 73.956636 l
176.358353 41.298248 l
177.374932 37.09437 l
178.39151 33.93591 l
179.408089 32.128529 l
180.424668 32.027839 l
181.441246 34.008153 l
182.457825 38.342402 l
183.474403 45.021708 l
184.490982 53.641748 l
188.557296 92.778705 l
189.573875 100.749243 l
190.590454 107.35039 l
191.607032 112.465847 l
192.623611 116.085016 l
193.640189 118.306353 l
194.656768 119.323649 l
195.673347 119.406739 l
196.689925 118.891181 l
197.706504 118.177343 l
198.723083 117.724486 l
199.739661 118.015955 l
200.75624 119.475262 l
201.772818 122.334573 l
202.789397 126.478743 l
204.822554 135.77018 l
205.839133 138.662078 l
206.855711 139.195853 l
207.87229 137.270756 l
208.888869 133.335633 l
209.905447 128.074683 l
212.955183 110.560923 l
213.971762 105.540211 l
214.98834 101.234299 l
217.021498 94.334019 l
218.038076 91.119337 l
219.054655 87.482551 l
220.071233 83.048838 l
221.087812 77.695194 l
224.137548 59.430659 l
225.154126 54.286723 l
226.170705 50.321644 l
227.187284 47.840822 l
228.203862 47.079684 l
229.220441 48.1692 l
230.237019 51.083756 l
231.253598 55.618234 l
232.270177 61.428461 l
234.303334 75.355664 l
239.386227 113.107257 l
240.402806 119.359294 l
241.419384 124.41803 l
242.435963 128.205287 l
243.452541 130.85374 l
244.46912 132.641774 l
247.518856 136.534842 l
248.535435 138.469866 l
249.552013 141.013372 l
252.601749 150.053651 l
253.618328 151.769704 l
254.634906 151.706072 l
255.651485 149.352832 l
256.668063 144.58163 l
257.684642 137.714356 l
259.717799 120.269252 l
262.767535 93.360904 l
264.800692 77.9318 l
266.83385 64.268432 l
268.867007 51.664077 l
270.900164 40.323349 l
271.916743 35.419573 l
272.933321 31.230943 l
273.9499 27.950274 l
274.966478 25.838898 l
275.983057 25.257228 l
276.999636 26.654415 l
278.016214 30.459739 l
279.032793 36.857294 l
280.049371 45.565299 l
284.115686 86.604684 l
285.132265 94.607825 l
286.148843 100.962139 l
287.165422 105.637431 l
288.182 108.720812 l
289.198579 110.378258 l
290.215158 110.829598 l
291.231736 110.338716 l
292.248315 109.218524 l
293.264893 107.846202 l
294.281472 106.676436 l
295.298051 106.228198 l
296.314629 107.015588 l
297.331208 109.41613 l
298.347786 113.506091 l
301.397522 129.584839 l
302.414101 132.608396 l
303.43068 133.399616 l
304.447258 132.24911 l
305.463837 129.762201 l
308.513573 120.295599 l
309.530151 117.892391 l
310.54673 116.204728 l
311.563308 115.183762 l
313.596466 114.036138 l
314.613044 112.952404 l
315.629623 110.74146 l
316.646201 106.928048 l
317.66278 101.428481 l
319.695937 87.408909 l
320.712516 80.377164 l
321.729095 74.135327 l
322.745673 69.035725 l
323.762252 65.255167 l
324.77883 62.819085 l
325.795409 61.617485 l
326.811988 61.428871 l
327.828566 61.963518 l
328.845145 62.924658 l
330.878302 65.314685 l
331.894881 66.708244 l
332.911459 68.539218 l
333.928038 71.279141 l
334.944617 75.458486 l
335.961195 81.368727 l
337.994352 96.85464 l
340.02751 112.020283 l
341.044088 118.276247 l
342.060667 123.613802 l
343.077245 128.202165 l
345.110403 135.880347 l
347.14356 142.37523 l
349.176717 148.06086 l
351.209874 153.109765 l
352.226453 155.424114 l
353.243032 157.429889 l
354.25961 158.656613 l
355.276189 158.349698 l
356.292767 155.839394 l
357.309346 150.943851 l
358.325925 143.977914 l
359.342503 135.487974 l
361.37566 116.063059 l
364.425396 86.324928 l
366.458553 68.529654 l
368.491711 53.171203 l
370.524868 40.324579 l
371.541447 34.820144 l
372.558025 29.95493 l
373.574604 25.798121 l
374.591182 22.464817 l
375.607761 20.132272 l
376.62434 19.073078 l
377.640918 19.686809 l
378.657497 22.479927 l
379.674075 27.910919 l
380.690654 36.068871 l
382.723811 57.69998 l
383.74039 68.753053 l
384.756968 78.581513 l
385.773547 86.670304 l
386.790126 92.86295 l
387.806704 97.220017 l
388.823283 99.910177 l
389.839862 101.150232 l
390.85644 101.181748 l
391.873019 100.268224 l
392.889597 98.703199 l
394.922755 95.044204 l
395.939333 93.84358 l
396.955912 93.768611 l
397.97249 95.327844 l
398.989069 98.827196 l
400.005648 104.173771 l
402.038805 117.369317 l
403.055383 122.946332 l
404.071962 126.812248 l
405.088541 128.970399 l
406.105119 129.836372 l
407.121698 129.955667 l
408.138277 129.835868 l
409.154855 129.873314 l
410.171434 130.323957 l
411.188012 131.292593 l
412.204591 132.735923 l
414.237748 136.251078 l
415.254327 137.674552 l
416.270905 138.259492 l
417.287484 137.38325 l
418.304063 134.44844 l
419.320641 129.255095 l
420.33722 122.229565 l
424.403534 90.728191 l
426.436692 78.406417 l
428.469849 68.282847 l
431.519585 54.656323 l
433.552742 46.342209 l
434.56932 42.778217 l
435.585899 39.958042 l
436.602478 38.28144 l
437.619056 38.250848 l
438.635635 40.375599 l
439.652214 44.970345 l
440.668792 51.933931 l
441.685371 60.701197 l
444.735107 89.788211 l
445.751685 98.364319 l
446.768264 105.843094 l
447.784842 112.110945 l
448.801421 117.133526 l
449.818 120.935835 l
450.834578 123.593922 l
451.851157 125.233946 l
452.867735 126.039151 l
453.884314 126.265447 l
454.900893 126.258748 l
455.917471 126.45361 l
456.93405 127.32176 l
457.950629 129.249397 l
458.967207 132.360719 l
461.000364 140.37328 l
462.016943 143.304073 l
463.033522 144.139032 l
464.0501 142.456204 l
465.066679 138.442884 l
466.083257 132.644246 l
468.116415 118.222758 l
470.149572 103.45042 l
472.182729 90.703375 l
474.215886 80.219245 l
476.249044 70.255688 l
478.282201 59.146129 l
480.315358 48.00688 l
481.331937 43.286947 l
482.348515 39.572203 l
483.365094 37.17178 l
484.381672 36.408822 l
485.398251 37.601605 l
486.41483 40.977715 l
487.431408 46.545933 l
488.447987 54.013178 l
490.481144 72.346533 l
492.514301 91.211301 l
493.53088 99.724692 l
494.547459 107.210651 l
495.564037 113.430436 l
496.580616 118.235146 l
497.597194 121.607018 l
498.613773 123.664697 l
499.630352 124.637767 l
500.64693 124.839409 l
502.680087 124.503193 l
503.696666 124.851723 l
504.713245 126.099418 l
505.729823 128.495005 l
506.746402 132.006192 l
508.779559 140.217676 l
509.796138 142.942145 l
510.812716 143.442559 l
511.829295 141.3545 l
512.845874 136.931116 l
513.862452 130.801969 l
517.928767 102.184404 l
519.961924 90.622247 l
525.044817 65.887875 l
528.094553 48.864614 l
529.111131 44.185314 l
530.12771 40.594434 l
531.144289 38.425049 l
532.160867 38.01183 l
533.177446 39.645943 l
534.194024 43.470807 l
535.210603 49.374717 l
536.227182 56.971579 l
538.260339 74.985248 l
540.293496 93.322553 l
541.310075 101.659001 l
542.326653 109.036555 l
543.343232 115.195519 l
544.359811 119.967352 l
545.376389 123.325007 l
546.392968 125.387822 l
547.409546 126.393921 l
548.426125 126.671424 l
549.442704 126.61886 l
550.459282 126.681976 l
551.475861 127.306081 l
552.492439 128.853491 l
553.509018 131.496145 l
554.525597 135.103884 l
556.558754 142.754473 l
557.575332 144.834401 l
558.591911 144.574873 l
559.60849 141.721678 l
560.625068 136.596613 l
561.641647 129.856316 l
565.707961 99.548352 l
567.741119 87.30205 l
573.84059 55.170479 l
575.873747 44.449721 l
576.890326 40.162756 l
577.906905 37.020584 l
578.923483 35.362392 l
579.940062 35.547692 l
580.956641 37.891174 l
581.973219 42.529669 l
582.989798 49.295984 l
584.006376 57.711892 l
588.072691 95.385987 l
589.089269 103.385565 l
590.105848 110.175703 l
591.122427 115.572662 l
592.139005 119.508562 l
593.155584 122.04721 l
594.172163 123.369829 l
595.188741 123.750792 l
596.20532 123.541645 l
597.221898 123.161958 l
598.238477 123.078703 l
599.255056 123.751561 l
600.271634 125.536018 l
601.288213 128.559493 l
604.337949 140.641787 l
605.354527 142.502057 l
606.371106 141.871317 l
607.387684 138.724407 l
608.404263 133.553922 l
610.43742 119.973191 l
612.470578 106.065097 l
613.487156 99.919778 l
614.503735 94.485859 l
616.536892 85.298822 l
618.570049 76.381795 l
620.603206 65.639315 l
622.636364 53.965845 l
622.636364 53.965845 l
stroke
grestore
0.800 setlinewidth
0 setlinejoin
0.000 setgray
gsave
90 23.76 m
90 190.08 l
stroke
grestore
gsave
648 23.76 m
648 190.08 l
stroke
grestore
gsave
90 23.76 m
648 23.76 l
stroke
grestore
gsave
90 190.08 m
648 190.08 l
stroke
grestore
/DejaVuSans 12.000 selectfont
gsave

145.710938 196.080000 translate
0.000000 rotate
0.000000 0 m /P glyphshow
7.236328 0 m /y glyphshow
14.337891 0 m /t glyphshow
19.042969 0 m /o glyphshow
26.384766 0 m /r glyphshow
31.068359 0 m /c glyphshow
37.666016 0 m /h glyphshow
45.271484 0 m /space glyphshow
49.085938 0 m /A glyphshow
57.044922 0 m /c glyphshow
63.642578 0 m /c glyphshow
70.240234 0 m /u glyphshow
77.845703 0 m /r glyphshow
82.779297 0 m /a glyphshow
90.132812 0 m /c glyphshow
96.730469 0 m /y glyphshow
103.832031 0 m /space glyphshow
107.646484 0 m /G glyphshow
116.945312 0 m /r glyphshow
121.878906 0 m /a glyphshow
129.232422 0 m /p glyphshow
136.849609 0 m /h glyphshow
144.455078 0 m /i glyphshow
147.789062 0 m /c glyphshow
154.386719 0 m /colon glyphshow
158.429688 0 m /space glyphshow
162.244141 0 m /P glyphshow
169.230469 0 m /r glyphshow
173.914062 0 m /e glyphshow
181.296875 0 m /d glyphshow
188.914062 0 m /i glyphshow
192.248047 0 m /c glyphshow
198.845703 0 m /t glyphshow
203.550781 0 m /e glyphshow
210.933594 0 m /d glyphshow
218.550781 0 m /space glyphshow
222.365234 0 m /a glyphshow
229.718750 0 m /n glyphshow
237.324219 0 m /d glyphshow
244.941406 0 m /space glyphshow
248.755859 0 m /A glyphshow
256.714844 0 m /c glyphshow
263.312500 0 m /t glyphshow
268.017578 0 m /u glyphshow
275.623047 0 m /a glyphshow
282.976562 0 m /l glyphshow
286.310547 0 m /space glyphshow
290.125000 0 m /M glyphshow
300.478516 0 m /a glyphshow
307.832031 0 m /c glyphshow
314.429688 0 m /k glyphshow
321.003906 0 m /e glyphshow
328.386719 0 m /y glyphshow
335.488281 0 m /underscore glyphshow
341.488281 0 m /G glyphshow
350.787109 0 m /l glyphshow
354.121094 0 m /a glyphshow
361.474609 0 m /s glyphshow
367.726562 0 m /s glyphshow
373.978516 0 m /space glyphshow
377.792969 0 m /T glyphshow
384.748047 0 m /i glyphshow
388.082031 0 m /m glyphshow
399.771484 0 m /e glyphshow
407.154297 0 m /s glyphshow
413.406250 0 m /e glyphshow
420.789062 0 m /r glyphshow
425.722656 0 m /i glyphshow
429.056641 0 m /e glyphshow
436.439453 0 m /s glyphshow
442.691406 0 m /period glyphshow
grestore
1.000 setlinewidth
0 setlinecap
0.800 setgray
gsave
558.84375 152.73625 m
641 152.73625 l
642.333333 152.73625 643 153.402917 643 154.73625 c
643 183.08 l
643 184.413333 642.333333 185.08 641 185.08 c
558.84375 185.08 l
557.510417 185.08 556.84375 184.413333 556.84375 183.08 c
556.84375 154.73625 l
556.84375 153.402917 557.510417 152.73625 558.84375 152.73625 c
cl
gsave
1.000 setgray
fill
grestore
stroke
grestore
1.500 setlinewidth
1 setlinejoin
2 setlinecap
0.000 0.000 1.000 setrgbcolor
gsave
560.84375 176.98625 m
570.84375 176.98625 l
580.84375 176.98625 l
stroke
grestore
0.000 setgray
/DejaVuSans 10.000 selectfont
gsave

588.843750 173.486250 translate
0.000000 rotate
0.000000 0 m /P glyphshow
5.905273 0 m /r glyphshow
9.766602 0 m /e glyphshow
15.918945 0 m /d glyphshow
22.266602 0 m /i glyphshow
25.044922 0 m /c glyphshow
30.542969 0 m /t glyphshow
34.463867 0 m /e glyphshow
40.616211 0 m /d glyphshow
46.963867 0 m /space glyphshow
grestore
1.000 0.000 0.000 setrgbcolor
gsave
560.84375 162.314375 m
570.84375 162.314375 l
580.84375 162.314375 l
stroke
grestore
0.000 setgray
gsave

588.843750 158.814375 translate
0.000000 rotate
0.000000 0 m /R glyphshow
6.448242 0 m /e glyphshow
12.600586 0 m /a glyphshow
18.728516 0 m /l glyphshow
21.506836 0 m /space glyphshow
grestore

end
showpage
